<?xml version="1.0" standalone="no"?>
<!DOCTYPE svg PUBLIC "-//W3C//DTD SVG 1.1//EN" "http://www.w3.org/Graphics/SVG/1.1/DTD/svg11.dtd" >
<svg xmlns="http://www.w3.org/2000/svg">
<metadata></metadata>
<defs>
<font id="pt_sansitalic" horiz-adv-x="520" >
<font-face units-per-em="1000" ascent="750" descent="-250" />
<missing-glyph horiz-adv-x="267" />
<glyph horiz-adv-x="1000" />
<glyph horiz-adv-x="1000" />
<glyph unicode="&#xd;" horiz-adv-x="267" />
<glyph unicode=" "  horiz-adv-x="267" />
<glyph unicode="&#x09;" horiz-adv-x="267" />
<glyph unicode="&#xa0;" horiz-adv-x="267" />
<glyph unicode="!" horiz-adv-x="273" d="M237 700h80l-73 -347l-54 -176h-46l20 176zM87 46q0 27 16 42.5t42 15.5t42 -15.5t16 -42.5q0 -26 -16 -42t-42 -16t-42 16t-16 42z" />
<glyph unicode="&#x22;" horiz-adv-x="303" d="M79 507zM231 700h74l-70 -193h-45zM120 700h74l-70 -193h-45z" />
<glyph unicode="#" d="M316 225h-106l-39 -167h-68l39 167h-78l14 64h80l31 131h-75l14 64h76l38 158h68l-38 -158h106l38 158h68l-38 -158h77l-16 -64h-76l-31 -131h73l-16 -64h-73l-39 -167h-68zM226 289h106l31 131h-106z" />
<glyph unicode="$" d="M198 -9q-48 7 -84 26t-53 34l35 61q16 -11 46.5 -28t70.5 -24l60 281q-22 16 -43.5 34t-38 39t-27 47.5t-10.5 60.5q0 44 14.5 77.5t41 57t62.5 37t79 16.5l20 90h64l-19 -89q43 -4 73.5 -15t51.5 -22l-34 -63q-17 8 -44 16.5t-62 12.5l-54 -251q23 -17 45.5 -36t40 -43 t28.5 -54.5t11 -70.5q0 -41 -14 -75.5t-41 -60t-66.5 -41.5t-89.5 -19q0 -1 -3 -14.5t-6 -30.5q-4 -19 -9 -44h-64zM390 178q0 45 -22 75.5t-53 56.5l-54 -252q60 4 94.5 36t34.5 84zM236 534q0 -38 20 -64.5t49 -49.5l47 221q-57 -4 -86.5 -33.5t-29.5 -73.5z" />
<glyph unicode="%" horiz-adv-x="736" d="M60 0zM60 490q0 58 17.5 100t44.5 69t60 40t65 13q57 0 86.5 -31t29.5 -88q0 -54 -15 -95t-40.5 -69t-60 -42.5t-72.5 -14.5q-51 0 -83 31t-32 87zM129 498q0 -32 14.5 -50t43.5 -18q21 0 40.5 11t34.5 31.5t23.5 50t8.5 66.5q0 35 -15.5 50t-43.5 15q-21 0 -40.5 -12.5 t-34 -33.5t-23 -49.5t-8.5 -60.5zM386 119q0 58 17.5 100t44.5 69t60 40t65 13q57 0 86.5 -31t29.5 -88q0 -54 -15 -95t-40.5 -69t-60 -42.5t-72.5 -14.5q-51 0 -83 31t-32 87zM455 127q0 -32 14.5 -50t43.5 -18q21 0 40.5 11t34.5 31.5t23.5 50t8.5 66.5q0 35 -15.5 50 t-43.5 15q-21 0 -40.5 -12.5t-34 -33.5t-23 -49.5t-8.5 -60.5zM601 713l50 -39l-513 -686l-50 39z" />
<glyph unicode="&#x26;" horiz-adv-x="772" d="M87 148q0 47 19.5 90t50.5 80t70 66.5t78 49.5q-7 18 -12 32.5t-8.5 29t-5 30t-1.5 35.5q0 27 10 54t31 48.5t52.5 35t75.5 13.5q35 0 56.5 -9.5t33.5 -23.5t16 -31t4 -32q0 -57 -43.5 -105.5t-118.5 -89.5q10 -29 23.5 -59.5t29.5 -60.5t34 -59.5t36 -54.5 q13 12 27.5 30.5t28.5 39t27 42.5t24 42l53 -29q-9 -17 -25 -40.5t-34 -48t-36 -47t-32 -37.5q32 -40 54.5 -61t47.5 -37l-58 -56q-23 13 -49 38t-51 58q-21 -18 -45 -34.5t-52 -29.5t-60.5 -21t-69.5 -8q-42 0 -75.5 12t-57 33.5t-36 50.5t-12.5 64zM460 131 q-21 29 -40.5 63t-36.5 68t-30.5 65.5t-22.5 55.5q-36 -23 -66 -49t-51.5 -53.5t-33.5 -56.5t-12 -59q0 -54 33 -81t93 -27q24 0 48 6.5t46 17t40.5 23.5t32.5 27zM353 563q0 -15 1 -27t3.5 -22.5t6 -21.5t9.5 -26q57 34 85.5 65t28.5 69q0 20 -11.5 34t-39.5 14 q-23 0 -38.5 -7t-25.5 -19.5t-14.5 -28t-4.5 -30.5z" />
<glyph unicode="'" horiz-adv-x="202" d="M143 700h74l-70 -193h-45z" />
<glyph unicode="(" horiz-adv-x="266" d="M145 -218q-54 79 -72.5 152.5t-18.5 138.5q0 103 23 196t62 174t90 148.5t107 118.5l37 -35q-56 -62 -100.5 -131.5t-76.5 -144.5t-48 -154.5t-16 -159.5q0 -64 13.5 -132t45.5 -136z" />
<glyph unicode=")" horiz-adv-x="266" d="M137 710q23 -32 39 -69t26 -75t14.5 -75.5t4.5 -69.5q0 -102 -22.5 -195.5t-61 -175t-89 -149.5t-105.5 -119l-38 35q49 51 91.5 119t75.5 143.5t52 156t19 157.5q0 96 -12.5 163t-43.5 121z" />
<glyph unicode="*" horiz-adv-x="333" d="M161 715l25 -42l18 -56l21 57l24 40l48 -26l-25 -43l-47 -48l68 12h48v-56h-45l-65 12l46 -48l24 -39l-48 -28l-25 42l-24 61l-18 -58l-25 -42l-50 28l26 42l43 42l-59 -12h-50v56h50l63 -12l-45 44l-27 46z" />
<glyph unicode="+" horiz-adv-x="480" d="M55 374h176v181h72v-181h176v-72h-176v-181h-72v181h-176v72z" />
<glyph unicode="," horiz-adv-x="186" d="M17 35q0 26 17 44t49 18q25 0 38.5 -17t13.5 -39q0 -31 -10.5 -60.5t-29.5 -54.5t-44.5 -44.5t-55.5 -30.5l-16 39q38 14 61 44t28 59q-4 -2 -10 -2q-14 0 -27.5 12t-13.5 32z" />
<glyph unicode="-" horiz-adv-x="342" d="M79 322h230l-17 -68h-229z" />
<glyph unicode="." horiz-adv-x="211" d="M35 46q0 27 16 42.5t42 15.5t42 -15.5t16 -42.5q0 -26 -16 -42t-42 -16t-42 16t-16 42z" />
<glyph unicode="/" horiz-adv-x="336" d="M428 712l57 -31l-521 -825l-57 32z" />
<glyph unicode="0" d="M57 219q0 105 22.5 195.5t62 156.5t94.5 103.5t121 37.5q85 0 131 -55t46 -175q0 -90 -19.5 -178t-57 -158.5t-92.5 -114t-127 -43.5q-51 0 -85.5 19.5t-56 52t-30.5 74t-9 85.5zM135 223q0 -51 10 -83.5t26.5 -50t37 -24.5t41.5 -7q45 0 83 35.5t65 94.5t42.5 133 t15.5 151q0 86 -24 128t-87 42q-40 0 -77.5 -31t-67 -87t-47.5 -133t-18 -168z" />
<glyph unicode="1" d="M78 74h133l104 484l22 59l-49 -47l-120 -79l-28 51l247 170h34l-136 -638h130l-15 -74h-337z" />
<glyph unicode="2" d="M515 571q0 -52 -29 -113t-73.5 -122.5t-97.5 -120t-102 -105.5l-55 -43v-4l62 11h205l-14 -74h-379l6 29q25 25 64.5 62.5t84 83t89.5 95.5t81.5 100.5t58 97.5t21.5 87q0 19 -4 35t-13 27.5t-26 18t-44 6.5q-36 0 -70 -14.5t-72 -39.5l-21 60q48 35 92 49.5t96 14.5 q70 0 105 -39.5t35 -101.5z" />
<glyph unicode="3" d="M192 58q47 0 82.5 15t58 39.5t34.5 56t12 64.5q0 52 -26 80t-97 28h-72l6 29l182 222l52 44l-63 -10h-185l14 74h340l-6 -29l-201 -242l-39 -29v-2l33 7q28 0 53 -9.5t44.5 -29t31 -49.5t11.5 -72q0 -54 -17.5 -100.5t-52 -81.5t-86.5 -55t-121 -20q-43 0 -77.5 7 t-59.5 18l36 71q20 -11 48 -18.5t65 -7.5z" />
<glyph unicode="4" d="M514 215h-113l-45 -215h-73l45 215h-294l7 33l415 463h51l-91 -428h112zM390 503l27 82h-4l-47 -68l-173 -191l-55 -50l67 7h138z" />
<glyph unicode="5" d="M186 58q45 0 80.5 14.5t60.5 40t38 59.5t12 75q1 57 -30.5 85t-103.5 28l-80 -5l73 345h296l-16 -74h-225l-43 -200h7t14 1q9 0 19 1q47 0 79 -14.5t51.5 -37.5t28 -53.5t8.5 -61.5q0 -77 -25 -129.5t-65.5 -84.5t-91 -45.5t-102.5 -13.5q-40 0 -70.5 6t-53.5 17l34 69 q21 -9 44.5 -15.5t60.5 -6.5z" />
<glyph unicode="6" d="M483 244q0 -56 -16.5 -102.5t-48 -81t-76 -53.5t-99.5 -19q-33 0 -65 11.5t-57.5 37t-41.5 66.5t-16 101q0 100 38 189t99 156.5t138 110.5t155 52l4 -64q-55 -9 -109 -36.5t-99.5 -68t-80.5 -91t-53 -105.5q10 13 27 25.5t38.5 22.5t46 15.5t50.5 5.5q72 0 119 -43.5 t47 -128.5zM403 234q0 50 -25 82t-82 32q-23 0 -45.5 -6.5t-43 -17.5t-37 -25.5t-26.5 -30.5q-2 -13 -4 -28.5t-2 -27.5q0 -33 6.5 -61.5t20.5 -49.5t35 -33t51 -12q40 0 69 15.5t47.5 40.5t27 57t8.5 65z" />
<glyph unicode="7" d="M69 0l362 586l52 49l-58 -9h-265l15 74h397l-5 -27l-416 -673h-82z" />
<glyph unicode="8" d="M61 146q0 69 45.5 127.5t128.5 93.5q-16 13 -30.5 26.5t-26 31t-18.5 40.5t-7 56q0 46 17.5 81.5t47 60t68.5 37t81 12.5q33 0 62 -9.5t50 -28t33 -46t12 -63.5q0 -30 -11.5 -59.5t-32 -55.5t-48 -48.5t-60.5 -40.5q18 -15 34.5 -31.5t28.5 -36t19.5 -43t7.5 -52.5 q0 -42 -13.5 -80t-42 -67t-73 -46t-107.5 -17q-41 0 -71.5 12.5t-51.5 33.5t-31.5 50t-10.5 62zM384 183q0 28 -7.5 49.5t-19.5 39t-31 32.5t-41 29q-66 -31 -106 -76t-40 -102q0 -18 5 -36t16.5 -31.5t32 -21.5t50.5 -8q28 0 53.5 7.5t45.5 23.5t31 39.5t11 54.5zM231 525 q0 -48 24 -77.5t66 -55.5q25 16 48 35.5t39.5 40t27 41.5t10.5 42q0 47 -23 69t-65 22q-26 0 -49 -7.5t-40 -22.5t-27.5 -37t-10.5 -50z" />
<glyph unicode="9" d="M106 467q0 58 18 103.5t50.5 77t76 48t94.5 16.5q37 0 70 -13.5t58 -40.5t39 -66.5t14 -91.5q0 -115 -40.5 -206.5t-103.5 -157t-139 -103.5t-146 -45l-4 64q63 14 116.5 41t96.5 64.5t74 84t49 99.5q-32 -28 -70 -42.5t-96 -14.5q-27 0 -54.5 10t-50.5 32t-37.5 57 t-14.5 84zM184 476q0 -36 11 -60t26.5 -38t34 -20t36.5 -6q46 0 87.5 18t63.5 44q1 6 2.5 17l3 22t2 21.5t0.5 15.5q0 70 -30 112t-89 42q-29 0 -55.5 -10t-46.5 -31t-33 -52.5t-13 -74.5z" />
<glyph unicode=":" horiz-adv-x="267" d="M173 449q0 27 16 42.5t42 15.5t42 -15.5t16 -42.5q0 -26 -16 -42t-42 -16t-42 16t-16 42zM89 46q0 27 16 42.5t42 15.5t42 -15.5t16 -42.5q0 -26 -16 -42t-42 -16t-42 16t-16 42z" />
<glyph unicode=";" horiz-adv-x="273" d="M92 35q0 26 17 44t49 18q25 0 38.5 -17t13.5 -39q0 -31 -10.5 -60.5t-29.5 -54.5t-44.5 -44.5t-55.5 -30.5l-16 39q38 14 61 44t28 59q-4 -2 -10 -2q-14 0 -27.5 12t-13.5 32zM179 449q0 27 16 42.5t42 15.5t42 -15.5t16 -42.5q0 -26 -16 -42t-42 -16t-42 16t-16 42z" />
<glyph unicode="&#x3c;" horiz-adv-x="480" d="M54 305v29l379 231l38 -62l-237 -145l-91 -38l90 -32l243 -144l-38 -60z" />
<glyph unicode="=" horiz-adv-x="480" d="M55 457h424v-72h-424v72zM55 291h424v-72h-424v72z" />
<glyph unicode="&#x3e;" horiz-adv-x="480" d="M478 344v-29l-379 -231l-38 61l237 145l91 38l-90 32l-243 144l38 61z" />
<glyph unicode="?" horiz-adv-x="414" d="M123 177q5 50 25 87.5t46.5 68t56.5 57t54.5 53t41 57t16.5 69.5q0 38 -20.5 58.5t-71.5 20.5q-35 0 -69.5 -13.5t-63.5 -30.5l-19 58q20 12 38.5 21t39.5 15.5t45.5 10t56.5 3.5q74 0 109 -34t35 -88t-17 -93.5t-43 -70.5t-57.5 -57.5t-60 -54.5t-50.5 -60.5t-29 -76.5 h-63zM80 46q0 27 16 42.5t42 15.5t42 -15.5t16 -42.5q0 -26 -16 -42t-42 -16t-42 16t-16 42z" />
<glyph unicode="@" horiz-adv-x="1064" d="M736 491h34l-51 -287q-5 -26 -7.5 -46.5t-2.5 -36.5q0 -25 8.5 -37t30.5 -12q34 0 67 18t59.5 51t43 80t16.5 105q0 77 -26 136t-73 99.5t-112 61.5t-143 21q-82 0 -153 -30t-124 -83t-83.5 -127t-30.5 -161q0 -89 27.5 -159t78.5 -118t122 -73t158 -25q29 0 66 7t67 21 l20 -64q-44 -19 -82.5 -25.5t-82.5 -6.5q-93 0 -174 28t-142 83t-96 136.5t-35 188.5q0 109 37.5 197t101.5 150t149 95.5t180 33.5q90 0 167 -26.5t134 -76t89 -121t32 -162.5q0 -64 -22 -122.5t-59.5 -102.5t-87.5 -70.5t-106 -26.5q-42 0 -66.5 18t-24.5 67q0 9 1 19.5 t3 22.5h-4q-15 -23 -34 -45.5t-42.5 -40.5t-50 -29.5t-55.5 -11.5q-24 0 -45.5 10.5t-37.5 30.5t-25.5 47.5t-9.5 62.5q0 64 21 126t56.5 110t83 77.5t100.5 29.5q36 0 58.5 -11t43.5 -27zM680 393q-17 20 -34.5 28.5t-43.5 8.5q-39 0 -73 -24t-58.5 -61.5t-39 -84.5 t-14.5 -92q0 -39 16 -67.5t58 -28.5q20 0 41.5 14t42.5 36.5t40.5 50.5t34.5 57z" />
<glyph unicode="A" horiz-adv-x="557" d="M404 194h-244l-108 -194h-85l404 711h37l101 -711h-77zM199 266h197l-29 213l-2 106h-1l-45 -108z" />
<glyph unicode="B" horiz-adv-x="556" d="M561 551q0 -39 -12 -71t-34 -56t-51.5 -38.5t-63.5 -19.5v-4q22 -5 42 -16.5t35 -28.5t24 -39.5t9 -49.5q0 -70 -27.5 -115.5t-70 -72.5t-95 -37.5t-103.5 -10.5h-38.5t-57.5 2q-60 6 -78 11l146 689q38 6 85.5 10t102.5 4q37 0 71 -9.5t59.5 -28.5t41 -49t15.5 -70z M236 64q35 0 69 8.5t61 26.5t43.5 47t16.5 71q0 31 -15 51.5t-39 32.5t-54.5 16.5t-61.5 4.5h-70l-53 -251q6 -2 18.5 -3t27 -2t30 -1.5t27.5 -0.5zM253 390q17 0 40 0.5t39 2.5q23 5 49 14t47.5 25.5t35 42t13.5 63.5q0 28 -8.5 46.5t-25 30t-39.5 16.5t-51 5 q-32 0 -60 -1.5t-42 -4.5l-51 -240h53z" />
<glyph unicode="C" horiz-adv-x="544" d="M480 29q-34 -23 -72 -32t-88 -9q-59 0 -105 21.5t-78 60t-49 90.5t-17 114q0 113 33 195.5t87 136.5t121.5 80t136.5 26q57 0 93 -8t59 -19l-36 -73q-20 11 -52.5 18.5t-74.5 7.5q-56 0 -107.5 -24.5t-90.5 -70.5t-62 -112t-23 -148q0 -48 12.5 -88.5t36 -70t58 -46 t78.5 -16.5q47 0 78 10.5t56 24.5z" />
<glyph unicode="D" horiz-adv-x="622" d="M189 700q38 5 86 6.5t87 1.5q59 0 107 -15.5t81.5 -47.5t51.5 -81t18 -115q0 -44 -8 -95.5t-26.5 -102t-49.5 -97.5t-77 -83.5t-108 -58t-143 -21.5q-15 0 -39.5 0.5t-48.5 1.5q-70 4 -80 6zM356 634q-12 0 -27 -0.5t-29 -1t-27 -1.5t-20 -2l-118 -560q4 -1 16 -1.5 t25.5 -1t26 -1t17.5 -0.5q87 0 147 36t97.5 91t54.5 121t17 125q0 45 -10 81t-31.5 61.5t-55.5 39.5t-83 14z" />
<glyph unicode="E" horiz-adv-x="510" d="M189 700h361l-15 -74h-283l-49 -229h259l-15 -74h-259l-53 -249h288l-16 -74h-288h-79z" />
<glyph unicode="F" horiz-adv-x="492" d="M189 700h361l-15 -74h-283l-51 -239h264l-15 -74h-264l-66 -313h-80z" />
<glyph unicode="G" horiz-adv-x="583" d="M375 349h116h68l-65 -308q-71 -53 -176 -53q-50 0 -94.5 18t-78.5 53.5t-54 88.5t-20 124q0 123 36 207t92.5 135.5t124.5 74.5t132 23q57 0 94.5 -7.5t60.5 -18.5l-35 -73q-20 11 -53.5 18t-75.5 7q-58 0 -110.5 -22.5t-93 -67.5t-64.5 -111.5t-24 -154.5q0 -45 11 -85 t33.5 -70t56 -47.5t79.5 -17.5q32 0 55 6.5t46 18.5l41 195l-112 20z" />
<glyph unicode="H" horiz-adv-x="639" d="M505 321h-318l-67 -321h-80l148 700h80l-64 -305h317l64 305h80l-148 -700h-80z" />
<glyph unicode="I" horiz-adv-x="277" d="M210 700h80l-148 -700h-80z" />
<glyph unicode="J" horiz-adv-x="278" d="M222 700h80l-116 -546q-9 -40 -21.5 -70.5t-32 -51.5t-48 -31.5t-68.5 -10.5q-8 0 -18.5 1t-21.5 3t-21 5t-16 7l30 71q19 -13 54 -13q21 0 35 7.5t24 22t16.5 34.5t11.5 46z" />
<glyph unicode="K" horiz-adv-x="576" d="M239 324h-51l-68 -324h-80l148 700h80l-70 -326l40 14l287 312h99l-286 -304l-46 -31l39 -40l175 -325h-91z" />
<glyph unicode="L" horiz-adv-x="492" d="M434 0h-316h-78l148 700h80l-133 -626h314z" />
<glyph unicode="M" horiz-adv-x="754" d="M651 470l31 105h-4l-56 -96l-240 -316h-24l-115 316l-15 96h-4l-8 -104l-100 -471h-76l149 700h55l130 -358l15 -78h1l46 80l273 356h71l-149 -700h-80z" />
<glyph unicode="N" horiz-adv-x="642" d="M261 458l-34 103h-3l-12 -103l-97 -458h-75l151 711h40l218 -468l33 -98h4l9 98l98 457h75l-151 -711h-37z" />
<glyph unicode="O" horiz-adv-x="651" d="M71 256q0 92 25 175t71.5 145.5t112 99t145.5 36.5q48 0 89 -14.5t70.5 -46t46 -81.5t16.5 -122q0 -94 -25 -177.5t-70 -146.5t-107.5 -99.5t-137.5 -36.5q-118 0 -177 68.5t-59 199.5zM155 257q0 -94 39 -145.5t115 -51.5q56 0 102.5 31t80.5 84t52.5 123t18.5 148 q0 58 -13 96t-34.5 59.5t-49 30t-55.5 8.5q-57 0 -104 -31.5t-80.5 -84.5t-52.5 -122.5t-19 -144.5z" />
<glyph unicode="P" horiz-adv-x="532" d="M187 693q38 9 80 12t83 3q46 0 85.5 -10t68.5 -32t45.5 -56.5t16.5 -82.5q0 -76 -27.5 -127t-72 -81.5t-100.5 -43.5t-113 -13h-15.5t-22.5 0.5t-23 1.5t-16 2l-56 -266h-80zM333 636q-23 0 -44.5 -1.5t-35.5 -4.5l-61 -291q4 -2 13.5 -2.5t20 -1.5t20.5 -1h15q43 0 83 9 t70.5 31t49 57t18.5 88q0 36 -12 59t-32.5 35.5t-47.5 17.5t-57 5z" />
<glyph unicode="Q" horiz-adv-x="651" d="M633 -171q-24 -7 -46.5 -9.5t-44.5 -2.5q-48 0 -91 10.5t-82.5 22.5t-76 22.5t-71.5 10.5q-11 0 -22.5 -1t-22.5 -4l15 73q27 6 53 6q40 0 77 -10.5t75.5 -22.5t79.5 -22.5t88 -10.5q41 0 85 10zM71 256q0 92 25 175t71.5 145.5t112 99t145.5 36.5q48 0 89 -14.5 t70.5 -46t46 -81.5t16.5 -122q0 -94 -25 -177.5t-70 -146.5t-107.5 -99.5t-137.5 -36.5q-118 0 -177 68.5t-59 199.5zM155 257q0 -94 39 -145.5t115 -51.5q56 0 102.5 31t80.5 84t52.5 123t18.5 148q0 58 -13 96t-34.5 59.5t-49 30t-55.5 8.5q-57 0 -104 -31.5t-80.5 -84.5 t-52.5 -122.5t-19 -144.5z" />
<glyph unicode="R" horiz-adv-x="568" d="M187 693q42 8 81 11.5t78 3.5q38 0 74 -9.5t63.5 -30t44 -53.5t16.5 -80q0 -88 -51.5 -146.5t-149.5 -75.5l36 -36l108 -277h-87l-120 302l-94 15l-66 -317h-80zM341 636q-24 0 -48 -1.5t-40 -4.5l-55 -258h69q36 0 70.5 7t62 25t44 49t16.5 78q0 18 -7 36.5t-21 34 t-37 25t-54 9.5z" />
<glyph unicode="S" horiz-adv-x="505" d="M388 180q0 36 -18.5 61t-46.5 45.5t-60.5 39.5t-60.5 44t-46.5 59t-18.5 84q0 53 19.5 91t53 62t79 35t96.5 11q58 0 104 -9t72 -23l-40 -71q-20 11 -59.5 21t-91.5 10q-66 0 -107.5 -30t-41.5 -87q0 -37 18.5 -62.5t46.5 -46t60.5 -39.5t60.5 -43.5t46.5 -58.5t18.5 -83 q0 -97 -70 -149.5t-201 -52.5q-67 0 -113.5 11.5t-70.5 25.5l41 73q23 -13 62.5 -25.5t93.5 -12.5q31 0 62 5.5t56 19.5t40.5 37t15.5 58z" />
<glyph unicode="T" horiz-adv-x="528" d="M602 626h-207l-132 -626h-80l132 626h-205l15 74h492z" />
<glyph unicode="U" horiz-adv-x="618" d="M573 700h76l-98 -467q-14 -64 -35 -110t-52.5 -75t-75.5 -43t-102 -14q-55 0 -93 12.5t-61.5 35t-34 55t-10.5 71.5q0 41 11 93l93 442h80l-93 -443q-11 -44 -11 -80q0 -63 33 -87.5t98 -24.5q39 0 68.5 11t51 34t36 59t25.5 87z" />
<glyph unicode="V" horiz-adv-x="541" d="M253 221v-107h2l45 109l265 477h86l-402 -711h-37l-108 711h82z" />
<glyph unicode="W" horiz-adv-x="788" d="M214 233l-9 -116h1l39 118l235 465h43l37 -467l-9 -116h1l40 118l213 465h82l-336 -711h-44l-38 469l6 106h-4l-40 -107l-234 -468h-44l-39 711h82z" />
<glyph unicode="X" horiz-adv-x="588" d="M289 358l-130 342h87l86 -237l12 -57l34 57l191 237h97l-279 -339l142 -361h-87l-96 251l-14 60l-38 -60l-204 -251h-97z" />
<glyph unicode="Y" horiz-adv-x="531" d="M241 278l-133 422h87l89 -306l3 -61h1l30 63l217 304h90l-304 -421l-59 -279h-80z" />
<glyph unicode="Z" d="M14 75l435 511l49 40h-366l15 74h447l-15 -75l-438 -514l-47 -37h367l-15 -74h-447z" />
<glyph unicode="[" horiz-adv-x="291" d="M213 700h76h97l-15 -70h-97l-168 -790h98l-15 -70h-98h-75z" />
<glyph unicode="\" horiz-adv-x="380" d="M449 -111l-66 -29l-342 824l69 28z" />
<glyph unicode="]" horiz-adv-x="293" d="M109 -230h-75h-97l15 70h96l167 790h-97l15 70h99h74z" />
<glyph unicode="^" horiz-adv-x="500" d="M288 711h29l169 -276h-83l-79 135l-23 69l-31 -70l-93 -134h-75z" />
<glyph unicode="_" horiz-adv-x="408" d="M-44 -137h408v-68h-408v68z" />
<glyph unicode="`" horiz-adv-x="238" d="M418 571h-43l-81 128l4 21h91z" />
<glyph unicode="a" horiz-adv-x="487" d="M414 197q-8 -37 -11 -75t-3 -71v-28.5t2 -24.5h-56l-14 87h-4q-12 -17 -29.5 -34.5t-38.5 -31.5t-45 -22.5t-51 -8.5q-119 0 -119 155q0 64 16.5 130t51 119t89 87t131.5 34q28 0 68.5 -6.5t75.5 -17.5zM187 52q24 0 46 11.5t41.5 28.5t34.5 36.5t24 36.5l56 270 q-30 14 -76 14t-81 -27t-59 -70.5t-36 -98.5t-12 -110q0 -38 15 -64.5t47 -26.5z" />
<glyph unicode="b" horiz-adv-x="521" d="M185 700h75l-61 -286h4q14 18 32 35.5t40 31.5t47 22.5t54 8.5q59 0 86 -41.5t27 -104.5q0 -90 -25 -159.5t-66 -117.5t-93.5 -73t-107.5 -25q-54 0 -94.5 12t-59.5 28zM352 448q-25 0 -51 -12.5t-49.5 -32.5t-43 -44.5t-31.5 -47.5l-50 -235q30 -21 85 -21q32 0 67 19.5 t64 57t47.5 92t18.5 124.5q0 51 -15.5 75.5t-41.5 24.5z" />
<glyph unicode="c" horiz-adv-x="420" d="M365 43q-15 -13 -34.5 -23t-40 -17t-40.5 -11t-38 -4q-49 0 -80.5 15.5t-49.5 39.5t-25 52t-7 53q0 85 23 152.5t61.5 114.5t88.5 72t103 25q38 0 62.5 -7t44.5 -16l-28 -62q-17 10 -42 15.5t-54 5.5q-34 0 -66.5 -23t-57.5 -60.5t-40 -86t-15 -99.5q0 -65 27 -96t73 -31 q30 0 63 13.5t53 27.5z" />
<glyph unicode="d" horiz-adv-x="509" d="M419 172q-8 -39 -12 -73t-4 -63q0 -11 0.5 -20t1.5 -18h-50l-14 87h-4q-12 -17 -30 -34.5t-40 -31.5t-46.5 -22.5t-50.5 -8.5q-55 0 -87.5 40.5t-32.5 128.5q0 59 17 121.5t50 113.5t82.5 84t114.5 33q18 0 31 -1t24.5 -3t21.5 -5.5t21 -7.5l44 208h75zM198 52 q21 0 43 11.5t41.5 28.5t35 36.5t24.5 36.5l56 260q-17 11 -38.5 15.5t-56.5 4.5q-40 0 -72 -24.5t-54.5 -65.5t-34.5 -94t-12 -109q0 -41 16 -70.5t52 -29.5z" />
<glyph unicode="e" horiz-adv-x="463" d="M389 49q-35 -30 -82.5 -45.5t-95.5 -15.5q-80 0 -120.5 46t-40.5 128t23 147t60.5 110t85 69t97.5 24q36 0 62.5 -10t43.5 -26.5t25 -38t8 -45.5q0 -71 -69 -111.5t-201 -40.5q-12 0 -25 0.5t-27 1.5q-4 -19 -6 -36t-2 -30q0 -55 25 -89.5t78 -34.5q44 0 80.5 14.5 t56.5 30.5zM304 448q-55 0 -95.5 -37.5t-61.5 -112.5q38 0 79 2t74.5 10.5t55.5 27t22 51.5q0 10 -3.5 20.5t-11.5 19t-22.5 14t-36.5 5.5z" />
<glyph unicode="f" horiz-adv-x="278" d="M219 436l-80 -470q-6 -37 -16.5 -68.5t-27.5 -55t-43 -37t-63 -13.5q-30 0 -55.5 4.5t-47.5 15.5l22 56q20 -7 36.5 -9.5t40.5 -2.5q38 0 57 36.5t32 115.5l70 428h-77l13 64h73l13 67q7 37 17 64t26.5 45t41 27t59.5 9q33 0 64 -6.5t56 -17.5l-22 -59q-49 19 -93 19 q-37 0 -54 -25.5t-26 -81.5l-7 -41h101l-12 -64h-98z" />
<glyph unicode="g" horiz-adv-x="505" d="M385 -23q-21 -98 -72.5 -143.5t-136.5 -45.5q-65 0 -107 16.5t-64 28.5l33 56q8 -4 19.5 -10.5t28 -12.5t40 -10t55.5 -4q50 0 84 36t51 113l18 84h-4q-14 -19 -30.5 -36t-36.5 -30.5t-43.5 -21.5t-51.5 -8q-54 0 -87 39t-33 111q0 67 18.5 133t55 118.5t90 85.5 t123.5 33q54 0 91 -9t65 -22zM196 53q25 0 49.5 13t45 33.5t37 44.5t27.5 45l51 241q-16 9 -39 12t-47 3q-41 0 -76 -24t-60.5 -64.5t-40.5 -93.5t-15 -111q0 -46 18.5 -72.5t49.5 -26.5z" />
<glyph unicode="h" horiz-adv-x="529" d="M341 0l60 285q6 30 10 53.5t4 41.5q0 37 -15 52.5t-47 15.5q-26 0 -53 -13.5t-52 -34.5t-44.5 -47t-29.5 -50l-63 -303h-75l148 700h75l-62 -286h4q13 16 31.5 33t42.5 31.5t52 24t61 9.5q49 0 77 -23.5t28 -85.5q0 -42 -13 -101l-64 -302h-75z" />
<glyph unicode="i" horiz-adv-x="259" d="M160 500h75l-106 -500h-75zM176 653q0 23 15.5 39t38.5 16t39 -16t16 -39t-16 -38.5t-39 -15.5t-38.5 15.5t-15.5 38.5z" />
<glyph unicode="j" horiz-adv-x="249" d="M148 500h75l-112 -527q-20 -93 -62 -137t-114 -44q-8 0 -15.5 0.5t-15.5 1.5l15 65q30 0 49.5 8.5t33 26.5t23 45t17.5 64zM164 653q0 23 15.5 39t38.5 16t39 -16t16 -39t-16 -38.5t-39 -15.5t-38.5 15.5t-15.5 38.5z" />
<glyph unicode="k" horiz-adv-x="449" d="M212 225h-54l-47 -225h-75l148 700h75l-91 -426l43 11l180 215h92l-178 -203l-47 -33l38 -39l112 -225h-83z" />
<glyph unicode="l" horiz-adv-x="270" d="M133 119q-3 -17 -3 -28q0 -19 6.5 -27.5t17.5 -8.5q20 0 33.5 2.5t32.5 9.5v-57q-9 -5 -21 -8.5t-24.5 -5.5t-25 -3.5t-22.5 -1.5q-35 0 -56 16t-21 59q0 20 6 49l124 585h75z" />
<glyph unicode="m" horiz-adv-x="763" d="M305 0l60 283q8 35 12 62t4 47q0 27 -10 41.5t-34 14.5q-25 0 -49 -13t-45 -32.5t-38.5 -41.5t-27.5 -40l-66 -321h-75l106 500h53l-6 -86h4q16 16 34.5 33.5t41 31.5t49 23.5t58.5 9.5q45 0 60.5 -28t15.5 -78q15 19 35 38t43.5 34t49.5 24.5t52 9.5q46 0 70.5 -21.5 t24.5 -79.5q0 -42 -15 -111l-63 -300h-75l63 301q6 29 9.5 52t3.5 40q0 27 -11 41t-37 14q-21 0 -44.5 -13.5t-45.5 -33.5t-39.5 -43t-27.5 -43l-65 -315h-75z" />
<glyph unicode="n" horiz-adv-x="522" d="M331 0l67 316q4 18 7 35.5t3 31.5q0 29 -13.5 47t-50.5 18q-26 0 -51 -12t-47 -30.5t-39.5 -41t-29.5 -44.5l-66 -320h-75l106 500h52l-4 -86h4q13 16 31 33.5t40.5 31.5t50.5 23.5t62 9.5q50 0 79 -24t29 -84q0 -30 -9 -72l-71 -332h-75z" />
<glyph unicode="o" horiz-adv-x="498" d="M50 156q0 79 20.5 144.5t56.5 112.5t83.5 73t101.5 26q42 0 71.5 -13.5t48 -37t26.5 -54t8 -63.5q0 -75 -19.5 -140t-54 -113t-80.5 -75.5t-100 -27.5q-45 0 -75.5 14.5t-50 38.5t-28 54t-8.5 61zM130 174q0 -59 22 -90.5t70 -31.5q33 0 62.5 23.5t52 63.5t36 91.5 t13.5 107.5q0 51 -18.5 80.5t-70.5 29.5q-33 0 -63 -22.5t-53.5 -60.5t-37 -87.5t-13.5 -103.5z" />
<glyph unicode="p" horiz-adv-x="508" d="M144 500h52l-5 -86h4q14 18 31.5 35.5t38.5 31.5t46 22.5t54 8.5q24 0 45 -7.5t37 -25t25.5 -46.5t9.5 -71q0 -88 -24 -157.5t-63 -117.5t-87.5 -73.5t-96.5 -25.5q-35 0 -61.5 6.5t-35.5 13.5l-44 -208h-75zM337 448q-27 0 -51.5 -14t-45 -34.5t-36.5 -44t-26 -43.5 l-49 -237q17 -13 35 -18t39 -5q39 0 74.5 21.5t63.5 61.5t44.5 96t16.5 125q0 40 -16.5 66t-48.5 26z" />
<glyph unicode="q" horiz-adv-x="503" d="M340 -200h-75l61 284h-4q-12 -16 -27.5 -33t-35 -31t-43.5 -23t-51 -9q-32 0 -55 11.5t-37 32t-20.5 48.5t-6.5 61q0 67 22 133t61 118t93 84.5t119 32.5q21 0 42.5 -3t40.5 -7.5t35 -10t25 -11.5zM186 52q25 0 50.5 15t47.5 37.5t39 48t27 46.5l50 231q-16 9 -38.5 12 t-39.5 3q-39 0 -74.5 -25t-62.5 -66.5t-43 -95t-16 -110.5q0 -48 15.5 -72t44.5 -24z" />
<glyph unicode="r" horiz-adv-x="327" d="M362 434q-9 2 -18.5 3t-17.5 1q-51 0 -88 -32t-58 -78l-69 -328h-75l106 500h52v-86h4q12 19 26 35.5t31 29.5t37 20.5t44 7.5q22 0 46 -7z" />
<glyph unicode="s" horiz-adv-x="398" d="M259 141q0 26 -13 44t-33 32.5t-43 28.5t-43 31.5t-33 41t-13 58.5q0 28 13.5 52.5t37 43t56 29t70.5 10.5q53 0 82 -7t52 -20l-25 -60q-40 23 -109 23q-42 0 -69.5 -17.5t-27.5 -53.5q0 -21 13 -36.5t33 -29.5t43 -28.5t43 -33t33 -43.5t13 -59q0 -78 -52.5 -118.5 t-140.5 -40.5q-45 0 -82.5 9t-60.5 23l28 63q20 -13 52.5 -22t67.5 -9q49 0 78.5 21.5t29.5 67.5z" />
<glyph unicode="t" horiz-adv-x="313" d="M71 500h74l21 99l80 23l-26 -122h131l-15 -64h-130l-63 -302q-2 -12 -3.5 -22t-1.5 -18q0 -24 11 -33t33 -9q24 0 44 6t40 18v-61q-21 -12 -54 -19.5t-63 -7.5q-91 0 -91 83q0 17 5 42l68 323h-75z" />
<glyph unicode="u" horiz-adv-x="511" d="M213 500l-70 -333q-6 -27 -6 -50q0 -28 11 -46.5t40 -18.5q24 0 48.5 12t47 31t41 42t30.5 45l67 318h75l-63 -297q-4 -17 -8 -41.5t-7.5 -51.5t-5.5 -52.5t-2 -44.5v-13h-59v95h-4q-15 -20 -34.5 -39t-43 -34t-50.5 -24.5t-57 -9.5q-22 0 -40.5 5t-32.5 17.5t-22 33 t-8 52.5q0 35 10 79l68 325h75z" />
<glyph unicode="v" horiz-adv-x="447" d="M192 207l9 -95h2l43 97l169 291h86l-312 -511h-32l-97 511h80z" />
<glyph unicode="w" horiz-adv-x="685" d="M427 500l47 -292l4 -96h1l39 98l147 290h76l-269 -511h-38l-53 330l-1 82h-2l-37 -83l-190 -329h-36l-58 511h76l31 -291l-2 -97h4l40 99l165 289h56z" />
<glyph unicode="x" horiz-adv-x="484" d="M203 256l-107 244h85l59 -138l18 -57l41 57l121 138h91l-212 -240l119 -260h-85l-68 152l-20 60l-42 -60l-134 -152h-91z" />
<glyph unicode="y" horiz-adv-x="439" d="M194 176l5 -96h5l38 97l166 323h80l-236 -446q-26 -49 -51.5 -95.5t-52.5 -83t-56 -58.5t-60 -22q-17 0 -29.5 2t-22.5 7l24 69q11 -4 24 -4q29 0 58 30t65 101l-86 500h80z" />
<glyph unicode="z" horiz-adv-x="429" d="M11 69l281 319l55 43h-258l15 69h337l-15 -69l-284 -322l-54 -40h261l-14 -69h-337z" />
<glyph unicode="{" horiz-adv-x="326" d="M231 -230h-81q-35 0 -54 19.5t-18 55.5q0 14 4 29l50 238q4 18 4 32q2 32 -14.5 44.5t-46.5 12.5l15 68q74 0 93 85l52 242q10 47 38.5 76t73.5 29h81l-15 -70h-48q-26 0 -40.5 -13.5t-21.5 -45.5l-49 -237q-9 -44 -34 -67t-52 -28l-1 -6q20 -3 34.5 -23t13.5 -52 q0 -5 -1.5 -12t-6 -31.5t-15.5 -75t-31 -141.5q-1 -6 -2 -11t-1 -10q-1 -38 42 -38h47z" />
<glyph unicode="|" horiz-adv-x="238" d="M115 700h69v-830h-69v830z" />
<glyph unicode="}" horiz-adv-x="331" d="M232 359q-4 -17 -4 -30q-1 -33 15.5 -46t46.5 -13l-16 -68q-36 0 -60 -21t-34 -64q0 -1 -2.5 -12t-6 -28t-8 -39t-8.5 -44q-11 -53 -25 -119q-10 -47 -39 -76t-74 -29h-80l16 70h47q25 0 39.5 13.5t20.5 45.5l50 237q10 44 34.5 67t52.5 28l2 6q-22 3 -36.5 23t-13.5 52 q0 5 1 11.5t2 12.5l51 236q2 6 2.5 11t0.5 10q1 38 -41 38h-46l14 70h81q35 0 54.5 -19t17.5 -56q0 -14 -4 -29z" />
<glyph unicode="~" horiz-adv-x="480" d="M46 361q43 33 78 46t64 13q28 0 52 -8.5t46 -19t43 -19t44 -8.5q19 0 39 8t43 28l34 -61q-38 -26 -68.5 -36.5t-55.5 -10.5q-27 0 -49.5 8.5t-43 19t-41 19t-44.5 8.5q-23 0 -49 -10.5t-58 -36.5z" />
<glyph unicode="&#xa2;" d="M419 43q-25 -21 -59 -34t-66 -18l-19 -91h-66l19 90q-38 6 -63 23t-39 39.5t-19.5 47.5t-5.5 48q0 77 19 139.5t51.5 109t75.5 75t91 36.5l20 92h67l-20 -89q26 -3 45.5 -9t36.5 -13l-28 -62q-13 8 -32 13t-42 7l-83 -393q27 4 54 16t44 23zM181 179q0 -55 18.5 -85.5 t51.5 -38.5l82 389q-30 -8 -57.5 -32.5t-48.5 -60.5t-33.5 -80.5t-12.5 -91.5z" />
<glyph unicode="&#xa3;" d="M118 397h65q-4 18 -6 38.5t-2 46.5q0 57 20 100.5t53.5 72t78.5 43t96 14.5q40 0 75.5 -8.5t58.5 -21.5l-27 -64q-20 11 -52 18t-72 7q-31 0 -58.5 -10.5t-48 -31t-32.5 -50t-12 -67.5q0 -31 2.5 -51t6.5 -36h155l-15 -64h-125q2 -12 3 -27t1 -35q0 -33 -6.5 -61 t-16 -50.5t-21.5 -39t-23 -26.5l-45 -34l-1 -5l62 14h244l-15 -69h-424l15 71q30 0 57.5 15t48.5 40.5t33.5 60.5t12.5 77q0 20 -2 36.5t-5 32.5h-94z" />
<glyph unicode="&#xa5;" d="M129 328h89l-115 372h87l92 -306l3 -61h1l30 63l213 304h90l-269 -372h89l-13 -60h-114l-13 -63h114l-13 -60h-114l-30 -145h-80l30 145h-116l12 60h117l13 63h-116z" />
<glyph unicode="&#xa8;" horiz-adv-x="245" d="M195 653q0 22 12.5 36.5t33.5 14.5t34 -14.5t13 -36.5q0 -20 -13 -34.5t-34 -14.5t-33.5 14.5t-12.5 34.5zM378 654q0 21 12.5 35.5t33.5 14.5q22 0 34.5 -14.5t12.5 -35.5t-12.5 -35.5t-34.5 -14.5q-21 0 -33.5 14.5t-12.5 35.5z" />
<glyph unicode="&#xa9;" horiz-adv-x="806" d="M77 290q0 83 28 148.5t76 110.5t112 69t136 24t136 -24t112 -69t76 -110.5t28 -148.5t-28 -148.5t-76 -110.5t-112 -69t-136 -24q-80 0 -145 24t-111 69t-71 110.5t-25 148.5zM147 290q0 -69 22 -122.5t60 -89.5t89.5 -55t110.5 -19t110.5 19t89.5 55t60 89.5t22 122.5 t-22 122.5t-60 89.5t-89.5 55t-110.5 19t-110.5 -19t-89.5 -55t-60 -89.5t-22 -122.5zM545 127q-23 -13 -51.5 -20t-66.5 -7q-81 0 -123.5 51t-42.5 139q0 91 45.5 140.5t120.5 49.5q18 0 32.5 -2t27 -5.5t24.5 -8.5t27 -11l-26 -61q-22 11 -42 15t-34 4q-42 0 -68.5 -26 t-26.5 -95q0 -58 26 -89.5t77 -32.5q47 0 80 18z" />
<glyph unicode="&#xab;" horiz-adv-x="454" d="M212 259l198 228l44 -46l-123 -144l-56 -37l34 -37l67 -141l-54 -42zM38 259l200 230l45 -47l-124 -145l-57 -37l35 -37l67 -142l-54 -43z" />
<glyph unicode="&#xad;" horiz-adv-x="342" d="M79 322h230l-17 -68h-229z" />
<glyph unicode="&#xae;" horiz-adv-x="700" d="M137 451q0 64 21 113.5t57.5 83t84.5 51t102 17.5q55 0 103.5 -17.5t84.5 -51t56.5 -83t20.5 -113.5t-21 -113.5t-57.5 -83t-84.5 -51t-102 -17.5q-56 0 -104 17.5t-84 51t-56.5 83t-20.5 113.5zM200 451q0 -52 16 -90.5t43.5 -64t64.5 -38.5t78 -13q43 0 80 12.5t64 38 t42.5 64t15.5 91.5q0 52 -16 90.5t-43.5 64t-64 38.5t-78.5 13q-44 0 -81 -13t-64 -38.5t-42 -64t-15 -90.5zM299 581q16 5 45 7.5t55 2.5q42 0 72 -17.5t30 -60.5q0 -32 -20.5 -49t-50.5 -19l28 -14l74 -109h-61l-72 104l-48 15v-119h-52v259zM388 546q-11 0 -21 -0.5 t-16 -3.5v-71h34q29 0 45 9t16 31q0 35 -58 35z" />
<glyph unicode="&#xb4;" horiz-adv-x="238" d="M425 720h84l-5 -21l-123 -128h-44z" />
<glyph unicode="&#xb8;" horiz-adv-x="363" d="M354 -43q27 -3 44.5 -20.5t17.5 -49.5q0 -42 -31.5 -69t-94.5 -27q-12 0 -25.5 1.5t-27.5 3.5l17 39q5 -1 10.5 -1h10.5q21 0 35 4t22 9.5t11 12.5t3 13q0 19 -21 28t-56 9l65 90h53z" />
<glyph unicode="&#xba;" horiz-adv-x="379" d="M60 490q0 58 17.5 100t44.5 69t60 40t65 13q57 0 86.5 -31t29.5 -88q0 -54 -15 -95t-40.5 -69t-60 -42.5t-72.5 -14.5q-51 0 -83 31t-32 87zM129 498q0 -32 14.5 -50t43.5 -18q21 0 40.5 11t34.5 31.5t23.5 50t8.5 66.5q0 35 -15.5 50t-43.5 15q-21 0 -40.5 -12.5 t-34 -33.5t-23 -49.5t-8.5 -60.5z" />
<glyph unicode="&#xbb;" horiz-adv-x="454" d="M280 268l-198 -228l-44 45l123 144l56 38l-35 43l-68 141l57 36zM454 268l-200 -230l-45 46l124 145l56 38l-35 44l-69 142l58 36z" />
<glyph unicode="&#xc1;" horiz-adv-x="557" d="M0 0zM404 194h-244l-108 -194h-85l404 711h37l101 -711h-77zM199 266h197l-29 213l-2 106h-1l-45 -108zM467 870h116l-5 -21l-175 -97h-73z" />
<glyph unicode="&#xc4;" horiz-adv-x="557" d="M0 0zM404 194h-244l-108 -194h-85l404 711h37l101 -711h-77zM199 266h197l-29 213l-2 106h-1l-45 -108zM263 794q0 20 14 33.5t37 13.5t36.5 -13.5t13.5 -33.5t-13.5 -33t-36.5 -13t-37 13t-14 33zM446 794q0 20 13.5 33.5t36.5 13.5t37 -13.5t14 -33.5t-14 -33t-37 -13 t-36.5 13t-13.5 33z" />
<glyph unicode="&#xc9;" horiz-adv-x="510" d="M40 0zM189 700h361l-15 -74h-283l-49 -229h259l-15 -74h-259l-53 -249h288l-16 -74h-288h-79zM451 870h116l-5 -21l-175 -97h-73z" />
<glyph unicode="&#xcd;" horiz-adv-x="277" d="M62 0zM210 700h80l-148 -700h-80zM326 870h116l-5 -21l-175 -97h-73z" />
<glyph unicode="&#xd3;" horiz-adv-x="651" d="M71 0zM71 256q0 92 25 175t71.5 145.5t112 99t145.5 36.5q48 0 89 -14.5t70.5 -46t46 -81.5t16.5 -122q0 -94 -25 -177.5t-70 -146.5t-107.5 -99.5t-137.5 -36.5q-118 0 -177 68.5t-59 199.5zM155 257q0 -94 39 -145.5t115 -51.5q56 0 102.5 31t80.5 84t52.5 123 t18.5 148q0 58 -13 96t-34.5 59.5t-49 30t-55.5 8.5q-57 0 -104 -31.5t-80.5 -84.5t-52.5 -122.5t-19 -144.5zM532 870h116l-5 -21l-175 -97h-73z" />
<glyph unicode="&#xd4;" horiz-adv-x="651" d="M71 0zM71 256q0 92 25 175t71.5 145.5t112 99t145.5 36.5q48 0 89 -14.5t70.5 -46t46 -81.5t16.5 -122q0 -94 -25 -177.5t-70 -146.5t-107.5 -99.5t-137.5 -36.5q-118 0 -177 68.5t-59 199.5zM155 257q0 -94 39 -145.5t115 -51.5q56 0 102.5 31t80.5 84t52.5 123 t18.5 148q0 58 -13 96t-34.5 59.5t-49 30t-55.5 8.5q-57 0 -104 -31.5t-80.5 -84.5t-52.5 -122.5t-19 -144.5zM447 870h48l99 -102l-4 -21h-68l-46 49l-10 35l-25 -34l-71 -50h-75l5 22z" />
<glyph unicode="&#xda;" horiz-adv-x="618" d="M87 0zM573 700h76l-98 -467q-14 -64 -35 -110t-52.5 -75t-75.5 -43t-102 -14q-55 0 -93 12.5t-61.5 35t-34 55t-10.5 71.5q0 41 11 93l93 442h80l-93 -443q-11 -44 -11 -80q0 -63 33 -87.5t98 -24.5q39 0 68.5 11t51 34t36 59t25.5 87zM508 870h116l-5 -21l-175 -97h-73z " />
<glyph unicode="&#xdd;" horiz-adv-x="531" d="M108 0zM241 278l-133 422h87l89 -306l3 -61h1l30 63l217 304h90l-304 -421l-59 -279h-80zM474 870h116l-5 -21l-175 -97h-73z" />
<glyph unicode="&#xe1;" horiz-adv-x="487" d="M45 0zM414 197q-8 -37 -11 -75t-3 -71v-28.5t2 -24.5h-56l-14 87h-4q-12 -17 -29.5 -34.5t-38.5 -31.5t-45 -22.5t-51 -8.5q-119 0 -119 155q0 64 16.5 130t51 119t89 87t131.5 34q28 0 68.5 -6.5t75.5 -17.5zM187 52q24 0 46 11.5t41.5 28.5t34.5 36.5t24 36.5l56 270 q-30 14 -76 14t-81 -27t-59 -70.5t-36 -98.5t-12 -110q0 -38 15 -64.5t47 -26.5zM393 720h84l-5 -21l-123 -128h-44z" />
<glyph unicode="&#xe4;" horiz-adv-x="487" d="M45 0zM414 197q-8 -37 -11 -75t-3 -71v-28.5t2 -24.5h-56l-14 87h-4q-12 -17 -29.5 -34.5t-38.5 -31.5t-45 -22.5t-51 -8.5q-119 0 -119 155q0 64 16.5 130t51 119t89 87t131.5 34q28 0 68.5 -6.5t75.5 -17.5zM187 52q24 0 46 11.5t41.5 28.5t34.5 36.5t24 36.5l56 270 q-30 14 -76 14t-81 -27t-59 -70.5t-36 -98.5t-12 -110q0 -38 15 -64.5t47 -26.5zM186 653q0 22 12.5 36.5t33.5 14.5t34 -14.5t13 -36.5q0 -20 -13 -34.5t-34 -14.5t-33.5 14.5t-12.5 34.5zM369 654q0 21 12.5 35.5t33.5 14.5q22 0 34.5 -14.5t12.5 -35.5t-12.5 -35.5 t-34.5 -14.5q-21 0 -33.5 14.5t-12.5 35.5z" />
<glyph unicode="&#xe9;" horiz-adv-x="463" d="M50 0zM389 49q-35 -30 -82.5 -45.5t-95.5 -15.5q-80 0 -120.5 46t-40.5 128t23 147t60.5 110t85 69t97.5 24q36 0 62.5 -10t43.5 -26.5t25 -38t8 -45.5q0 -71 -69 -111.5t-201 -40.5q-12 0 -25 0.5t-27 1.5q-4 -19 -6 -36t-2 -30q0 -55 25 -89.5t78 -34.5q44 0 80.5 14.5 t56.5 30.5zM304 448q-55 0 -95.5 -37.5t-61.5 -112.5q38 0 79 2t74.5 10.5t55.5 27t22 51.5q0 10 -3.5 20.5t-11.5 19t-22.5 14t-36.5 5.5zM375 720h84l-5 -21l-123 -128h-44z" />
<glyph unicode="&#xed;" horiz-adv-x="259" d="M54 0zM160 500h75l-106 -500h-75zM265 720h84l-5 -21l-123 -128h-44z" />
<glyph unicode="&#xf3;" horiz-adv-x="498" d="M50 0zM50 156q0 79 20.5 144.5t56.5 112.5t83.5 73t101.5 26q42 0 71.5 -13.5t48 -37t26.5 -54t8 -63.5q0 -75 -19.5 -140t-54 -113t-80.5 -75.5t-100 -27.5q-45 0 -75.5 14.5t-50 38.5t-28 54t-8.5 61zM130 174q0 -59 22 -90.5t70 -31.5q33 0 62.5 23.5t52 63.5t36 91.5 t13.5 107.5q0 51 -18.5 80.5t-70.5 29.5q-33 0 -63 -22.5t-53.5 -60.5t-37 -87.5t-13.5 -103.5zM377 720h84l-5 -21l-123 -128h-44z" />
<glyph unicode="&#xf4;" horiz-adv-x="498" d="M50 0zM50 156q0 79 20.5 144.5t56.5 112.5t83.5 73t101.5 26q42 0 71.5 -13.5t48 -37t26.5 -54t8 -63.5q0 -75 -19.5 -140t-54 -113t-80.5 -75.5t-100 -27.5q-45 0 -75.5 14.5t-50 38.5t-28 54t-8.5 61zM130 174q0 -59 22 -90.5t70 -31.5q33 0 62.5 23.5t52 63.5t36 91.5 t13.5 107.5q0 51 -18.5 80.5t-70.5 29.5q-33 0 -63 -22.5t-53.5 -60.5t-37 -87.5t-13.5 -103.5zM343 732h30l66 -182h-63l-24 66l-6 58l-34 -58l-57 -66h-68z" />
<glyph unicode="&#xfa;" horiz-adv-x="511" d="M60 0zM213 500l-70 -333q-6 -27 -6 -50q0 -28 11 -46.5t40 -18.5q24 0 48.5 12t47 31t41 42t30.5 45l67 318h75l-63 -297q-4 -17 -8 -41.5t-7.5 -51.5t-5.5 -52.5t-2 -44.5v-13h-59v95h-4q-15 -20 -34.5 -39t-43 -34t-50.5 -24.5t-57 -9.5q-22 0 -40.5 5t-32.5 17.5 t-22 33t-8 52.5q0 35 10 79l68 325h75zM378 720h84l-5 -21l-123 -128h-44z" />
<glyph unicode="&#xfd;" horiz-adv-x="439" d="M0 0zM194 176l5 -96h5l38 97l166 323h80l-236 -446q-26 -49 -51.5 -95.5t-52.5 -83t-56 -58.5t-60 -22q-17 0 -29.5 2t-22.5 7l24 69q11 -4 24 -4q29 0 58 30t65 101l-86 500h80zM338 720h84l-5 -21l-123 -128h-44z" />
<glyph unicode="&#x10c;" horiz-adv-x="544" d="M71 0zM480 29q-34 -23 -72 -32t-88 -9q-59 0 -105 21.5t-78 60t-49 90.5t-17 114q0 113 33 195.5t87 136.5t121.5 80t136.5 26q57 0 93 -8t59 -19l-36 -73q-20 11 -52.5 18.5t-74.5 7.5q-56 0 -107.5 -24.5t-90.5 -70.5t-62 -112t-23 -148q0 -48 12.5 -88.5t36 -70 t58 -46t78.5 -16.5q47 0 78 10.5t56 24.5zM477 746h-47l-97 103l3 21h67l46 -50l9 -34l24 33l71 51h76l-4 -22z" />
<glyph unicode="&#x10d;" horiz-adv-x="420" d="M50 0zM365 43q-15 -13 -34.5 -23t-40 -17t-40.5 -11t-38 -4q-49 0 -80.5 15.5t-49.5 39.5t-25 52t-7 53q0 85 23 152.5t61.5 114.5t88.5 72t103 25q38 0 62.5 -7t44.5 -16l-28 -62q-17 10 -42 15.5t-54 5.5q-34 0 -66.5 -23t-57.5 -60.5t-40 -86t-15 -99.5q0 -65 27 -96 t73 -31q30 0 63 13.5t53 27.5zM328 550h-35l-71 182h72l23 -66l7 -58l34 58l56 66h70z" />
<glyph unicode="&#x10e;" horiz-adv-x="622" d="M40 0zM189 700q38 5 86 6.5t87 1.5q59 0 107 -15.5t81.5 -47.5t51.5 -81t18 -115q0 -44 -8 -95.5t-26.5 -102t-49.5 -97.5t-77 -83.5t-108 -58t-143 -21.5q-15 0 -39.5 0.5t-48.5 1.5q-70 4 -80 6zM356 634q-12 0 -27 -0.5t-29 -1t-27 -1.5t-20 -2l-118 -560 q4 -1 16 -1.5t25.5 -1t26 -1t17.5 -0.5q87 0 147 36t97.5 91t54.5 121t17 125q0 45 -10 81t-31.5 61.5t-55.5 39.5t-83 14zM406 746h-47l-97 103l3 21h67l46 -50l9 -34l24 33l71 51h76l-4 -22z" />
<glyph unicode="&#x10f;" horiz-adv-x="509" d="M50 0zM419 172q-8 -39 -12 -73t-4 -63q0 -11 0.5 -20t1.5 -18h-50l-14 87h-4q-12 -17 -30 -34.5t-40 -31.5t-46.5 -22.5t-50.5 -8.5q-55 0 -87.5 40.5t-32.5 128.5q0 59 17 121.5t50 113.5t82.5 84t114.5 33q18 0 31 -1t24.5 -3t21.5 -5.5t21 -7.5l44 208h75zM198 52 q21 0 43 11.5t41.5 28.5t35 36.5t24.5 36.5l56 260q-17 11 -38.5 15.5t-56.5 4.5q-40 0 -72 -24.5t-54.5 -65.5t-34.5 -94t-12 -109q0 -41 16 -70.5t52 -29.5zM677 700q-8 -29 -23.5 -59.5t-33.5 -56.5t-34.5 -46t-26.5 -29l-27 18q24 36 41.5 81.5t27.5 91.5h76z" />
<glyph unicode="&#x131;" horiz-adv-x="259" d="M160 500h75l-106 -500h-75z" />
<glyph unicode="&#x139;" horiz-adv-x="492" d="M40 0zM434 0h-316h-78l148 700h80l-133 -626h314zM352 870h116l-5 -21l-175 -97h-73z" />
<glyph unicode="&#x13a;" horiz-adv-x="270" d="M50 0zM133 119q-3 -17 -3 -28q0 -19 6.5 -27.5t17.5 -8.5q20 0 33.5 2.5t32.5 9.5v-57q-9 -5 -21 -8.5t-24.5 -5.5t-25 -3.5t-22.5 -1.5q-35 0 -56 16t-21 59q0 20 6 49l124 585h75zM326 870h116l-5 -21l-175 -97h-73z" />
<glyph unicode="&#x13d;" horiz-adv-x="492" d="M40 0zM434 0h-316h-78l148 700h80l-133 -626h314zM516 700q-8 -29 -23.5 -59.5t-33.5 -56.5t-34.5 -46t-26.5 -29l-27 18q24 36 41.5 81.5t27.5 91.5h76z" />
<glyph unicode="&#x13e;" horiz-adv-x="270" d="M50 0zM133 119q-3 -17 -3 -28q0 -19 6.5 -27.5t17.5 -8.5q20 0 33.5 2.5t32.5 9.5v-57q-9 -5 -21 -8.5t-24.5 -5.5t-25 -3.5t-22.5 -1.5q-35 0 -56 16t-21 59q0 20 6 49l124 585h75zM405 700q-8 -29 -23.5 -59.5t-33.5 -56.5t-34.5 -46t-26.5 -29l-27 18q24 36 41.5 81.5 t27.5 91.5h76z" />
<glyph unicode="&#x147;" horiz-adv-x="642" d="M40 0zM261 458l-34 103h-3l-12 -103l-97 -458h-75l151 711h40l218 -468l33 -98h4l9 98l98 457h75l-151 -711h-37zM460 746h-47l-97 103l3 21h67l46 -50l9 -34l24 33l71 51h76l-4 -22z" />
<glyph unicode="&#x148;" horiz-adv-x="522" d="M26 0zM321 0l67 316q4 18 7 35.5t3 31.5q0 29 -13.5 47t-50.5 18q-26 0 -51 -12t-47 -30.5t-39.5 -41t-29.5 -44.5l-66 -320h-75l106 500h52l-4 -86h4q13 16 31 33.5t40.5 31.5t50.5 23.5t62 9.5q50 0 79 -24t29 -84q0 -30 -9 -72l-71 -332h-75zM352 550h-35l-71 182h72 l23 -66l7 -58l34 58l56 66h70z" />
<glyph unicode="&#x154;" horiz-adv-x="568" d="M40 0zM187 693q42 8 81 11.5t78 3.5q38 0 74 -9.5t63.5 -30t44 -53.5t16.5 -80q0 -88 -51.5 -146.5t-149.5 -75.5l36 -36l108 -277h-87l-120 302l-94 15l-66 -317h-80zM341 636q-24 0 -48 -1.5t-40 -4.5l-55 -258h69q36 0 70.5 7t62 25t44 49t16.5 78q0 18 -7 36.5 t-21 34t-37 25t-54 9.5zM441 870h116l-5 -21l-175 -97h-73z" />
<glyph unicode="&#x155;" horiz-adv-x="327" d="M36 0zM362 434q-9 2 -18.5 3t-17.5 1q-51 0 -88 -32t-58 -78l-69 -328h-75l106 500h52v-86h4q12 19 26 35.5t31 29.5t37 20.5t44 7.5q22 0 46 -7zM302 720h84l-5 -21l-123 -128h-44z" />
<glyph unicode="&#x160;" horiz-adv-x="505" d="M17 0zM388 180q0 36 -18.5 61t-46.5 45.5t-60.5 39.5t-60.5 44t-46.5 59t-18.5 84q0 53 19.5 91t53 62t79 35t96.5 11q58 0 104 -9t72 -23l-40 -71q-20 11 -59.5 21t-91.5 10q-66 0 -107.5 -30t-41.5 -87q0 -37 18.5 -62.5t46.5 -46t60.5 -39.5t60.5 -43.5t46.5 -58.5 t18.5 -83q0 -97 -70 -149.5t-201 -52.5q-67 0 -113.5 11.5t-70.5 25.5l41 73q23 -13 62.5 -25.5t93.5 -12.5q31 0 62 5.5t56 19.5t40.5 37t15.5 58zM421 746h-47l-97 103l3 21h67l46 -50l9 -34l24 33l71 51h76l-4 -22z" />
<glyph unicode="&#x161;" horiz-adv-x="398" d="M3 0zM259 141q0 26 -13 44t-33 32.5t-43 28.5t-43 31.5t-33 41t-13 58.5q0 28 13.5 52.5t37 43t56 29t70.5 10.5q53 0 82 -7t52 -20l-25 -60q-40 23 -109 23q-42 0 -69.5 -17.5t-27.5 -53.5q0 -21 13 -36.5t33 -29.5t43 -28.5t43 -33t33 -43.5t13 -59q0 -78 -52.5 -118.5 t-140.5 -40.5q-45 0 -82.5 9t-60.5 23l28 63q20 -13 52.5 -22t67.5 -9q49 0 78.5 21.5t29.5 67.5zM283 550h-35l-71 182h72l23 -66l7 -58l34 58l56 66h70z" />
<glyph unicode="&#x164;" horiz-adv-x="528" d="M110 0zM602 626h-207l-132 -626h-80l132 626h-205l15 74h492zM404 746h-47l-97 103l3 21h67l46 -50l9 -34l24 33l71 51h76l-4 -22z" />
<glyph unicode="&#x165;" horiz-adv-x="313" d="M56 0zM71 500h74l21 99l80 23l-26 -122h131l-15 -64h-130l-63 -302q-2 -12 -3.5 -22t-1.5 -18q0 -24 11 -33t33 -9q24 0 44 6t40 18v-61q-21 -12 -54 -19.5t-63 -7.5q-91 0 -91 83q0 17 5 42l68 323h-75zM403 714q-8 -29 -23.5 -59.5t-33.5 -56.5t-34.5 -46t-26.5 -29 l-27 18q24 36 41.5 81.5t27.5 91.5h76z" />
<glyph unicode="&#x17d;" d="M0 0zM14 75l435 511l49 40h-366l15 74h447l-15 -75l-438 -514l-47 -37h367l-15 -74h-447zM387 746h-47l-97 103l3 21h67l46 -50l9 -34l24 33l71 51h76l-4 -22z" />
<glyph unicode="&#x17e;" horiz-adv-x="429" d="M0 0zM11 69l281 319l55 43h-258l15 69h337l-15 -69l-284 -322l-54 -40h261l-14 -69h-337zM289 550h-35l-71 182h72l23 -66l7 -58l34 58l56 66h70z" />
<glyph unicode="&#x2c6;" horiz-adv-x="431" d="M461 732h30l66 -182h-63l-24 66l-6 58l-34 -58l-57 -66h-68z" />
<glyph unicode="&#x2c7;" horiz-adv-x="431" d="M442 550h-35l-71 182h72l23 -66l7 -58l34 58l56 66h70z" />
<glyph unicode="&#x2da;" horiz-adv-x="401" d="M394 643q0 42 26.5 66.5t70.5 24.5q42 0 70 -22t28 -69q0 -39 -28 -64.5t-70 -25.5t-69.5 23.5t-27.5 66.5zM448 643q0 -20 13.5 -31t29.5 -11q19 0 31.5 10t12.5 32t-13.5 32.5t-30.5 10.5t-30 -10t-13 -33z" />
<glyph unicode="&#x2dc;" horiz-adv-x="349" d="M325 656q32 33 55.5 45.5t41.5 12.5q15 0 27 -6.5t23.5 -14t23 -13.5t25.5 -6q23 0 54 24l15 -43q-29 -29 -50 -40t-38 -11q-15 0 -27 6t-23.5 13.5t-23.5 13.5t-27 6q-13 0 -28 -6.5t-35 -22.5z" />
<glyph unicode="&#x2000;" horiz-adv-x="435" />
<glyph unicode="&#x2001;" horiz-adv-x="870" />
<glyph unicode="&#x2002;" horiz-adv-x="435" />
<glyph unicode="&#x2003;" horiz-adv-x="870" />
<glyph unicode="&#x2004;" horiz-adv-x="290" />
<glyph unicode="&#x2005;" horiz-adv-x="217" />
<glyph unicode="&#x2006;" horiz-adv-x="145" />
<glyph unicode="&#x2007;" horiz-adv-x="145" />
<glyph unicode="&#x2008;" horiz-adv-x="108" />
<glyph unicode="&#x2009;" horiz-adv-x="174" />
<glyph unicode="&#x200a;" horiz-adv-x="48" />
<glyph unicode="&#x2010;" horiz-adv-x="342" d="M79 322h230l-17 -68h-229z" />
<glyph unicode="&#x2011;" horiz-adv-x="342" d="M79 322h230l-17 -68h-229z" />
<glyph unicode="&#x2012;" horiz-adv-x="342" d="M79 322h230l-17 -68h-229z" />
<glyph unicode="&#x2013;" horiz-adv-x="627" d="M129 322h403l-16 -68h-403z" />
<glyph unicode="&#x2014;" horiz-adv-x="779" d="M129 322h555l-16 -68h-555z" />
<glyph unicode="&#x2018;" horiz-adv-x="186" d="M215 628q0 -29 -14.5 -43.5t-39.5 -14.5q-26 0 -39.5 18t-13.5 41q0 34 13 60.5t31 45t37 29t31 14.5l15 -35q-23 -11 -40 -30.5t-21 -45.5q3 1 9 1q15 0 23.5 -12t8.5 -28z" />
<glyph unicode="&#x2019;" horiz-adv-x="187" d="M130 658q0 12 5.5 21.5t13.5 15.5t17.5 9.5t18.5 3.5q30 0 40.5 -15t10.5 -43q0 -34 -13 -60t-31 -44.5t-37 -30t-31 -15.5l-16 34q23 12 40 31t22 46q-40 2 -40 47z" />
<glyph unicode="&#x201a;" horiz-adv-x="189" d="M2 0zM24 49q0 12 5.5 21.5t13.5 15.5t17.5 9.5t18.5 3.5q30 0 40.5 -15t10.5 -43q0 -34 -13 -60t-31 -44.5t-37 -30t-31 -15.5l-16 34q23 12 40 31t22 46q-40 2 -40 47z" />
<glyph unicode="&#x201c;" horiz-adv-x="325" d="M108 570zM354 628q0 -29 -14.5 -43.5t-39.5 -14.5q-26 0 -39.5 18t-13.5 41q0 34 13 60.5t31 45t37 29t31 14.5l15 -35q-23 -11 -40 -30.5t-21 -45.5q3 1 9 1q15 0 23.5 -12t8.5 -28zM215 628q0 -29 -14.5 -43.5t-39.5 -14.5q-26 0 -39.5 18t-13.5 41q0 34 13 60.5t31 45 t37 29t31 14.5l15 -35q-23 -11 -40 -30.5t-21 -45.5q3 1 9 1q15 0 23.5 -12t8.5 -28z" />
<glyph unicode="&#x201d;" horiz-adv-x="325" d="M108 500zM268 658q0 12 5.5 21.5t13.5 15.5t17.5 9.5t18.5 3.5q30 0 40.5 -15t10.5 -43q0 -34 -13 -60t-31 -44.5t-37 -30t-31 -15.5l-16 34q23 12 40 31t22 46q-40 2 -40 47zM130 658q0 12 5.5 21.5t13.5 15.5t17.5 9.5t18.5 3.5q30 0 40.5 -15t10.5 -43q0 -34 -13 -60 t-31 -44.5t-37 -30t-31 -15.5l-16 34q23 12 40 31t22 46q-40 2 -40 47z" />
<glyph unicode="&#x201e;" horiz-adv-x="327" d="M2 0zM161 49q0 12 5.5 21.5t13.5 15.5t17.5 9.5t18.5 3.5q30 0 40.5 -15t10.5 -43q0 -34 -13 -60t-31 -44.5t-37 -30t-31 -15.5l-16 34q23 12 40 31t22 46q-40 2 -40 47zM24 49q0 12 5.5 21.5t13.5 15.5t17.5 9.5t18.5 3.5q30 0 40.5 -15t10.5 -43q0 -34 -13 -60 t-31 -44.5t-37 -30t-31 -15.5l-16 34q23 12 40 31t22 46q-40 2 -40 47z" />
<glyph unicode="&#x2026;" horiz-adv-x="721" d="M510 46q0 27 16 42.5t42 15.5t42 -15.5t16 -42.5q0 -26 -16 -42t-42 -16t-42 16t-16 42zM268 46q0 27 16 42.5t42 15.5t42 -15.5t16 -42.5q0 -26 -16 -42t-42 -16t-42 16t-16 42zM27 46q0 27 16 42.5t42 15.5t42 -15.5t16 -42.5q0 -26 -16 -42t-42 -16t-42 16t-16 42z " />
<glyph unicode="&#x202f;" horiz-adv-x="174" />
<glyph unicode="&#x2039;" horiz-adv-x="300" d="M56 259l200 230l44 -48l-123 -144l-56 -37l33 -39l68 -141l-55 -42z" />
<glyph unicode="&#x203a;" horiz-adv-x="283" d="M283 268l-200 -230l-45 43l124 145l57 41l-35 42l-68 142l57 38z" />
<glyph unicode="&#x205f;" horiz-adv-x="217" />
<glyph unicode="&#x20ac;" d="M67 454h74q26 69 63 117t81 79.5t91.5 46.5t92.5 15q48 0 81.5 -8t57.5 -21l-35 -61q-38 22 -119 22q-27 0 -59 -11t-64 -34t-60.5 -58.5t-50.5 -86.5h276l-30 -64h-266q-5 -16 -8 -36.5t-5 -35.5h243l-30 -64h-216l-1 -4q-1 -46 8 -80.5t28.5 -59.5t51.5 -39.5t80 -14.5 q32 0 63.5 9t57.5 23l14 -60q-18 -12 -38.5 -19.5t-42.5 -12t-43 -6.5t-39 -2q-54 0 -95 18.5t-68.5 51t-41.5 77t-15 101.5l1 18h-98l31 64h71q3 15 6.5 36t7.5 36h-86z" />
<glyph unicode="&#x2122;" horiz-adv-x="886" d="M440 632h-136v-292h-78v292h-136v68h350v-68zM822 507l10 103h-4l-39 -85l-87 -140h-33l-89 139l-36 86h-4l13 -102v-168h-73v360h78l105 -168l28 -58h1l30 60l97 166h79v-360h-76v167z" />
<glyph unicode="&#xe000;" horiz-adv-x="500" d="M0 500h500v-500h-500v500z" />
<glyph unicode="&#xf408;" horiz-adv-x="431" d="M447 870h48l99 -102l-4 -21h-68l-46 49l-10 35l-25 -34l-71 -50h-75l5 22z" />
<glyph unicode="&#xf6c9;" horiz-adv-x="238" d="M436 870h116l-5 -21l-175 -97h-73z" />
<glyph unicode="&#xf6ca;" horiz-adv-x="431" d="M469 746h-47l-97 103l3 21h67l46 -50l9 -34l24 33l71 51h76l-4 -22z" />
<glyph unicode="&#xf6cb;" horiz-adv-x="242" d="M183 794q0 20 14 33.5t37 13.5t36.5 -13.5t13.5 -33.5t-13.5 -33t-36.5 -13t-37 13t-14 33zM366 794q0 20 13.5 33.5t36.5 13.5t37 -13.5t14 -33.5t-14 -33t-37 -13t-36.5 13t-13.5 33z" />
<glyph horiz-adv-x="184" d="M323 713l50 -39l-513 -686l-50 39z" />
<glyph horiz-adv-x="179" d="M451 700q-8 -29 -23.5 -59.5t-33.5 -56.5t-34.5 -46t-26.5 -29l-27 18q24 36 41.5 81.5t27.5 91.5h76z" />
<glyph horiz-adv-x="1164" d="M0 0z" />
<hkern u1="B" u2="&#x164;" k="29" />
<hkern u1="B" u2="T" k="29" />
<hkern u1="T" u2="&#x17e;" k="53" />
<hkern u1="T" u2="&#x10d;" k="101" />
<hkern u1="T" u2="&#xf3;" k="132" />
<hkern u1="T" u2="&#xe4;" k="51" />
<hkern u1="V" u2="&#xe4;" k="29" />
<hkern u1="Y" u2="&#x10d;" k="66" />
<hkern u1="Y" u2="&#xe4;" k="45" />
<hkern u1="a" u2="&#x164;" k="107" />
<hkern u1="a" u2="T" k="107" />
<hkern u1="n" u2="&#x164;" k="140" />
<hkern u1="n" u2="T" k="140" />
<hkern u1="&#xdd;" u2="&#x10d;" k="66" />
<hkern u1="&#xdd;" u2="&#xe4;" k="45" />
<hkern u1="&#xe9;" u2="&#x164;" k="126" />
<hkern u1="&#xe9;" u2="T" k="126" />
<hkern u1="&#x10f;" u2="&#x161;" k="-30" />
<hkern u1="&#x10f;" u2="&#x155;" k="-30" />
<hkern u1="&#x10f;" u2="&#x148;" k="-30" />
<hkern u1="&#x10f;" u2="&#xfd;" k="-63" />
<hkern u1="&#x10f;" u2="&#xfa;" k="-7" />
<hkern u1="&#x10f;" u2="&#xf4;" k="-7" />
<hkern u1="&#x10f;" u2="&#xed;" k="-10" />
<hkern u1="&#x10f;" u2="&#xe4;" k="-33" />
<hkern u1="&#x10f;" u2="j" k="-30" />
<hkern u1="&#x10f;" u2="i" k="-30" />
<hkern u1="&#x13e;" u2="&#x161;" k="-11" />
<hkern u1="&#x13e;" u2="&#x155;" k="-11" />
<hkern u1="&#x13e;" u2="&#x148;" k="-11" />
<hkern u1="&#x13e;" u2="&#xfd;" k="-11" />
<hkern u1="&#x13e;" u2="&#xfa;" k="-6" />
<hkern u1="&#x13e;" u2="&#xf4;" k="-4" />
<hkern u1="&#x13e;" u2="&#xed;" k="-6" />
<hkern u1="&#x13e;" u2="&#xe4;" k="-8" />
<hkern u1="&#x13e;" u2="j" k="-11" />
<hkern u1="&#x13e;" u2="i" k="-11" />
<hkern u1="&#x164;" u2="&#x17e;" k="53" />
<hkern u1="&#x164;" u2="&#x10d;" k="101" />
<hkern u1="&#x164;" u2="&#xf3;" k="132" />
<hkern u1="&#x164;" u2="&#xe4;" k="51" />
<hkern g1="C,Ccaron" 	g2="space" 	k="38" />
<hkern g1="C,Ccaron" 	g2="hyphen,endash,emdash" 	k="74" />
<hkern g1="C,Ccaron" 	g2="C,G,O,Q,Oacute,Ocircumflex,Ccaron" 	k="25" />
<hkern g1="C,Ccaron" 	g2="T,Tcaron" 	k="26" />
<hkern g1="C,Ccaron" 	g2="V" 	k="25" />
<hkern g1="C,Ccaron" 	g2="W" 	k="5" />
<hkern g1="C,Ccaron" 	g2="X" 	k="40" />
<hkern g1="C,Ccaron" 	g2="Y,Yacute" 	k="33" />
<hkern g1="C,Ccaron" 	g2="Z,Zcaron" 	k="22" />
<hkern g1="C,Ccaron" 	g2="v,y,yacute" 	k="54" />
<hkern g1="C,Ccaron" 	g2="w" 	k="43" />
<hkern g1="C,Ccaron" 	g2="A,Aacute,Adieresis" 	k="26" />
<hkern g1="C,Ccaron" 	g2="i,j,iacute,uacute,ncaron,racute,scaron" 	k="22" />
<hkern g1="C,Ccaron" 	g2="m,n,p,r,s,u" 	k="29" />
<hkern g1="C,Ccaron" 	g2="a,c,d,e,g,o,q,aacute,adieresis,eacute,oacute,ocircumflex,ccaron,dcaron" 	k="38" />
<hkern g1="C,Ccaron" 	g2="t,tcaron" 	k="35" />
<hkern g1="C,Ccaron" 	g2="x" 	k="14" />
<hkern g1="C,Ccaron" 	g2="z,zcaron" 	k="16" />
<hkern g1="L,Lacute,Lcaron" 	g2="space" 	k="40" />
<hkern g1="L,Lacute,Lcaron" 	g2="asterisk" 	k="153" />
<hkern g1="L,Lacute,Lcaron" 	g2="hyphen,endash,emdash" 	k="74" />
<hkern g1="L,Lacute,Lcaron" 	g2="C,G,O,Q,Oacute,Ocircumflex,Ccaron" 	k="63" />
<hkern g1="L,Lacute,Lcaron" 	g2="T,Tcaron" 	k="116" />
<hkern g1="L,Lacute,Lcaron" 	g2="V" 	k="98" />
<hkern g1="L,Lacute,Lcaron" 	g2="W" 	k="70" />
<hkern g1="L,Lacute,Lcaron" 	g2="X" 	k="99" />
<hkern g1="L,Lacute,Lcaron" 	g2="Y,Yacute" 	k="100" />
<hkern g1="L,Lacute,Lcaron" 	g2="Z,Zcaron" 	k="46" />
<hkern g1="L,Lacute,Lcaron" 	g2="v,y,yacute" 	k="97" />
<hkern g1="L,Lacute,Lcaron" 	g2="w" 	k="67" />
<hkern g1="L,Lacute,Lcaron" 	g2="quotedbl,quotesingle,quoteleft,quoteright,quotedblleft,quotedblright" 	k="118" />
<hkern g1="L,Lacute,Lcaron" 	g2="registered,trademark" 	k="140" />
<hkern g1="L,Lacute,Lcaron" 	g2="A,Aacute,Adieresis" 	k="71" />
<hkern g1="L,Lacute,Lcaron" 	g2="a,c,d,e,g,o,q,aacute,adieresis,eacute,oacute,ocircumflex,ccaron,dcaron" 	k="34" />
<hkern g1="L,Lacute,Lcaron" 	g2="t,tcaron" 	k="35" />
<hkern g1="L,Lacute,Lcaron" 	g2="x" 	k="22" />
<hkern g1="L,Lacute,Lcaron" 	g2="z,zcaron" 	k="27" />
<hkern g1="D,O,Q,Oacute,Ocircumflex" 	g2="comma,period,ellipsis" 	k="29" />
<hkern g1="D,O,Q,Oacute,Ocircumflex" 	g2="T,Tcaron" 	k="46" />
<hkern g1="D,O,Q,Oacute,Ocircumflex" 	g2="V" 	k="25" />
<hkern g1="D,O,Q,Oacute,Ocircumflex" 	g2="W" 	k="19" />
<hkern g1="D,O,Q,Oacute,Ocircumflex" 	g2="X" 	k="47" />
<hkern g1="D,O,Q,Oacute,Ocircumflex" 	g2="Y,Yacute" 	k="39" />
<hkern g1="D,O,Q,Oacute,Ocircumflex" 	g2="Z,Zcaron" 	k="23" />
<hkern g1="D,O,Q,Oacute,Ocircumflex" 	g2="quotedbl,quotesingle,quoteleft,quoteright,quotedblleft,quotedblright" 	k="38" />
<hkern g1="D,O,Q,Oacute,Ocircumflex" 	g2="quotesinglbase,quotedblbase" 	k="38" />
<hkern g1="D,O,Q,Oacute,Ocircumflex" 	g2="A,Aacute,Adieresis" 	k="19" />
<hkern g1="P" 	g2="space" 	k="38" />
<hkern g1="P" 	g2="comma,period,ellipsis" 	k="124" />
<hkern g1="P" 	g2="C,G,O,Q,Oacute,Ocircumflex,Ccaron" 	k="16" />
<hkern g1="P" 	g2="T,Tcaron" 	k="15" />
<hkern g1="P" 	g2="X" 	k="40" />
<hkern g1="P" 	g2="Y,Yacute" 	k="24" />
<hkern g1="P" 	g2="Z,Zcaron" 	k="27" />
<hkern g1="P" 	g2="quotesinglbase,quotedblbase" 	k="96" />
<hkern g1="P" 	g2="A,Aacute,Adieresis" 	k="60" />
<hkern g1="R,Racute" 	g2="hyphen,endash,emdash" 	k="38" />
<hkern g1="R,Racute" 	g2="C,G,O,Q,Oacute,Ocircumflex,Ccaron" 	k="34" />
<hkern g1="R,Racute" 	g2="T,Tcaron" 	k="58" />
<hkern g1="R,Racute" 	g2="V" 	k="46" />
<hkern g1="R,Racute" 	g2="W" 	k="38" />
<hkern g1="R,Racute" 	g2="X" 	k="37" />
<hkern g1="R,Racute" 	g2="Y,Yacute" 	k="52" />
<hkern g1="R,Racute" 	g2="Z,Zcaron" 	k="23" />
<hkern g1="R,Racute" 	g2="v,y,yacute" 	k="22" />
<hkern g1="R,Racute" 	g2="w" 	k="16" />
<hkern g1="R,Racute" 	g2="A,Aacute,Adieresis" 	k="25" />
<hkern g1="R,Racute" 	g2="i,j,iacute,uacute,ncaron,racute,scaron" 	k="16" />
<hkern g1="R,Racute" 	g2="m,n,p,r,s,u" 	k="22" />
<hkern g1="R,Racute" 	g2="a,c,d,e,g,o,q,aacute,adieresis,eacute,oacute,ocircumflex,ccaron,dcaron" 	k="43" />
<hkern g1="R,Racute" 	g2="x" 	k="22" />
<hkern g1="R,Racute" 	g2="z,zcaron" 	k="23" />
<hkern g1="T,Tcaron" 	g2="space" 	k="38" />
<hkern g1="T,Tcaron" 	g2="hyphen,endash,emdash" 	k="122" />
<hkern g1="T,Tcaron" 	g2="comma,period,ellipsis" 	k="97" />
<hkern g1="T,Tcaron" 	g2="C,G,O,Q,Oacute,Ocircumflex,Ccaron" 	k="46" />
<hkern g1="T,Tcaron" 	g2="T,Tcaron" 	k="-20" />
<hkern g1="T,Tcaron" 	g2="V" 	k="6" />
<hkern g1="T,Tcaron" 	g2="W" 	k="5" />
<hkern g1="T,Tcaron" 	g2="X" 	k="32" />
<hkern g1="T,Tcaron" 	g2="Y,Yacute" 	k="12" />
<hkern g1="T,Tcaron" 	g2="Z,Zcaron" 	k="32" />
<hkern g1="T,Tcaron" 	g2="v,y,yacute" 	k="107" />
<hkern g1="T,Tcaron" 	g2="w" 	k="91" />
<hkern g1="T,Tcaron" 	g2="quotesinglbase,quotedblbase" 	k="98" />
<hkern g1="T,Tcaron" 	g2="A,Aacute,Adieresis" 	k="64" />
<hkern g1="T,Tcaron" 	g2="i,j,iacute,uacute,ncaron,racute,scaron" 	k="32" />
<hkern g1="T,Tcaron" 	g2="m,n,p,r,s,u" 	k="108" />
<hkern g1="T,Tcaron" 	g2="a,c,d,e,g,o,q,aacute,adieresis,eacute,oacute,ocircumflex,ccaron,dcaron" 	k="107" />
<hkern g1="T,Tcaron" 	g2="t,tcaron" 	k="46" />
<hkern g1="T,Tcaron" 	g2="x" 	k="119" />
<hkern g1="T,Tcaron" 	g2="z,zcaron" 	k="100" />
<hkern g1="T,Tcaron" 	g2="parenright,bracketright,braceright" 	k="-26" />
<hkern g1="V" 	g2="space" 	k="29" />
<hkern g1="V" 	g2="asterisk" 	k="-44" />
<hkern g1="V" 	g2="hyphen,endash,emdash" 	k="51" />
<hkern g1="V" 	g2="comma,period,ellipsis" 	k="90" />
<hkern g1="V" 	g2="C,G,O,Q,Oacute,Ocircumflex,Ccaron" 	k="25" />
<hkern g1="V" 	g2="T,Tcaron" 	k="6" />
<hkern g1="V" 	g2="V" 	k="6" />
<hkern g1="V" 	g2="W" 	k="5" />
<hkern g1="V" 	g2="X" 	k="6" />
<hkern g1="V" 	g2="Y,Yacute" 	k="7" />
<hkern g1="V" 	g2="Z,Zcaron" 	k="6" />
<hkern g1="V" 	g2="quotedbl,quotesingle,quoteleft,quoteright,quotedblleft,quotedblright" 	k="-38" />
<hkern g1="V" 	g2="quotesinglbase,quotedblbase" 	k="89" />
<hkern g1="V" 	g2="A,Aacute,Adieresis" 	k="43" />
<hkern g1="V" 	g2="m,n,p,r,s,u" 	k="33" />
<hkern g1="V" 	g2="a,c,d,e,g,o,q,aacute,adieresis,eacute,oacute,ocircumflex,ccaron,dcaron" 	k="35" />
<hkern g1="V" 	g2="x" 	k="25" />
<hkern g1="V" 	g2="z,zcaron" 	k="21" />
<hkern g1="W" 	g2="space" 	k="24" />
<hkern g1="W" 	g2="asterisk" 	k="-44" />
<hkern g1="W" 	g2="hyphen,endash,emdash" 	k="24" />
<hkern g1="W" 	g2="comma,period,ellipsis" 	k="70" />
<hkern g1="W" 	g2="C,G,O,Q,Oacute,Ocircumflex,Ccaron" 	k="19" />
<hkern g1="W" 	g2="T,Tcaron" 	k="5" />
<hkern g1="W" 	g2="V" 	k="5" />
<hkern g1="W" 	g2="W" 	k="6" />
<hkern g1="W" 	g2="X" 	k="5" />
<hkern g1="W" 	g2="Y,Yacute" 	k="7" />
<hkern g1="W" 	g2="Z,Zcaron" 	k="6" />
<hkern g1="W" 	g2="quotedbl,quotesingle,quoteleft,quoteright,quotedblleft,quotedblright" 	k="-38" />
<hkern g1="W" 	g2="quotesinglbase,quotedblbase" 	k="64" />
<hkern g1="W" 	g2="A,Aacute,Adieresis" 	k="26" />
<hkern g1="W" 	g2="m,n,p,r,s,u" 	k="21" />
<hkern g1="W" 	g2="a,c,d,e,g,o,q,aacute,adieresis,eacute,oacute,ocircumflex,ccaron,dcaron" 	k="28" />
<hkern g1="W" 	g2="x" 	k="23" />
<hkern g1="W" 	g2="z,zcaron" 	k="20" />
<hkern g1="K,X" 	g2="space" 	k="29" />
<hkern g1="K,X" 	g2="hyphen,endash,emdash" 	k="76" />
<hkern g1="K,X" 	g2="C,G,O,Q,Oacute,Ocircumflex,Ccaron" 	k="47" />
<hkern g1="K,X" 	g2="T,Tcaron" 	k="32" />
<hkern g1="K,X" 	g2="V" 	k="6" />
<hkern g1="K,X" 	g2="W" 	k="5" />
<hkern g1="K,X" 	g2="X" 	k="30" />
<hkern g1="K,X" 	g2="Y,Yacute" 	k="26" />
<hkern g1="K,X" 	g2="v,y,yacute" 	k="41" />
<hkern g1="K,X" 	g2="w" 	k="32" />
<hkern g1="K,X" 	g2="A,Aacute,Adieresis" 	k="29" />
<hkern g1="K,X" 	g2="i,j,iacute,uacute,ncaron,racute,scaron" 	k="22" />
<hkern g1="K,X" 	g2="m,n,p,r,s,u" 	k="22" />
<hkern g1="K,X" 	g2="a,c,d,e,g,o,q,aacute,adieresis,eacute,oacute,ocircumflex,ccaron,dcaron" 	k="26" />
<hkern g1="K,X" 	g2="t,tcaron" 	k="27" />
<hkern g1="K,X" 	g2="x" 	k="22" />
<hkern g1="K,X" 	g2="z,zcaron" 	k="16" />
<hkern g1="Y,Yacute" 	g2="space" 	k="24" />
<hkern g1="Y,Yacute" 	g2="asterisk" 	k="-23" />
<hkern g1="Y,Yacute" 	g2="hyphen,endash,emdash" 	k="58" />
<hkern g1="Y,Yacute" 	g2="comma,period,ellipsis" 	k="102" />
<hkern g1="Y,Yacute" 	g2="C,G,O,Q,Oacute,Ocircumflex,Ccaron" 	k="39" />
<hkern g1="Y,Yacute" 	g2="T,Tcaron" 	k="12" />
<hkern g1="Y,Yacute" 	g2="V" 	k="7" />
<hkern g1="Y,Yacute" 	g2="W" 	k="5" />
<hkern g1="Y,Yacute" 	g2="X" 	k="26" />
<hkern g1="Y,Yacute" 	g2="Y,Yacute" 	k="7" />
<hkern g1="Y,Yacute" 	g2="Z,Zcaron" 	k="24" />
<hkern g1="Y,Yacute" 	g2="v,y,yacute" 	k="24" />
<hkern g1="Y,Yacute" 	g2="w" 	k="25" />
<hkern g1="Y,Yacute" 	g2="quotedbl,quotesingle,quoteleft,quoteright,quotedblleft,quotedblright" 	k="-34" />
<hkern g1="Y,Yacute" 	g2="quotesinglbase,quotedblbase" 	k="98" />
<hkern g1="Y,Yacute" 	g2="A,Aacute,Adieresis" 	k="65" />
<hkern g1="Y,Yacute" 	g2="m,n,p,r,s,u" 	k="62" />
<hkern g1="Y,Yacute" 	g2="a,c,d,e,g,o,q,aacute,adieresis,eacute,oacute,ocircumflex,ccaron,dcaron" 	k="74" />
<hkern g1="Y,Yacute" 	g2="t,tcaron" 	k="32" />
<hkern g1="Y,Yacute" 	g2="x" 	k="59" />
<hkern g1="Y,Yacute" 	g2="z,zcaron" 	k="40" />
<hkern g1="Z,Zcaron" 	g2="space" 	k="41" />
<hkern g1="Z,Zcaron" 	g2="hyphen,endash,emdash" 	k="87" />
<hkern g1="Z,Zcaron" 	g2="C,G,O,Q,Oacute,Ocircumflex,Ccaron" 	k="23" />
<hkern g1="Z,Zcaron" 	g2="T,Tcaron" 	k="23" />
<hkern g1="Z,Zcaron" 	g2="V" 	k="6" />
<hkern g1="Z,Zcaron" 	g2="W" 	k="5" />
<hkern g1="Z,Zcaron" 	g2="X" 	k="28" />
<hkern g1="Z,Zcaron" 	g2="Y,Yacute" 	k="24" />
<hkern g1="Z,Zcaron" 	g2="Z,Zcaron" 	k="21" />
<hkern g1="Z,Zcaron" 	g2="A,Aacute,Adieresis" 	k="18" />
<hkern g1="Z,Zcaron" 	g2="a,c,d,e,g,o,q,aacute,adieresis,eacute,oacute,ocircumflex,ccaron,dcaron" 	k="23" />
<hkern g1="Z,Zcaron" 	g2="z,zcaron" 	k="22" />
<hkern g1="c,ccaron" 	g2="space" 	k="30" />
<hkern g1="c,ccaron" 	g2="hyphen,endash,emdash" 	k="29" />
<hkern g1="c,ccaron" 	g2="a,c,d,e,g,o,q,aacute,adieresis,eacute,oacute,ocircumflex,ccaron,dcaron" 	k="29" />
<hkern g1="e,eacute" 	g2="T,Tcaron" 	k="138" />
<hkern g1="e,eacute" 	g2="quotedbl,quotesingle,quoteleft,quoteright,quotedblleft,quotedblright" 	k="38" />
<hkern g1="e,eacute" 	g2="x" 	k="16" />
<hkern g1="e,eacute" 	g2="z,zcaron" 	k="5" />
<hkern g1="f" 	g2="space" 	k="22" />
<hkern g1="f" 	g2="asterisk" 	k="-119" />
<hkern g1="f" 	g2="hyphen,endash,emdash" 	k="22" />
<hkern g1="f" 	g2="comma,period,ellipsis" 	k="30" />
<hkern g1="f" 	g2="w" 	k="-22" />
<hkern g1="f" 	g2="quotedbl,quotesingle,quoteleft,quoteright,quotedblleft,quotedblright" 	k="-93" />
<hkern g1="f" 	g2="quotesinglbase,quotedblbase" 	k="25" />
<hkern g1="f" 	g2="registered,trademark" 	k="-102" />
<hkern g1="f" 	g2="i,j,iacute,uacute,ncaron,racute,scaron" 	k="-5" />
<hkern g1="f" 	g2="t,tcaron" 	k="-19" />
<hkern g1="f" 	g2="parenright,bracketright,braceright" 	k="-97" />
<hkern g1="b,o,p,oacute,ocircumflex" 	g2="asterisk" 	k="5" />
<hkern g1="b,o,p,oacute,ocircumflex" 	g2="comma,period,ellipsis" 	k="22" />
<hkern g1="b,o,p,oacute,ocircumflex" 	g2="v,y,yacute" 	k="18" />
<hkern g1="b,o,p,oacute,ocircumflex" 	g2="w" 	k="6" />
<hkern g1="b,o,p,oacute,ocircumflex" 	g2="quotedbl,quotesingle,quoteleft,quoteright,quotedblleft,quotedblright" 	k="65" />
<hkern g1="b,o,p,oacute,ocircumflex" 	g2="quotesinglbase,quotedblbase" 	k="22" />
<hkern g1="b,o,p,oacute,ocircumflex" 	g2="registered,trademark" 	k="5" />
<hkern g1="b,o,p,oacute,ocircumflex" 	g2="x" 	k="29" />
<hkern g1="b,o,p,oacute,ocircumflex" 	g2="parenright,bracketright,braceright" 	k="20" />
<hkern g1="v,y,yacute" 	g2="space" 	k="27" />
<hkern g1="v,y,yacute" 	g2="comma,period,ellipsis" 	k="69" />
<hkern g1="v,y,yacute" 	g2="quotesinglbase,quotedblbase" 	k="49" />
<hkern g1="v,y,yacute" 	g2="a,c,d,e,g,o,q,aacute,adieresis,eacute,oacute,ocircumflex,ccaron,dcaron" 	k="18" />
<hkern g1="v,y,yacute" 	g2="x" 	k="18" />
<hkern g1="v,y,yacute" 	g2="z,zcaron" 	k="9" />
<hkern g1="w" 	g2="space" 	k="22" />
<hkern g1="w" 	g2="comma,period,ellipsis" 	k="30" />
<hkern g1="w" 	g2="quotesinglbase,quotedblbase" 	k="25" />
<hkern g1="w" 	g2="x" 	k="16" />
<hkern g1="w" 	g2="z,zcaron" 	k="16" />
<hkern g1="k,x" 	g2="space" 	k="25" />
<hkern g1="k,x" 	g2="hyphen,endash,emdash" 	k="35" />
<hkern g1="k,x" 	g2="a,c,d,e,g,o,q,aacute,adieresis,eacute,oacute,ocircumflex,ccaron,dcaron" 	k="25" />
<hkern g1="z,zcaron" 	g2="space" 	k="22" />
<hkern g1="z,zcaron" 	g2="hyphen,endash,emdash" 	k="27" />
<hkern g1="z,zcaron" 	g2="a,c,d,e,g,o,q,aacute,adieresis,eacute,oacute,ocircumflex,ccaron,dcaron" 	k="16" />
<hkern g1="z,zcaron" 	g2="x" 	k="14" />
<hkern g1="space" 	g2="asterisk" 	k="6" />
<hkern g1="space" 	g2="hyphen,endash,emdash" 	k="8" />
<hkern g1="space" 	g2="comma,period,ellipsis" 	k="13" />
<hkern g1="space" 	g2="T,Tcaron" 	k="31" />
<hkern g1="space" 	g2="V" 	k="30" />
<hkern g1="space" 	g2="W" 	k="19" />
<hkern g1="space" 	g2="X" 	k="30" />
<hkern g1="space" 	g2="Y,Yacute" 	k="30" />
<hkern g1="space" 	g2="Z,Zcaron" 	k="22" />
<hkern g1="space" 	g2="v,y,yacute" 	k="27" />
<hkern g1="space" 	g2="w" 	k="22" />
<hkern g1="space" 	g2="quotedbl,quotesingle,quoteleft,quoteright,quotedblleft,quotedblright" 	k="68" />
<hkern g1="space" 	g2="quotesinglbase,quotedblbase" 	k="68" />
<hkern g1="space" 	g2="A,Aacute,Adieresis" 	k="32" />
<hkern g1="space" 	g2="x" 	k="25" />
<hkern g1="space" 	g2="z,zcaron" 	k="22" />
<hkern g1="comma,period,ellipsis" 	g2="space" 	k="30" />
<hkern g1="comma,period,ellipsis" 	g2="asterisk" 	k="24" />
<hkern g1="comma,period,ellipsis" 	g2="hyphen,endash,emdash" 	k="126" />
<hkern g1="comma,period,ellipsis" 	g2="T,Tcaron" 	k="10" />
<hkern g1="comma,period,ellipsis" 	g2="V" 	k="11" />
<hkern g1="comma,period,ellipsis" 	g2="W" 	k="7" />
<hkern g1="comma,period,ellipsis" 	g2="Y,Yacute" 	k="13" />
<hkern g1="comma,period,ellipsis" 	g2="v,y,yacute" 	k="59" />
<hkern g1="comma,period,ellipsis" 	g2="w" 	k="25" />
<hkern g1="comma,period,ellipsis" 	g2="quotedbl,quotesingle,quoteleft,quoteright,quotedblleft,quotedblright" 	k="140" />
<hkern g1="comma,period,ellipsis" 	g2="registered,trademark" 	k="16" />
<hkern g1="comma,period,ellipsis" 	g2="a,c,d,e,g,o,q,aacute,adieresis,eacute,oacute,ocircumflex,ccaron,dcaron" 	k="22" />
<hkern g1="comma,period,ellipsis" 	g2="z,zcaron" 	k="-16" />
<hkern g1="hyphen,endash,emdash" 	g2="space" 	k="76" />
<hkern g1="hyphen,endash,emdash" 	g2="asterisk" 	k="7" />
<hkern g1="hyphen,endash,emdash" 	g2="hyphen,endash,emdash" 	k="10" />
<hkern g1="hyphen,endash,emdash" 	g2="comma,period,ellipsis" 	k="120" />
<hkern g1="hyphen,endash,emdash" 	g2="T,Tcaron" 	k="12" />
<hkern g1="hyphen,endash,emdash" 	g2="V" 	k="5" />
<hkern g1="hyphen,endash,emdash" 	g2="X" 	k="8" />
<hkern g1="hyphen,endash,emdash" 	g2="Y,Yacute" 	k="7" />
<hkern g1="hyphen,endash,emdash" 	g2="quotedbl,quotesingle,quoteleft,quoteright,quotedblleft,quotedblright" 	k="117" />
<hkern g1="hyphen,endash,emdash" 	g2="quotesinglbase,quotedblbase" 	k="83" />
<hkern g1="hyphen,endash,emdash" 	g2="x" 	k="35" />
<hkern g1="hyphen,endash,emdash" 	g2="z,zcaron" 	k="27" />
<hkern g1="hyphen,endash,emdash" 	g2="parenright,bracketright,braceright" 	k="6" />
<hkern g1="quotedbl,quotesingle,quoteleft,quoteright,quotedblleft,quotedblright" 	g2="space" 	k="78" />
<hkern g1="quotedbl,quotesingle,quoteleft,quoteright,quotedblleft,quotedblright" 	g2="hyphen,endash,emdash" 	k="144" />
<hkern g1="quotedbl,quotesingle,quoteleft,quoteright,quotedblleft,quotedblright" 	g2="comma,period,ellipsis" 	k="116" />
<hkern g1="quotedbl,quotesingle,quoteleft,quoteright,quotedblleft,quotedblright" 	g2="C,G,O,Q,Oacute,Ocircumflex,Ccaron" 	k="38" />
<hkern g1="quotedbl,quotesingle,quoteleft,quoteright,quotedblleft,quotedblright" 	g2="V" 	k="-38" />
<hkern g1="quotedbl,quotesingle,quoteleft,quoteright,quotedblleft,quotedblright" 	g2="W" 	k="-38" />
<hkern g1="quotedbl,quotesingle,quoteleft,quoteright,quotedblleft,quotedblright" 	g2="Y,Yacute" 	k="-34" />
<hkern g1="quotedbl,quotesingle,quoteleft,quoteright,quotedblleft,quotedblright" 	g2="A,Aacute,Adieresis" 	k="115" />
<hkern g1="quotedbl,quotesingle,quoteleft,quoteright,quotedblleft,quotedblright" 	g2="a,c,d,e,g,o,q,aacute,adieresis,eacute,oacute,ocircumflex,ccaron,dcaron" 	k="40" />
<hkern g1="quotesinglbase,quotedblbase" 	g2="space" 	k="87" />
<hkern g1="quotesinglbase,quotedblbase" 	g2="asterisk" 	k="18" />
<hkern g1="quotesinglbase,quotedblbase" 	g2="hyphen,endash,emdash" 	k="106" />
<hkern g1="quotesinglbase,quotedblbase" 	g2="C,G,O,Q,Oacute,Ocircumflex,Ccaron" 	k="57" />
<hkern g1="quotesinglbase,quotedblbase" 	g2="T,Tcaron" 	k="115" />
<hkern g1="quotesinglbase,quotedblbase" 	g2="V" 	k="97" />
<hkern g1="quotesinglbase,quotedblbase" 	g2="W" 	k="73" />
<hkern g1="quotesinglbase,quotedblbase" 	g2="Y,Yacute" 	k="115" />
<hkern g1="quotesinglbase,quotedblbase" 	g2="v,y,yacute" 	k="53" />
<hkern g1="quotesinglbase,quotedblbase" 	g2="w" 	k="20" />
<hkern g1="quotesinglbase,quotedblbase" 	g2="registered,trademark" 	k="14" />
<hkern g1="quotesinglbase,quotedblbase" 	g2="a,c,d,e,g,o,q,aacute,adieresis,eacute,oacute,ocircumflex,ccaron,dcaron" 	k="22" />
<hkern g1="quotesinglbase,quotedblbase" 	g2="z,zcaron" 	k="-27" />
<hkern g1="parenleft,bracketleft,braceleft" 	g2="hyphen,endash,emdash" 	k="6" />
<hkern g1="parenleft,bracketleft,braceleft" 	g2="a,c,d,e,g,o,q,aacute,adieresis,eacute,oacute,ocircumflex,ccaron,dcaron" 	k="25" />
<hkern g1="asterisk" 	g2="space" 	k="6" />
<hkern g1="asterisk" 	g2="hyphen,endash,emdash" 	k="150" />
<hkern g1="asterisk" 	g2="comma,period,ellipsis" 	k="238" />
<hkern g1="asterisk" 	g2="quotesinglbase,quotedblbase" 	k="17" />
<hkern g1="asterisk" 	g2="A,Aacute,Adieresis" 	k="10" />
<hkern g1="seven" 	g2="space" 	k="51" />
<hkern g1="seven" 	g2="hyphen,endash,emdash" 	k="61" />
<hkern g1="seven" 	g2="comma,period,ellipsis" 	k="105" />
<hkern g1="seven" 	g2="C,G,O,Q,Oacute,Ocircumflex,Ccaron" 	k="5" />
<hkern g1="seven" 	g2="quotesinglbase,quotedblbase" 	k="90" />
<hkern g1="seven" 	g2="A,Aacute,Adieresis" 	k="11" />
<hkern g1="r,racute" 	g2="hyphen,endash,emdash" 	k="27" />
<hkern g1="r,racute" 	g2="comma,period,ellipsis" 	k="60" />
</font>
</defs></svg> 