<?xml version="1.0" standalone="no"?>
<!DOCTYPE svg PUBLIC "-//W3C//DTD SVG 1.1//EN" "http://www.w3.org/Graphics/SVG/1.1/DTD/svg11.dtd" >
<svg xmlns="http://www.w3.org/2000/svg">
<metadata></metadata>
<defs>
<font id="pt_sansbold" horiz-adv-x="567" >
<font-face units-per-em="1000" ascent="750" descent="-250" />
<missing-glyph horiz-adv-x="253" />
<glyph horiz-adv-x="1000" />
<glyph horiz-adv-x="1000" />
<glyph unicode="&#xd;" horiz-adv-x="253" />
<glyph unicode=" "  horiz-adv-x="253" />
<glyph unicode="&#x09;" horiz-adv-x="253" />
<glyph unicode="&#xa0;" horiz-adv-x="253" />
<glyph unicode="!" horiz-adv-x="294" d="M100 700h134v-329l-26 -163h-82l-26 163v329zM86 66q0 35 22 55.5t58 20.5q38 0 60 -20.5t22 -55.5t-22 -56t-60 -21q-36 0 -58 21t-22 56z" />
<glyph unicode="&#x22;" horiz-adv-x="402" d="M90 484zM90 700h114l-36 -216h-78v216zM238 700h114l-36 -216h-78v216z" />
<glyph unicode="#" d="M289 205h-89l-36 -154h-107l36 154h-74l22 97h75l25 106h-72l22 97h73l35 144h106l-34 -144h89l35 144h106l-34 -144h72l-25 -97h-70l-25 -106h69l-24 -97h-68l-36 -154h-107zM223 302h89l25 106h-89z" />
<glyph unicode="$" d="M238 -13q-57 2 -100 12t-67 23l39 113q18 -11 50.5 -21t77.5 -14v205q-31 14 -61.5 31t-54.5 41t-38.5 57.5t-14.5 79.5q0 86 45.5 133.5t123.5 61.5v91h104v-87q44 -3 77 -12t61 -21l-36 -111q-17 8 -43 16t-59 12v-187q31 -14 62.5 -31.5t56 -41.5t40 -56.5t15.5 -77.5 q0 -92 -46.5 -143.5t-127.5 -66.5v-93h-104v87zM386 188q0 32 -25.5 52.5t-61.5 37.5v-178q44 5 65.5 28t21.5 60zM199 525q0 -30 23.5 -50t58.5 -37v162q-47 -2 -64.5 -23t-17.5 -52z" />
<glyph unicode="%" horiz-adv-x="840" d="M51 0zM51 542q0 45 13 77t36 53t55.5 30.5t70.5 9.5t70 -9t55.5 -29t36.5 -52.5t14 -79.5q-1 -47 -14 -79.5t-36.5 -52.5t-55.5 -29t-70 -9t-70.5 9t-55.5 29t-36 52.5t-13 79.5zM167 542q0 -86 59 -86q31 0 44.5 18.5t14.5 67.5q-1 48 -14.5 67t-44.5 19t-45 -19 t-14 -67zM457 171q0 45 13 77t36 53t55.5 30.5t70.5 9.5t70 -9t55.5 -29t36.5 -52.5t14 -79.5q-1 -47 -14 -79.5t-36.5 -52.5t-55.5 -29t-70 -9t-70.5 9t-55.5 29t-36 52.5t-13 79.5zM573 171q0 -86 59 -86q31 0 44.5 18.5t14.5 67.5q-1 48 -14.5 67t-44.5 19t-45 -19 t-14 -67zM677 714l73 -66l-576 -662l-73 69z" />
<glyph unicode="&#x26;" horiz-adv-x="814" d="M92 194q0 38 12.5 72.5t35 64.5t53.5 56t67 46q-25 33 -41 67t-16 72q0 25 9.5 50.5t30 46t53.5 33t80 12.5q46 0 78.5 -11t52.5 -29t29 -41t9 -47q0 -41 -29 -85.5t-99 -85.5q35 -54 70 -99t78 -89q23 25 41.5 62.5t32.5 76.5l94 -50q-6 -18 -16.5 -39.5t-23 -43.5 t-25.5 -41.5t-24 -33.5q32 -29 56 -45.5t49 -30.5l-69 -96q-28 13 -57.5 34.5t-58.5 49.5q-36 -33 -90 -58.5t-133 -25.5q-52 0 -97.5 14t-79 41t-53 65.5t-19.5 87.5zM486 149q-51 53 -93 105.5t-73 99.5q-48 -37 -73 -71.5t-25 -77.5q0 -51 37.5 -80t98.5 -29 q40 0 75 16.5t53 36.5zM333 566q0 -42 36 -90q39 25 56.5 47t17.5 42q0 24 -13.5 38t-43.5 14q-27 0 -40 -14t-13 -37z" />
<glyph unicode="'" horiz-adv-x="254" d="M90 700h114l-36 -216h-78v216z" />
<glyph unicode="(" horiz-adv-x="327" d="M227 -220q-46 48 -78 105.5t-51.5 118t-28.5 122t-9 117.5q0 55 9 116t29 122.5t52.5 120.5t79.5 110l84 -54q-35 -47 -58.5 -98t-38 -104.5t-21 -107.5t-6.5 -105q0 -48 7 -102t22 -107.5t39 -104.5t58 -93z" />
<glyph unicode=")" horiz-adv-x="326" d="M99 712q46 -48 78 -105.5t51.5 -118t28.5 -122t9 -117.5q0 -55 -9 -116t-29 -122.5t-52.5 -120.5t-79.5 -110l-84 55q37 50 61 101.5t38 104t19.5 105t5.5 103.5q0 48 -7.5 101.5t-22.5 107t-38.5 104t-56.5 93.5z" />
<glyph unicode="*" horiz-adv-x="378" d="M144 731l28 -46l15 -59l15 55l28 49l64 -35l-30 -52l-48 -43l65 16h57v-73h-55l-61 16l50 -47l25 -42l-64 -37l-27 46l-20 64l-13 -58l-29 -49l-64 37l29 49l45 37l-55 -16h-59v74h60l59 -17l-51 44l-28 50z" />
<glyph unicode="+" horiz-adv-x="527" d="M43 394h162v169h117v-169h163v-112h-163v-171h-117v171h-162v112z" />
<glyph unicode="," horiz-adv-x="228" d="M42 64q0 34 22.5 54t55.5 20q42 0 66 -28t24 -74q0 -45 -14 -77.5t-34.5 -54t-44 -34t-42.5 -18.5l-38 54q27 11 47 36t22 53q-23 -3 -43.5 14t-20.5 55z" />
<glyph unicode="-" horiz-adv-x="360" d="M54 345h251v-115h-251v115z" />
<glyph unicode="." horiz-adv-x="246" d="M42 66q0 35 22 55.5t58 20.5q38 0 60 -20.5t22 -55.5t-22 -56t-60 -21q-36 0 -58 21t-22 56z" />
<glyph unicode="/" horiz-adv-x="408" d="M333 712l98 -44l-357 -808l-98 46z" />
<glyph unicode="0" d="M40 351q0 184 63 273.5t181 89.5q126 0 185 -88.5t59 -274.5q0 -185 -63.5 -275t-181.5 -90q-125 0 -184 94.5t-59 270.5zM170 351q0 -122 26.5 -188.5t87.5 -66.5q59 0 86.5 61t27.5 194q0 121 -26 187t-89 66q-60 0 -86.5 -62t-26.5 -191z" />
<glyph unicode="1" d="M101 110h139v395l15 68l-48 -59l-89 -61l-55 75l228 184h73v-602h136v-110h-399v110z" />
<glyph unicode="2" d="M475 529q0 -51 -18.5 -103t-47 -102t-63 -96.5t-67.5 -85.5l-53 -41v-5l72 14h192v-110h-421v67q24 25 54 58.5t60.5 71t59.5 77.5t52 80.5t36.5 78.5t13.5 72q0 41 -23.5 67.5t-74.5 26.5q-32 0 -65.5 -13.5t-56.5 -34.5l-52 92q39 32 88.5 51.5t116.5 19.5q43 0 79 -12 t62 -35t41 -57.5t15 -80.5z" />
<glyph unicode="3" d="M241 96q62 0 94.5 33t32.5 80q0 57 -34 84t-107 27h-72v69l121 165l57 45l-79 -9h-168v110h382v-71l-141 -189l-44 -27v-5l42 6q35 -3 66.5 -16t55 -37.5t37.5 -60.5t14 -83q0 -59 -19.5 -102t-54 -72t-80.5 -43t-99 -14q-44 0 -91 8t-76 23l35 108q26 -13 57.5 -21 t70.5 -8z" />
<glyph unicode="4" d="M553 195h-110v-195h-121v195h-303v74l317 436h107v-406h110v-104zM322 452l9 84h-4l-34 -72l-104 -135l-50 -38l64 8h119v153z" />
<glyph unicode="5" d="M220 101q66 0 101 32t35 88q0 60 -41 88t-117 28l-79 -3v366h344v-122h-232v-135l41 4q49 -2 88.5 -18t67.5 -44.5t43 -69t15 -90.5q0 -59 -20 -104t-55.5 -75t-83.5 -45t-105 -15q-45 0 -85.5 7.5t-68.5 20.5l35 108q23 -10 50.5 -15.5t66.5 -5.5z" />
<glyph unicode="6" d="M520 217q0 -49 -16.5 -91t-46.5 -73t-72.5 -49t-93.5 -18q-52 0 -95.5 16.5t-75.5 49.5t-50 83t-18 116q0 99 28.5 179t77 139.5t113 96t136.5 48.5l29 -103q-50 -8 -92 -31t-74.5 -55t-55 -71.5t-31.5 -81.5q20 25 52 42.5t80 17.5q45 0 83 -14t65 -41.5t42 -67.5 t15 -92zM394 210q0 112 -110 112q-40 0 -67.5 -18t-38.5 -42q-2 -11 -2 -19v-16q0 -24 7 -47.5t20.5 -42t34.5 -30t50 -11.5q47 0 76.5 32t29.5 82z" />
<glyph unicode="7" d="M104 0l229 539l44 49l-60 -10h-257v122h451v-38l-280 -662h-127z" />
<glyph unicode="8" d="M61 171q0 35 9 62.5t25.5 50t39 40.5t48.5 33q-49 31 -77 71.5t-28 100.5q0 39 14.5 73t42 59t66.5 39t88 14q45 0 82 -12t63.5 -34t41 -53.5t14.5 -69.5q0 -59 -26.5 -100t-77.5 -75q60 -35 90.5 -77t30.5 -108q0 -45 -16.5 -81.5t-46.5 -62.5t-72 -40.5t-92 -14.5 t-90.5 13.5t-69 37.5t-44 58t-15.5 76zM383 184q0 23 -11 42t-28.5 34.5t-39 28.5t-43.5 25q-47 -27 -64.5 -58.5t-17.5 -62.5q0 -40 27.5 -68.5t76.5 -28.5q45 0 72.5 22t27.5 66zM202 527q0 -24 9 -42t24.5 -31.5t35 -25t40.5 -21.5q60 51 60 112q0 42 -24.5 63.5 t-59.5 21.5q-44 0 -64.5 -23t-20.5 -54z" />
<glyph unicode="9" d="M45 481q0 51 15.5 94t45 73.5t72 48t97.5 17.5q113 0 177.5 -67.5t64.5 -196.5q0 -116 -29.5 -200.5t-79 -141t-114.5 -86.5t-137 -36l-28 102q55 7 98 27t74 49.5t50.5 67t27.5 80.5q-24 -26 -51.5 -36t-73.5 -10q-38 0 -75.5 13t-67 39.5t-48 67t-18.5 95.5zM171 488 q0 -57 32 -86t80 -29q41 0 67 13t40 32q3 21 3 40q0 28 -7 55t-21.5 48t-37 33.5t-53.5 12.5q-49 0 -76 -31.5t-27 -87.5z" />
<glyph unicode=":" horiz-adv-x="269" d="M93 0zM93 428q0 35 22 55.5t58 20.5q38 0 60 -20.5t22 -55.5t-22 -56t-60 -21q-36 0 -58 21t-22 56zM93 66q0 35 22 55.5t58 20.5q38 0 60 -20.5t22 -55.5t-22 -56t-60 -21q-36 0 -58 21t-22 56z" />
<glyph unicode=";" horiz-adv-x="290" d="M77 0zM82 64q0 34 22.5 54t55.5 20q42 0 66 -28t24 -74q0 -45 -14 -77.5t-34.5 -54t-44 -34t-42.5 -18.5l-38 54q27 11 47 36t22 53q-23 -3 -43.5 14t-20.5 55zM82 428q0 35 22 55.5t58 20.5q38 0 60 -20.5t22 -55.5t-22 -56t-60 -21q-36 0 -58 21t-22 56z" />
<glyph unicode="&#x3c;" horiz-adv-x="527" d="M40 285v70l386 231l57 -90l-224 -139l-91 -35l90 -31l230 -137l-57 -90z" />
<glyph unicode="=" horiz-adv-x="527" d="M43 187zM43 490h442v-112h-442v112zM43 299h442v-112h-442v112z" />
<glyph unicode="&#x3e;" horiz-adv-x="527" d="M487 365v-70l-386 -231l-57 91l224 138l91 36l-90 30l-230 138l57 89z" />
<glyph unicode="?" horiz-adv-x="454" d="M136 208q-5 52 5 88.5t27.5 63t40 46t42 37.5t32.5 37.5t13 46.5q0 35 -19.5 56t-69.5 21q-16 0 -34 -3.5t-36 -10t-34.5 -15t-29.5 -17.5l-50 96q38 26 87.5 43t119.5 17q94 0 147 -45.5t53 -122.5q0 -51 -13.5 -84.5t-33.5 -57t-44 -41.5t-44 -38.5t-34 -47.5t-14 -69 h-111zM116 66q0 35 22 55.5t58 20.5q38 0 60 -20.5t22 -55.5t-22 -56t-60 -21q-36 0 -58 21t-22 56z" />
<glyph unicode="@" horiz-adv-x="1059" d="M679 484h70l-48 -271q-8 -47 -0.5 -68t33.5 -21t51 12t45 37t32.5 63t12.5 90q0 75 -25 128t-68.5 87.5t-102.5 50.5t-127 16q-78 0 -145 -28t-116.5 -77t-77.5 -116.5t-28 -146.5q0 -78 23.5 -140t68.5 -105.5t111.5 -67t152.5 -23.5q29 0 66 7t67 21l31 -96 q-41 -20 -83.5 -28t-97.5 -8q-97 0 -179.5 28t-143 83t-94.5 136.5t-34 188.5q0 109 39 197t105 150t153 95.5t184 33.5q92 0 171 -26.5t137 -76t91 -121t33 -162.5q0 -64 -22.5 -120t-62 -97t-92 -65t-112.5 -24q-25 0 -46.5 5.5t-36 18.5t-21.5 34t-4 52h-4 q-15 -21 -32.5 -41t-38.5 -35.5t-46 -24.5t-55 -9q-24 0 -46 10.5t-38 29.5t-25.5 46t-9.5 60q0 62 20 120.5t54.5 103.5t80 72.5t96.5 27.5q35 0 59 -10.5t44 -27.5zM616 363q-13 11 -27 17t-35 6q-30 0 -55.5 -17t-44 -44t-28.5 -60.5t-10 -65.5q0 -33 13.5 -54t46.5 -21 q14 0 30 8.5t31 22.5t29 32t25 38z" />
<glyph unicode="A" horiz-adv-x="605" d="M405 155h-215l-53 -155h-137l252 705h101l252 -705h-144zM225 265h150l-52 156l-21 110h-5l-21 -111z" />
<glyph unicode="B" horiz-adv-x="591" d="M531 537q0 -26 -6.5 -52t-21.5 -47.5t-39 -38t-58 -24.5v-6q30 -5 57 -17t47 -33t31.5 -51t11.5 -71q0 -54 -23 -93.5t-61.5 -64.5t-87.5 -37t-101 -12h-43.5t-57 1.5t-62 4.5t-57.5 9v690q19 3 43.5 6t52.5 5t57.5 3t58.5 1q49 0 95.5 -7.5t83 -26.5t58.5 -53t22 -86z M281 103q25 0 48.5 6t41.5 18.5t29 31.5t11 45q0 33 -13 52t-34 29.5t-47 13.5t-52 3h-73v-193q5 -2 16 -3t23.5 -1.5t26 -1t23.5 -0.5zM236 406q14 0 32.5 1t30.5 3q38 12 65.5 36t27.5 63q0 26 -10 43t-26.5 27t-37.5 14t-44 4q-26 0 -48 -1t-34 -3v-187h44z" />
<glyph unicode="C" horiz-adv-x="559" d="M534 29q-32 -23 -81.5 -33t-101.5 -10q-63 0 -119.5 19.5t-99.5 63t-68.5 113t-25.5 168.5q0 103 28.5 172.5t74 112t101.5 61t112 18.5q60 0 101.5 -8t68.5 -19l-27 -116q-23 11 -54.5 16t-76.5 5q-83 0 -133.5 -59t-50.5 -183q0 -54 12 -98.5t36.5 -76t61 -49 t84.5 -17.5q45 0 76 9t54 23z" />
<glyph unicode="D" horiz-adv-x="647" d="M60 700q21 3 47.5 5t54.5 3t54.5 1.5t47.5 0.5q93 0 159 -26t107 -73t60 -112t19 -143q0 -71 -18 -137t-60 -117t-110.5 -82t-169.5 -31q-16 0 -42.5 1t-55 2.5t-54.5 3t-39 3.5v701zM275 588q-22 0 -44.5 -1t-33.5 -3v-469q4 -1 13.5 -1.5t20.5 -1t21 -1t15 -0.5 q58 0 96.5 20.5t61 54.5t31.5 78.5t9 91.5q0 41 -8 82.5t-29.5 74.5t-58.5 54t-94 21z" />
<glyph unicode="E" horiz-adv-x="522" d="M60 700h415v-122h-278v-163h253v-122h-253v-171h283v-122h-420v700z" />
<glyph unicode="F" horiz-adv-x="508" d="M60 700h415v-122h-278v-173h256v-122h-256v-283h-137v700z" />
<glyph unicode="G" horiz-adv-x="609" d="M307 365h261v-312q-42 -35 -100.5 -51t-115.5 -16q-67 0 -124.5 21t-99.5 65.5t-66 113.5t-24 164q0 99 28.5 168.5t75 113t104.5 63t118 19.5t105.5 -9t72.5 -19l-28 -115q-25 10 -56 15.5t-79 5.5q-43 0 -79 -13t-62.5 -42.5t-41 -75.5t-14.5 -112q0 -63 14 -108.5 t39 -75t58.5 -43.5t71.5 -14q26 0 51 6.5t42 19.5v132l-151 16v83z" />
<glyph unicode="H" horiz-adv-x="651" d="M453 293h-256v-293h-137v700h137v-285h256v285h137v-700h-137v293z" />
<glyph unicode="I" horiz-adv-x="285" d="M74 700h137v-700h-137v700z" />
<glyph unicode="J" horiz-adv-x="334" d="M131 700h137v-512q0 -40 -9 -76t-29.5 -63.5t-52.5 -44t-78 -16.5q-29 0 -63 6t-59 17l30 112q26 -13 59 -13q42 0 53.5 31t11.5 82v477z" />
<glyph unicode="K" horiz-adv-x="620" d="M233 299h-36v-299h-137v700h137v-310l32 14l193 296h156l-204 -294l-54 -38l56 -39l233 -329h-169z" />
<glyph unicode="L" horiz-adv-x="514" d="M503 0h-443v700h137v-578h306v-122z" />
<glyph unicode="M" horiz-adv-x="800" d="M603 363l15 139h-6l-43 -112l-149 -261h-44l-157 262l-44 111h-5l20 -138v-364h-130v700h125l187 -320l33 -80h4l30 82l177 318h124v-700h-137v363z" />
<glyph unicode="N" horiz-adv-x="657" d="M234 365l-55 110h-5l16 -110v-365h-130v705h100l265 -373l53 -107h5l-16 107v368h130v-705h-100z" />
<glyph unicode="O" horiz-adv-x="670" d="M38 350q0 175 77 269.5t220 94.5q75 0 131 -26t93 -74t55 -115t18 -149q0 -175 -77.5 -269.5t-219.5 -94.5q-76 0 -132 26t-92.5 74t-54.5 115t-18 149zM182 350q0 -53 9 -97.5t27.5 -76.5t47.5 -50t69 -18q73 0 113 57t40 185q0 51 -8.5 95t-26.5 77t-47 51.5t-71 18.5 q-73 0 -113 -58.5t-40 -183.5z" />
<glyph unicode="P" horiz-adv-x="572" d="M60 693q42 8 92.5 12.5t100.5 4.5q52 0 104.5 -8.5t94.5 -34t68.5 -71t26.5 -118.5q0 -66 -23 -111.5t-61 -74.5t-86.5 -42t-100.5 -13h-16t-23 0.5t-23.5 1.5t-16.5 2v-241h-137v693zM264 592q-20 0 -38 -1.5t-29 -3.5v-227q4 -1 12 -2t17 -1.5t17.5 -0.5h12.5 q27 0 53.5 5t47.5 18.5t33.5 37.5t12.5 63q0 33 -12 54.5t-31.5 34.5t-44.5 18t-51 5z" />
<glyph unicode="Q" horiz-adv-x="670" d="M702 -202q-48 -13 -97 -13q-51 0 -99 10.5t-93 22.5t-87 22.5t-79 10.5q-24 0 -46 -6v118q28 6 58 6q42 0 83.5 -10t84.5 -21.5t88 -21.5t95 -10q22 0 45 2.5t47 8.5v-119zM38 350q0 175 77 269.5t220 94.5q75 0 131 -26t93 -74t55 -115t18 -149q0 -175 -77.5 -269.5 t-219.5 -94.5q-76 0 -132 26t-92.5 74t-54.5 115t-18 149zM182 350q0 -53 9 -97.5t27.5 -76.5t47.5 -50t69 -18q73 0 113 57t40 185q0 51 -8.5 95t-26.5 77t-47 51.5t-71 18.5q-73 0 -113 -58.5t-40 -183.5z" />
<glyph unicode="R" horiz-adv-x="602" d="M60 693q23 4 49.5 7.5t53 5.5t51.5 3t46 1q49 0 96.5 -9t85 -31t60 -60.5t22.5 -96.5q0 -86 -40 -140t-107 -75l49 -31l160 -267h-158l-159 274l-72 13v-287h-137v693zM270 588q-21 0 -41.5 -1t-31.5 -4v-203h58q57 0 91 26t34 86q0 45 -28 70.5t-82 25.5z" />
<glyph unicode="S" horiz-adv-x="530" d="M362 188q0 32 -23.5 52t-59 36.5t-77 34t-77 43t-59 63.5t-23.5 97q0 51 17 88.5t48.5 62.5t74.5 37t96 12q61 0 115 -10.5t89 -30.5l-43 -115q-22 14 -66 25.5t-95 11.5q-48 0 -73.5 -19t-25.5 -51q0 -30 23.5 -50t59 -37t77 -35t77 -43.5t59 -63t23.5 -93.5 t-18.5 -96.5t-52 -67.5t-81 -40t-104.5 -13q-75 0 -132 14t-84 28l44 117q11 -6 28.5 -13t39.5 -13t46.5 -10t50.5 -4q61 0 93.5 20.5t32.5 62.5z" />
<glyph unicode="T" horiz-adv-x="568" d="M557 578h-204v-578h-137v578h-205v122h546v-122z" />
<glyph unicode="U" horiz-adv-x="627" d="M440 700h130v-452q0 -68 -18 -117t-50 -81t-78 -47t-101 -15q-266 0 -266 243v469h137v-442q0 -41 7.5 -69.5t23.5 -46t40 -25t56 -7.5q63 0 91 35t28 113v442z" />
<glyph unicode="V" horiz-adv-x="602" d="M290 289l18 -119h5l20 120l134 410h144l-260 -705h-98l-262 705h159z" />
<glyph unicode="W" horiz-adv-x="862" d="M242 309l13 -124h4l14 126l122 389h90l120 -391l14 -124h4l15 126l85 389h139l-193 -705h-92l-125 389l-17 107h-5l-17 -108l-124 -388h-97l-192 705h149z" />
<glyph unicode="X" horiz-adv-x="633" d="M225 356l-195 344h165l108 -202l24 -71l23 71l113 202h149l-202 -337l212 -363h-163l-123 216l-27 74l-26 -74l-124 -216h-149z" />
<glyph unicode="Y" horiz-adv-x="592" d="M228 260l-230 440h163l128 -263l14 -74h5l15 76l124 261h147l-229 -439v-261h-137v260z" />
<glyph unicode="Z" horiz-adv-x="539" d="M27 122l296 414l52 42h-348v122h485v-122l-298 -418l-51 -38h349v-122h-485v122z" />
<glyph unicode="[" horiz-adv-x="324" d="M60 700h235v-110h-111v-710h111v-110h-235v930z" />
<glyph unicode="\" horiz-adv-x="424" d="M438 -95l-99 -45l-363 808l102 43z" />
<glyph unicode="]" horiz-adv-x="324" d="M264 -230h-235v110h111v710h-111v110h235v-930z" />
<glyph unicode="^" horiz-adv-x="500" d="M216 705h69l185 -292h-131l-71 122l-21 70l-25 -71l-78 -121h-124z" />
<glyph unicode="_" horiz-adv-x="444" d="M0 -117h444v-107h-444v107z" />
<glyph unicode="`" horiz-adv-x="316" d="M256 566h-72l-124 124v30h136z" />
<glyph unicode="a" horiz-adv-x="496" d="M54 471q40 18 95 28.5t115 10.5q52 0 87 -12.5t55.5 -35.5t29 -55t8.5 -72q0 -44 -3 -88.5t-3.5 -87.5t2.5 -83.5t15 -76.5h-106l-21 69h-5q-20 -31 -55.5 -53.5t-91.5 -22.5q-35 0 -63 10.5t-48 30t-31 46t-11 59.5q0 46 20.5 77.5t59 51t92 27t119.5 4.5q7 56 -8 80.5 t-67 24.5q-39 0 -82.5 -8t-71.5 -21zM219 99q39 0 62 17.5t34 37.5v65q-31 3 -59.5 1t-50.5 -9t-35 -20t-13 -33q0 -28 16.5 -43.5t45.5 -15.5z" />
<glyph unicode="b" horiz-adv-x="536" d="M57 700h130v-240h4q21 24 54 38t73 14q90 0 137.5 -61.5t47.5 -187.5q0 -135 -66.5 -205t-182.5 -70q-64 0 -117 10.5t-80 23.5v678zM280 402q-36 0 -58.5 -18.5t-34.5 -53.5v-218q16 -8 34.5 -11t39.5 -3q53 0 80.5 38.5t27.5 122.5q0 143 -89 143z" />
<glyph unicode="c" horiz-adv-x="433" d="M411 31q-30 -22 -72.5 -33.5t-87.5 -11.5q-60 0 -101.5 19t-67.5 53.5t-37.5 83.5t-11.5 108q0 127 57 195.5t166 68.5q55 0 88.5 -9t60.5 -23l-31 -106q-23 11 -45.5 17t-51.5 6q-54 0 -82 -35.5t-28 -113.5q0 -32 7 -59t21 -47t36.5 -31.5t52.5 -11.5q33 0 56 8.5 t41 20.5z" />
<glyph unicode="d" horiz-adv-x="539" d="M482 176q0 -42 1 -84t9 -93h-93l-18 65h-4q-20 -35 -57.5 -56.5t-88.5 -21.5q-94 0 -146 62t-52 194q0 128 58 199t170 71q31 0 51 -3.5t40 -11.5v203h130v-524zM261 96q38 0 60 18.5t31 53.5v212q-14 11 -31 16.5t-44 5.5q-55 0 -82.5 -37t-27.5 -127q0 -64 22.5 -103 t71.5 -39z" />
<glyph unicode="e" horiz-adv-x="508" d="M457 43q-30 -24 -81.5 -40.5t-109.5 -16.5q-121 0 -177 70.5t-56 193.5q0 132 63 198t177 66q38 0 74 -10t64 -33t45 -62t17 -97q0 -21 -2.5 -45t-7.5 -50h-300q3 -63 32.5 -95t95.5 -32q41 0 73.5 12.5t49.5 25.5zM271 410q-51 0 -75.5 -30.5t-29.5 -81.5h186 q4 54 -16.5 83t-64.5 29z" />
<glyph unicode="f" horiz-adv-x="321" d="M11 500h69v28q0 95 40 137.5t116 42.5q80 0 133 -19l-25 -104q-23 8 -40.5 10.5t-36.5 2.5q-20 0 -31.5 -6t-17 -18.5t-7 -31t-1.5 -42.5h110v-110h-110v-390h-130v390h-69v110z" />
<glyph unicode="g" horiz-adv-x="536" d="M480 0q0 -109 -59 -160.5t-165 -51.5q-72 0 -113.5 10t-62.5 21l27 103q23 -9 53.5 -18t75.5 -9q68 0 92.5 29.5t24.5 82.5v32h-4q-35 -47 -124 -47q-97 0 -144.5 60t-47.5 188q0 134 64 203t186 69q64 0 114.5 -9t82.5 -21v-482zM260 96q38 0 58.5 17t31.5 51v225 q-31 13 -77 13q-50 0 -78 -37.5t-28 -119.5q0 -73 24 -111t69 -38z" />
<glyph unicode="h" horiz-adv-x="545" d="M363 0v284q0 61 -17 88t-62 27q-33 0 -60.5 -22.5t-36.5 -57.5v-319h-130v700h130v-256h4q24 32 59 51t89 19q38 0 67 -10t48.5 -33t29 -62.5t9.5 -97.5v-311h-130z" />
<glyph unicode="i" horiz-adv-x="269" d="M49 0zM68 500h130v-500h-130v500zM49 641q0 29 21.5 49.5t59.5 20.5t61.5 -20.5t23.5 -49.5t-23.5 -48.5t-61.5 -19.5t-59.5 19.5t-21.5 48.5z" />
<glyph unicode="j" horiz-adv-x="268" d="M0 0zM69 500h130v-521q0 -91 -36 -139t-115 -48q-30 0 -64 7v109q4 0 7 -0.5t6 -0.5q45 0 58.5 29t13.5 80v484zM51 641q0 29 21.5 49.5t59.5 20.5t61.5 -20.5t23.5 -49.5t-23.5 -48.5t-61.5 -19.5t-59.5 19.5t-21.5 48.5z" />
<glyph unicode="k" horiz-adv-x="491" d="M222 207h-35v-207h-130v700h130v-413l30 14l114 199h143l-120 -190l-51 -38l55 -39l135 -233h-149z" />
<glyph unicode="l" horiz-adv-x="294" d="M191 168q0 -35 9 -51t29 -16q12 0 23.5 2t28.5 9l14 -102q-16 -8 -49 -16t-68 -8q-57 0 -87 26.5t-30 87.5v600h130v-532z" />
<glyph unicode="m" horiz-adv-x="805" d="M341 0v272q0 69 -13 98t-54 29q-34 0 -55 -18.5t-32 -47.5v-333h-130v500h101l15 -66h4q23 32 58.5 56t91.5 24q48 0 78.5 -19.5t47.5 -65.5q23 39 59 62t87 23q42 0 71.5 -10t48 -34.5t27.5 -65.5t9 -104v-300h-130v281q0 59 -12.5 88.5t-55.5 29.5q-35 0 -55.5 -19 t-30.5 -52v-328h-130z" />
<glyph unicode="n" horiz-adv-x="545" d="M363 0v284q0 61 -17.5 88t-59.5 27q-37 0 -62.5 -21.5t-36.5 -53.5v-324h-130v500h103l15 -66h4q23 32 61 56t98 24q37 0 66 -10t49 -33t30 -62.5t10 -97.5v-311h-130z" />
<glyph unicode="o" horiz-adv-x="537" d="M33 250q0 127 62 195.5t174 68.5q60 0 104 -19t73 -53.5t43.5 -83.5t14.5 -108q0 -127 -61.5 -195.5t-173.5 -68.5q-60 0 -104 19t-73.5 53.5t-44 83.5t-14.5 108zM167 250q0 -33 6 -61t18 -49t31.5 -32.5t46.5 -11.5q51 0 76 37t25 117q0 69 -23 111.5t-78 42.5 q-48 0 -75 -36t-27 -118z" />
<glyph unicode="p" horiz-adv-x="540" d="M57 500h95l15 -60h4q26 38 61.5 56t86.5 18q94 0 141 -59.5t47 -191.5q0 -64 -15 -115.5t-44.5 -87.5t-72 -55t-97.5 -19q-31 0 -51 4.5t-40 14.5v-205h-130v700zM280 404q-38 0 -59.5 -19t-33.5 -57v-208q14 -11 30.5 -17.5t43.5 -6.5q56 0 84 39.5t28 130.5 q0 66 -22 102t-71 36z" />
<glyph unicode="q" horiz-adv-x="536" d="M480 -200h-130v243h-4q-17 -26 -46 -41.5t-75 -15.5q-93 0 -142.5 63t-49.5 191q0 134 67.5 203t193.5 69q27 0 54 -2.5t51.5 -7t45.5 -10t35 -10.5v-682zM260 96q38 0 58.5 17t31.5 51v225q-15 8 -34 10.5t-43 2.5q-53 0 -79.5 -40t-26.5 -117q0 -73 24 -111t69 -38z " />
<glyph unicode="r" horiz-adv-x="351" d="M333 378q-31 11 -56 11q-35 0 -58.5 -18.5t-31.5 -47.5v-323h-130v500h101l15 -66h4q17 37 46 57t68 20q26 0 59 -11z" />
<glyph unicode="s" horiz-adv-x="422" d="M264 138q0 20 -17 32t-42 22t-55 20.5t-55 29t-42 47t-17 73.5q0 74 44 113t127 39q57 0 103 -12t72 -27l-29 -94q-23 9 -58 19t-71 10q-58 0 -58 -45q0 -18 17 -29t42 -20.5t55 -20.5t55 -28.5t42 -45.5t17 -72q0 -76 -48.5 -119.5t-145.5 -43.5q-53 0 -99.5 13.5 t-75.5 31.5l36 97q23 -13 61 -25.5t78 -12.5q29 0 46.5 11t17.5 37z" />
<glyph unicode="t" horiz-adv-x="349" d="M5 500h69v94l130 37v-131h122v-110h-122v-192q0 -52 10.5 -74.5t39.5 -22.5q20 0 34.5 4t32.5 12l23 -100q-27 -13 -63 -22t-73 -9q-69 0 -101.5 35.5t-32.5 116.5v252h-69v110z" />
<glyph unicode="u" horiz-adv-x="538" d="M182 500v-284q0 -61 14.5 -88t56.5 -27q37 0 61.5 22t36.5 54v323h130v-348q0 -41 4 -80.5t12 -71.5h-98l-23 74h-4q-23 -38 -64 -63t-97 -25q-38 0 -68 10t-50 33t-30.5 62t-10.5 98v311h130z" />
<glyph unicode="v" horiz-adv-x="477" d="M230 238l17 -77h5l14 79l85 260h140l-209 -505h-79l-217 505h151z" />
<glyph unicode="w" horiz-adv-x="721" d="M419 500l91 -256l18 -83h4l14 84l64 255h119l-154 -505h-96l-101 280l-13 63h-5l-12 -64l-96 -279h-99l-161 505h141l73 -251l12 -89h5l17 90l83 250h96z" />
<glyph unicode="x" horiz-adv-x="525" d="M170 256l-150 244h155l65 -107l28 -70l30 70l68 107h141l-151 -240l161 -260h-151l-77 120l-30 74l-32 -74l-77 -120h-142z" />
<glyph unicode="y" horiz-adv-x="478" d="M239 219l18 -78h6l13 79l76 280h134l-152 -451q-19 -56 -36.5 -102.5t-38.5 -80.5t-46.5 -52.5t-60.5 -18.5q-52 0 -83 17l24 104q15 -6 30 -6q23 0 44.5 19.5t32.5 70.5l-209 500h156z" />
<glyph unicode="z" horiz-adv-x="458" d="M31 110l197 237l51 43h-248v110h392v-110l-195 -241l-50 -39h245v-110h-392v110z" />
<glyph unicode="{" horiz-adv-x="371" d="M123 96q0 51 -21 70t-59 19v100q38 0 59 20.5t21 64.5v209q0 54 25.5 88t81.5 34h120v-110h-50q-27 0 -39.5 -14t-12.5 -46v-195q0 -44 -21 -66.5t-49 -27.5v-10q27 -4 48.5 -30t21.5 -68v-194q0 -32 12 -46t41 -14h49v-110h-120q-52 0 -79.5 31.5t-27.5 89.5v205z" />
<glyph unicode="|" horiz-adv-x="227" d="M60 700h107v-830h-107v830z" />
<glyph unicode="}" horiz-adv-x="371" d="M261 375q0 -51 21 -70t59 -19v-100q-38 0 -59 -20.5t-21 -64.5v-209q0 -54 -26.5 -88t-82.5 -34h-117v110h50q27 0 39.5 13.5t12.5 46.5v195q0 44 21 66.5t49 27.5v10q-27 4 -48.5 30t-21.5 68v194q0 31 -12 45.5t-41 14.5h-49v110h119q53 0 80 -31.5t27 -89.5v-205z" />
<glyph unicode="~" horiz-adv-x="527" d="M28 378q47 38 84.5 52.5t69.5 14.5q29 0 54 -8.5t48 -18t45.5 -18t45.5 -8.5q18 0 37 6t40 23l47 -103q-36 -27 -66 -38t-56 -11q-28 0 -52 9t-46.5 20t-45.5 20t-49 9q-24 0 -51.5 -10.5t-60.5 -38.5z" />
<glyph unicode="&#xa2;" d="M489 31q-17 -13 -42.5 -22.5t-54.5 -14.5v-94h-121v89q-51 7 -86.5 28.5t-58 55t-32.5 78.5t-10 99q0 112 48 178.5t139 81.5v90h121v-90q28 -4 50 -10.5t40 -15.5l-30 -106q-15 7 -32 11t-35 6v-291q23 3 41.5 10t32.5 15zM212 250q0 -51 19 -89.5t64 -52.5v286 q-42 -11 -62.5 -45.5t-20.5 -98.5z" />
<glyph unicode="&#xa3;" d="M51 394h68q-13 24 -22.5 54t-9.5 72q0 49 16.5 85.5t46 60.5t70.5 36t90 12q61 0 111 -11.5t86 -28.5l-42 -116q-20 11 -55 22.5t-84 11.5q-48 0 -75 -22.5t-27 -67.5q0 -34 12.5 -58.5t27.5 -49.5h141v-107h-98q3 -17 3 -34q0 -30 -10 -63t-31 -54l-43 -31v-5l67 15h230 v-115h-472v115h2q31 1 54.5 11t39 26.5t23.5 38.5t8 46q0 27 -6 50h-121v107z" />
<glyph unicode="&#xa5;" d="M84 337h91l-189 363h163l128 -263l14 -74h5l15 76l124 261h147l-190 -363h90v-80h-129v-57h129v-80h-129v-120h-137v120h-132v80h132v57h-132v80z" />
<glyph unicode="&#xa8;" horiz-adv-x="479" d="M60 651q0 32 19.5 51t51.5 19t50.5 -19t18.5 -51q0 -30 -18.5 -49t-50.5 -19t-51.5 19t-19.5 49zM279 651q0 32 18.5 51t50.5 19t51.5 -19t19.5 -51q0 -30 -19.5 -49t-51.5 -19t-50.5 19t-18.5 49z" />
<glyph unicode="&#xa9;" horiz-adv-x="833" d="M55 290q0 83 28 149.5t76.5 113.5t114.5 72.5t142 25.5t141.5 -25.5t114.5 -72.5t77 -113.5t28 -149.5t-28 -149.5t-77 -113.5t-114.5 -72.5t-141.5 -25.5q-83 0 -150 25.5t-114 72.5t-72 113.5t-25 149.5zM153 290q0 -62 19.5 -112t55 -84.5t83.5 -53t105 -18.5 t105.5 18.5t84 53t55 84.5t19.5 112t-19.5 112t-55 84.5t-84 53t-105.5 18.5t-105 -18.5t-83.5 -53t-55 -84.5t-19.5 -112zM541 131q-22 -14 -55.5 -22.5t-71.5 -8.5q-81 0 -123.5 51t-42.5 139q0 91 45.5 140.5t120.5 49.5q37 0 65.5 -8.5t54.5 -23.5l-32 -87 q-18 9 -32.5 12t-28.5 3q-29 0 -46 -19t-17 -67q0 -86 70 -86q19 0 34 3.5t30 11.5z" />
<glyph unicode="&#xab;" horiz-adv-x="488" d="M223 261l154 216l71 -56l-81 -122l-46 -39l46 -35l87 -121l-71 -56zM29 259l160 230l79 -62l-87 -126l-48 -41l48 -36l93 -124l-79 -62z" />
<glyph unicode="&#xad;" horiz-adv-x="360" d="M54 345h251v-115h-251v115z" />
<glyph unicode="&#xae;" horiz-adv-x="690" d="M62 451q0 67 22.5 119.5t61.5 88.5t90.5 55t108.5 19q59 0 110.5 -19t89.5 -55t60 -88.5t22 -119.5q0 -68 -22.5 -120.5t-61 -88.5t-90 -54.5t-108.5 -18.5q-59 0 -110.5 18.5t-90 54.5t-60.5 88.5t-22 120.5zM156 451q0 -48 15.5 -84.5t41.5 -60.5t60 -36t72 -12 q40 0 74.5 11.5t59.5 35.5t39.5 60.5t14.5 85.5q0 48 -15 84t-40.5 60t-60 36t-72.5 12q-42 0 -77 -13t-60 -38t-38.5 -60.5t-13.5 -80.5zM242 581q16 5 45 7.5t55 2.5q42 0 72 -17.5t30 -60.5q0 -32 -20.5 -49t-50.5 -19l28 -14l65 -109h-61l-63 104l-48 15v-119h-52v259z M331 546q-11 0 -21 -0.5t-16 -3.5v-71h34q29 0 45 9t16 31q0 35 -58 35z" />
<glyph unicode="&#xb4;" horiz-adv-x="305" d="M113 720h132v-30l-111 -124h-74z" />
<glyph unicode="&#xb8;" horiz-adv-x="332" d="M184 -43q41 -4 64.5 -21.5t23.5 -53.5q0 -29 -18 -48.5t-47.5 -30.5t-68 -13t-78.5 6l8 57q45 -7 65 -2t20 22q0 28 -86 32l57 95h84z" />
<glyph unicode="&#xba;" horiz-adv-x="419" d="M34 542q0 45 13 77t36 53t55.5 30.5t70.5 9.5t70 -9t55.5 -29t36.5 -52.5t14 -79.5q-1 -47 -14 -79.5t-36.5 -52.5t-55.5 -29t-70 -9t-70.5 9t-55.5 29t-36 52.5t-13 79.5zM150 542q0 -86 59 -86q31 0 44.5 18.5t14.5 67.5q-1 48 -14.5 67t-44.5 19t-45 -19t-14 -67z" />
<glyph unicode="&#xbb;" horiz-adv-x="488" d="M264 266l-153 -216l-72 56l82 122l45 39l-45 35l-87 121l70 56zM459 268l-160 -230l-79 62l87 126l48 41l-48 36l-93 124l79 62z" />
<glyph unicode="&#xc1;" horiz-adv-x="605" d="M0 0zM405 155h-215l-53 -155h-137l252 705h101l252 -705h-144zM225 265h150l-52 156l-21 110h-5l-21 -111zM309 870h159v-30l-160 -88h-103z" />
<glyph unicode="&#xc4;" horiz-adv-x="605" d="M0 0zM405 155h-215l-53 -155h-137l252 705h101l252 -705h-144zM225 265h150l-52 156l-21 110h-5l-21 -111zM124 798q0 26 18 42t58 16q39 0 57 -16t18 -42t-18 -41.5t-57 -15.5q-40 0 -58 15.5t-18 41.5zM338 798q0 26 18 42t57 16q40 0 58 -16t18 -42t-18 -41.5 t-58 -15.5q-39 0 -57 15.5t-18 41.5z" />
<glyph unicode="&#xc9;" horiz-adv-x="522" d="M60 0zM60 700h415v-122h-278v-163h253v-122h-253v-171h283v-122h-420v700zM293 870h159v-30l-160 -88h-103z" />
<glyph unicode="&#xcd;" horiz-adv-x="285" d="M49 0zM74 700h137v-700h-137v700zM153 870h159v-30l-160 -88h-103z" />
<glyph unicode="&#xd3;" horiz-adv-x="670" d="M38 0zM38 350q0 175 77 269.5t220 94.5q75 0 131 -26t93 -74t55 -115t18 -149q0 -175 -77.5 -269.5t-219.5 -94.5q-76 0 -132 26t-92.5 74t-54.5 115t-18 149zM182 350q0 -53 9 -97.5t27.5 -76.5t47.5 -50t69 -18q73 0 113 57t40 185q0 51 -8.5 95t-26.5 77t-47 51.5 t-71 18.5q-73 0 -113 -58.5t-40 -183.5zM368 870h159v-30l-160 -88h-103z" />
<glyph unicode="&#xd4;" horiz-adv-x="670" d="M38 0zM38 350q0 175 77 269.5t220 94.5q75 0 131 -26t93 -74t55 -115t18 -149q0 -175 -77.5 -269.5t-219.5 -94.5q-76 0 -132 26t-92.5 74t-54.5 115t-18 149zM182 350q0 -53 9 -97.5t27.5 -76.5t47.5 -50t69 -18q73 0 113 57t40 185q0 51 -8.5 95t-26.5 77t-47 51.5 t-71 18.5q-73 0 -113 -58.5t-40 -183.5zM287 870h96l127 -93v-39h-99l-57 41l-20 34l-21 -33l-62 -42h-97v40z" />
<glyph unicode="&#xda;" horiz-adv-x="627" d="M57 0zM440 700h130v-452q0 -68 -18 -117t-50 -81t-78 -47t-101 -15q-266 0 -266 243v469h137v-442q0 -41 7.5 -69.5t23.5 -46t40 -25t56 -7.5q63 0 91 35t28 113v442zM365 870h159v-30l-160 -88h-103z" />
<glyph unicode="&#xdd;" horiz-adv-x="592" d="M0 0zM228 260l-230 440h163l128 -263l14 -74h5l15 76l124 261h147l-229 -439v-261h-137v260zM326 870h159v-30l-160 -88h-103z" />
<glyph unicode="&#xe1;" horiz-adv-x="496" d="M23 0zM54 471q40 18 95 28.5t115 10.5q52 0 87 -12.5t55.5 -35.5t29 -55t8.5 -72q0 -44 -3 -88.5t-3.5 -87.5t2.5 -83.5t15 -76.5h-106l-21 69h-5q-20 -31 -55.5 -53.5t-91.5 -22.5q-35 0 -63 10.5t-48 30t-31 46t-11 59.5q0 46 20.5 77.5t59 51t92 27t119.5 4.5 q7 56 -8 80.5t-67 24.5q-39 0 -82.5 -8t-71.5 -21zM219 99q39 0 62 17.5t34 37.5v65q-31 3 -59.5 1t-50.5 -9t-35 -20t-13 -33q0 -28 16.5 -43.5t45.5 -15.5zM237 720h132v-30l-111 -124h-74z" />
<glyph unicode="&#xe4;" horiz-adv-x="496" d="M23 0zM54 471q40 18 95 28.5t115 10.5q52 0 87 -12.5t55.5 -35.5t29 -55t8.5 -72q0 -44 -3 -88.5t-3.5 -87.5t2.5 -83.5t15 -76.5h-106l-21 69h-5q-20 -31 -55.5 -53.5t-91.5 -22.5q-35 0 -63 10.5t-48 30t-31 46t-11 59.5q0 46 20.5 77.5t59 51t92 27t119.5 4.5 q7 56 -8 80.5t-67 24.5q-39 0 -82.5 -8t-71.5 -21zM219 99q39 0 62 17.5t34 37.5v65q-31 3 -59.5 1t-50.5 -9t-35 -20t-13 -33q0 -28 16.5 -43.5t45.5 -15.5zM75 651q0 32 19.5 51t51.5 19t50.5 -19t18.5 -51q0 -30 -18.5 -49t-50.5 -19t-51.5 19t-19.5 49zM294 651 q0 32 18.5 51t50.5 19t51.5 -19t19.5 -51q0 -30 -19.5 -49t-51.5 -19t-50.5 19t-18.5 49z" />
<glyph unicode="&#xe9;" horiz-adv-x="508" d="M33 0zM457 43q-30 -24 -81.5 -40.5t-109.5 -16.5q-121 0 -177 70.5t-56 193.5q0 132 63 198t177 66q38 0 74 -10t64 -33t45 -62t17 -97q0 -21 -2.5 -45t-7.5 -50h-300q3 -63 32.5 -95t95.5 -32q41 0 73.5 12.5t49.5 25.5zM271 410q-51 0 -75.5 -30.5t-29.5 -81.5h186 q4 54 -16.5 83t-64.5 29zM274 720h132v-30l-111 -124h-74z" />
<glyph unicode="&#xed;" horiz-adv-x="269" d="M70 0zM70 500h130v-500h-130v500zM124 720h132v-30l-111 -124h-74z" />
<glyph unicode="&#xf3;" horiz-adv-x="537" d="M33 0zM33 250q0 127 62 195.5t174 68.5q60 0 104 -19t73 -53.5t43.5 -83.5t14.5 -108q0 -127 -61.5 -195.5t-173.5 -68.5q-60 0 -104 19t-73.5 53.5t-44 83.5t-14.5 108zM167 250q0 -33 6 -61t18 -49t31.5 -32.5t46.5 -11.5q51 0 76 37t25 117q0 69 -23 111.5t-78 42.5 q-48 0 -75 -36t-27 -118zM275 720h132v-30l-111 -124h-74z" />
<glyph unicode="&#xf4;" horiz-adv-x="537" d="M33 0zM33 250q0 127 62 195.5t174 68.5q60 0 104 -19t73 -53.5t43.5 -83.5t14.5 -108q0 -127 -61.5 -195.5t-173.5 -68.5q-60 0 -104 19t-73.5 53.5t-44 83.5t-14.5 108zM167 250q0 -33 6 -61t18 -49t31.5 -32.5t46.5 -11.5q51 0 76 37t25 117q0 69 -23 111.5t-78 42.5 q-48 0 -75 -36t-27 -118zM231 732h86l111 -182h-103l-39 66l-17 49l-17 -49l-45 -66h-99z" />
<glyph unicode="&#xfa;" horiz-adv-x="538" d="M52 0zM182 500v-284q0 -61 14.5 -88t56.5 -27q37 0 61.5 22t36.5 54v323h130v-348q0 -41 4 -80.5t12 -71.5h-98l-23 74h-4q-23 -38 -64 -63t-97 -25q-38 0 -68 10t-50 33t-30.5 62t-10.5 98v311h130zM261 720h132v-30l-111 -124h-74z" />
<glyph unicode="&#xfd;" horiz-adv-x="478" d="M0 0zM239 219l18 -78h6l13 79l76 280h134l-152 -451q-19 -56 -36.5 -102.5t-38.5 -80.5t-46.5 -52.5t-60.5 -18.5q-52 0 -83 17l24 104q15 -6 30 -6q23 0 44.5 19.5t32.5 70.5l-209 500h156zM254 720h132v-30l-111 -124h-74z" />
<glyph unicode="&#x10c;" horiz-adv-x="559" d="M38 0zM534 29q-32 -23 -81.5 -33t-101.5 -10q-63 0 -119.5 19.5t-99.5 63t-68.5 113t-25.5 168.5q0 103 28.5 172.5t74 112t101.5 61t112 18.5q60 0 101.5 -8t68.5 -19l-27 -116q-23 11 -54.5 16t-76.5 5q-83 0 -133.5 -59t-50.5 -183q0 -54 12 -98.5t36.5 -76t61 -49 t84.5 -17.5q45 0 76 9t54 23zM386 737h-94l-127 94v39h105l53 -45l19 -30l21 29l56 46h100v-40z" />
<glyph unicode="&#x10d;" horiz-adv-x="433" d="M33 0zM411 31q-30 -22 -72.5 -33.5t-87.5 -11.5q-60 0 -101.5 19t-67.5 53.5t-37.5 83.5t-11.5 108q0 127 57 195.5t166 68.5q55 0 88.5 -9t60.5 -23l-31 -106q-23 11 -45.5 17t-51.5 6q-54 0 -82 -35.5t-28 -113.5q0 -32 7 -59t21 -47t36.5 -31.5t52.5 -11.5 q33 0 56 8.5t41 20.5zM286 550h-91l-115 182h110l39 -66l16 -49l18 49l45 66h101z" />
<glyph unicode="&#x10e;" horiz-adv-x="647" d="M60 0zM60 700q21 3 47.5 5t54.5 3t54.5 1.5t47.5 0.5q93 0 159 -26t107 -73t60 -112t19 -143q0 -71 -18 -137t-60 -117t-110.5 -82t-169.5 -31q-16 0 -42.5 1t-55 2.5t-54.5 3t-39 3.5v701zM275 588q-22 0 -44.5 -1t-33.5 -3v-469q4 -1 13.5 -1.5t20.5 -1t21 -1t15 -0.5 q58 0 96.5 20.5t61 54.5t31.5 78.5t9 91.5q0 41 -8 82.5t-29.5 74.5t-58.5 54t-94 21zM328 737h-94l-127 94v39h105l53 -45l19 -30l21 29l56 46h100v-40z" />
<glyph unicode="&#x10f;" horiz-adv-x="639" d="M33 0zM482 176q0 -42 1 -84t9 -93h-93l-18 65h-4q-20 -35 -57.5 -56.5t-88.5 -21.5q-94 0 -146 62t-52 194q0 128 58 199t170 71q31 0 51 -3.5t40 -11.5v203h130v-524zM261 96q38 0 60 18.5t31 53.5v212q-14 11 -31 16.5t-44 5.5q-55 0 -82.5 -37t-27.5 -127 q0 -64 22.5 -103t71.5 -39zM655 700q-2 -29 -12 -60.5t-23.5 -60t-28.5 -51t-27 -32.5l-58 31q17 36 26 81.5t9 91.5h114z" />
<glyph unicode="&#x131;" horiz-adv-x="269" d="M70 500h130v-500h-130v500z" />
<glyph unicode="&#x139;" horiz-adv-x="514" d="M60 0zM503 0h-443v700h137v-578h306v-122zM208 870h159v-30l-160 -88h-103z" />
<glyph unicode="&#x13a;" horiz-adv-x="294" d="M61 0zM191 168q0 -35 9 -51t29 -16q12 0 23.5 2t28.5 9l14 -102q-16 -8 -49 -16t-68 -8q-57 0 -87 26.5t-30 87.5v600h130v-532zM174 870h159v-30l-160 -88h-103z" />
<glyph unicode="&#x13d;" horiz-adv-x="514" d="M60 0zM503 0h-443v700h137v-578h306v-122zM463 700q-2 -29 -12 -60.5t-23.5 -60t-28.5 -51t-27 -32.5l-58 31q17 36 26 81.5t9 91.5h114z" />
<glyph unicode="&#x13e;" horiz-adv-x="294" d="M61 0zM191 168q0 -35 9 -51t29 -16q12 0 23.5 2t28.5 9l14 -102q-16 -8 -49 -16t-68 -8q-57 0 -87 26.5t-30 87.5v600h130v-532zM366 700q-2 -29 -12 -60.5t-23.5 -60t-28.5 -51t-27 -32.5l-58 31q17 36 26 81.5t9 91.5h114z" />
<glyph unicode="&#x147;" horiz-adv-x="657" d="M60 0zM234 365l-55 110h-5l16 -110v-365h-130v705h100l265 -373l53 -107h5l-16 107v368h130v-705h-100zM377 737h-94l-127 94v39h105l53 -45l19 -30l21 29l56 46h100v-40z" />
<glyph unicode="&#x148;" horiz-adv-x="545" d="M57 0zM363 0v284q0 61 -17.5 88t-59.5 27q-37 0 -62.5 -21.5t-36.5 -53.5v-324h-130v500h103l15 -66h4q23 32 61 56t98 24q37 0 66 -10t49 -33t30 -62.5t10 -97.5v-311h-130zM318 550h-91l-115 182h110l39 -66l16 -49l18 49l45 66h101z" />
<glyph unicode="&#x154;" horiz-adv-x="602" d="M60 0zM60 693q23 4 49.5 7.5t53 5.5t51.5 3t46 1q49 0 96.5 -9t85 -31t60 -60.5t22.5 -96.5q0 -86 -40 -140t-107 -75l49 -31l160 -267h-158l-159 274l-72 13v-287h-137v693zM270 588q-21 0 -41.5 -1t-31.5 -4v-203h58q57 0 91 26t34 86q0 45 -28 70.5t-82 25.5zM292 870 h159v-30l-160 -88h-103z" />
<glyph unicode="&#x155;" horiz-adv-x="351" d="M57 0zM333 378q-31 11 -56 11q-35 0 -58.5 -18.5t-31.5 -47.5v-323h-130v500h101l15 -66h4q17 37 46 57t68 20q26 0 59 -11zM172 720h132v-30l-111 -124h-74z" />
<glyph unicode="&#x160;" horiz-adv-x="530" d="M27 0zM362 188q0 32 -23.5 52t-59 36.5t-77 34t-77 43t-59 63.5t-23.5 97q0 51 17 88.5t48.5 62.5t74.5 37t96 12q61 0 115 -10.5t89 -30.5l-43 -115q-22 14 -66 25.5t-95 11.5q-48 0 -73.5 -19t-25.5 -51q0 -30 23.5 -50t59 -37t77 -35t77 -43.5t59 -63t23.5 -93.5 t-18.5 -96.5t-52 -67.5t-81 -40t-104.5 -13q-75 0 -132 14t-84 28l44 117q11 -6 28.5 -13t39.5 -13t46.5 -10t50.5 -4q61 0 93.5 20.5t32.5 62.5zM328 737h-94l-127 94v39h105l53 -45l19 -30l21 29l56 46h100v-40z" />
<glyph unicode="&#x161;" horiz-adv-x="422" d="M25 0zM264 138q0 20 -17 32t-42 22t-55 20.5t-55 29t-42 47t-17 73.5q0 74 44 113t127 39q57 0 103 -12t72 -27l-29 -94q-23 9 -58 19t-71 10q-58 0 -58 -45q0 -18 17 -29t42 -20.5t55 -20.5t55 -28.5t42 -45.5t17 -72q0 -76 -48.5 -119.5t-145.5 -43.5q-53 0 -99.5 13.5 t-75.5 31.5l36 97q23 -13 61 -25.5t78 -12.5q29 0 46.5 11t17.5 37zM253 550h-91l-115 182h110l39 -66l16 -49l18 49l45 66h101z" />
<glyph unicode="&#x164;" horiz-adv-x="568" d="M11 0zM557 578h-204v-578h-137v578h-205v122h546v-122zM327 737h-94l-127 94v39h105l53 -45l19 -30l21 29l56 46h100v-40z" />
<glyph unicode="&#x165;" horiz-adv-x="360" d="M5 0zM5 500h69v94l130 37v-131h122v-110h-122v-192q0 -52 10.5 -74.5t39.5 -22.5q20 0 34.5 4t32.5 12l23 -100q-27 -13 -63 -22t-73 -9q-69 0 -101.5 35.5t-32.5 116.5v252h-69v110zM375 723q-2 -29 -12 -60.5t-23.5 -60t-28.5 -51t-27 -32.5l-58 31q17 36 26 81.5 t9 91.5h114z" />
<glyph unicode="&#x17d;" horiz-adv-x="539" d="M27 0zM27 122l296 414l52 42h-348v122h485v-122l-298 -418l-51 -38h349v-122h-485v122zM309 737h-94l-127 94v39h105l53 -45l19 -30l21 29l56 46h100v-40z" />
<glyph unicode="&#x17e;" horiz-adv-x="458" d="M31 0zM31 110l197 237l51 43h-248v110h392v-110l-195 -241l-50 -39h245v-110h-392v110zM269 550h-91l-115 182h110l39 -66l16 -49l18 49l45 66h101z" />
<glyph unicode="&#x237;" horiz-adv-x="268" d="M69 500h130v-521q0 -91 -36 -139t-115 -48q-30 0 -64 7v109q4 0 7 -0.5t6 -0.5q45 0 58.5 29t13.5 80v484z" />
<glyph unicode="&#x2c6;" horiz-adv-x="440" d="M183 732h86l111 -182h-103l-39 66l-17 49l-17 -49l-45 -66h-99z" />
<glyph unicode="&#x2c7;" horiz-adv-x="449" d="M266 550h-91l-115 182h110l39 -66l16 -49l18 49l45 66h101z" />
<glyph unicode="&#x2d9;" horiz-adv-x="286" d="M60 641q0 29 21.5 49.5t59.5 20.5t61.5 -20.5t23.5 -49.5t-23.5 -48.5t-61.5 -19.5t-59.5 19.5t-21.5 48.5z" />
<glyph unicode="&#x2da;" horiz-adv-x="342" d="M60 647q0 42 28.5 69t82.5 27q51 0 81 -24.5t30 -71.5q0 -39 -29.5 -66.5t-81.5 -27.5q-53 0 -82 25.5t-29 68.5zM132 647q0 -16 12 -24.5t27 -8.5q17 0 28 8t11 25t-11.5 25.5t-27.5 8.5q-15 0 -27 -8t-12 -26z" />
<glyph unicode="&#x2dc;" horiz-adv-x="452" d="M60 658q31 37 57.5 51t50.5 14q20 0 38.5 -7t36.5 -15t35 -15t35 -7q14 0 28.5 6t30.5 21l20 -70q-29 -32 -53.5 -44t-47.5 -12q-20 0 -39 6.5t-37 14.5t-36 14.5t-36 6.5q-15 0 -31 -6.5t-33 -22.5z" />
<glyph unicode="&#x2000;" horiz-adv-x="435" />
<glyph unicode="&#x2001;" horiz-adv-x="870" />
<glyph unicode="&#x2002;" horiz-adv-x="435" />
<glyph unicode="&#x2003;" horiz-adv-x="870" />
<glyph unicode="&#x2004;" horiz-adv-x="290" />
<glyph unicode="&#x2005;" horiz-adv-x="217" />
<glyph unicode="&#x2006;" horiz-adv-x="145" />
<glyph unicode="&#x2007;" horiz-adv-x="145" />
<glyph unicode="&#x2008;" horiz-adv-x="108" />
<glyph unicode="&#x2009;" horiz-adv-x="174" />
<glyph unicode="&#x200a;" horiz-adv-x="48" />
<glyph unicode="&#x2010;" horiz-adv-x="360" d="M54 345h251v-115h-251v115z" />
<glyph unicode="&#x2011;" horiz-adv-x="360" d="M54 345h251v-115h-251v115z" />
<glyph unicode="&#x2012;" horiz-adv-x="360" d="M54 345h251v-115h-251v115z" />
<glyph unicode="&#x2013;" horiz-adv-x="660" d="M109 346h442v-116h-442v116z" />
<glyph unicode="&#x2014;" horiz-adv-x="820" d="M109 346h602v-116h-602v116z" />
<glyph unicode="&#x2018;" horiz-adv-x="223" d="M185 618q0 -29 -19.5 -46.5t-48.5 -17.5q-37 0 -58 23.5t-21 62.5q0 40 12.5 68t30 46.5t36.5 29t33 15.5l32 -54q-20 -8 -34 -25.5t-16 -37.5q20 0 36.5 -17.5t16.5 -46.5z" />
<glyph unicode="&#x2019;" horiz-adv-x="223" d="M38 644q0 29 19.5 47t49.5 18q36 0 57 -24t21 -63q0 -40 -12.5 -68t-30 -46.5t-37 -29t-32.5 -15.5l-33 55q20 9 35.5 24t17.5 38q-20 -1 -37.5 15.5t-17.5 48.5z" />
<glyph unicode="&#x201a;" horiz-adv-x="223" d="M38 0zM38 62q0 29 19.5 47t49.5 18q36 0 57 -24t21 -63q0 -40 -12.5 -68t-30 -46.5t-37 -29t-32.5 -15.5l-33 55q20 9 35.5 24t17.5 38q-20 -1 -37.5 15.5t-17.5 48.5z" />
<glyph unicode="&#x201c;" horiz-adv-x="396" d="M38 554zM358 618q0 -29 -19.5 -46.5t-48.5 -17.5q-37 0 -58 23.5t-21 62.5q0 40 12.5 68t30 46.5t36.5 29t33 15.5l32 -54q-20 -8 -34 -25.5t-16 -37.5q20 0 36.5 -17.5t16.5 -46.5zM185 618q0 -29 -19.5 -46.5t-48.5 -17.5q-37 0 -58 23.5t-21 62.5q0 40 12.5 68 t30 46.5t36.5 29t33 15.5l32 -54q-20 -8 -34 -25.5t-16 -37.5q20 0 36.5 -17.5t16.5 -46.5z" />
<glyph unicode="&#x201d;" horiz-adv-x="396" d="M38 463zM211 644q0 29 19.5 47t49.5 18q36 0 57 -24t21 -63q0 -40 -12.5 -68t-30 -46.5t-37 -29t-32.5 -15.5l-33 55q20 9 35.5 24t17.5 38q-20 -1 -37.5 15.5t-17.5 48.5zM38 644q0 29 19.5 47t49.5 18q36 0 57 -24t21 -63q0 -40 -12.5 -68t-30 -46.5t-37 -29 t-32.5 -15.5l-33 55q20 9 35.5 24t17.5 38q-20 -1 -37.5 15.5t-17.5 48.5z" />
<glyph unicode="&#x201e;" horiz-adv-x="396" d="M38 0zM211 62q0 29 19.5 47t49.5 18q36 0 57 -24t21 -63q0 -40 -12.5 -68t-30 -46.5t-37 -29t-32.5 -15.5l-33 55q20 9 35.5 24t17.5 38q-20 -1 -37.5 15.5t-17.5 48.5zM38 62q0 29 19.5 47t49.5 18q36 0 57 -24t21 -63q0 -40 -12.5 -68t-30 -46.5t-37 -29t-32.5 -15.5 l-33 55q20 9 35.5 24t17.5 38q-20 -1 -37.5 15.5t-17.5 48.5z" />
<glyph unicode="&#x2026;" horiz-adv-x="809" d="M53 0zM53 66q0 35 22 55.5t58 20.5q38 0 60 -20.5t22 -55.5t-22 -56t-60 -21q-36 0 -58 21t-22 56zM325 66q0 35 22 55.5t58 20.5q38 0 60 -20.5t22 -55.5t-22 -56t-60 -21q-36 0 -58 21t-22 56zM597 66q0 35 22 55.5t58 20.5q38 0 60 -20.5t22 -55.5t-22 -56t-60 -21 q-36 0 -58 21t-22 56z" />
<glyph unicode="&#x202f;" horiz-adv-x="174" />
<glyph unicode="&#x2039;" horiz-adv-x="307" d="M29 259l160 230l75 -62l-83 -126l-48 -41l48 -36l91 -122l-77 -64z" />
<glyph unicode="&#x203a;" horiz-adv-x="307" d="M278 268l-160 -230l-76 61l84 127l48 41l-48 36l-92 123l78 63z" />
<glyph unicode="&#x205f;" horiz-adv-x="217" />
<glyph unicode="&#x20ac;" d="M34 475h62q15 66 43.5 111t66.5 73.5t83.5 41.5t94.5 13q52 0 92.5 -8t67.5 -19l-35 -103q-22 9 -51 13.5t-68 4.5q-60 0 -103 -30t-65 -97h259l-26 -93h-249q-1 -8 -1 -15.5v-16.5v-26h230l-26 -93h-188q20 -66 63.5 -99.5t115.5 -33.5q42 0 72.5 9t54.5 23l27 -101 q-15 -11 -36 -19.5t-44 -13.5t-47 -7.5t-46 -2.5q-110 0 -185.5 58.5t-101.5 186.5h-92l32 93h49v26v16t1 16h-82z" />
<glyph unicode="&#x2122;" horiz-adv-x="948" d="M395 590h-118v-250h-130v250h-118v110h366v-110zM800 484l17 103h-6l-36 -85l-68 -117h-78l-68 114l-39 88h-5l23 -102v-145h-111v360h130l91 -150l24 -63h1l25 65l84 148h129v-360h-113v144z" />
<glyph unicode="&#x2212;" horiz-adv-x="527" d="M43 394h442v-112h-442v112z" />
<glyph unicode="&#xe000;" horiz-adv-x="500" d="M0 500h500v-500h-500v500z" />
<glyph unicode="&#xf408;" horiz-adv-x="476" d="M193 870h96l127 -93v-39h-99l-57 41l-20 34l-21 -33l-62 -42h-97v40z" />
<glyph unicode="&#xf6c9;" horiz-adv-x="383" d="M164 870h159v-30l-160 -88h-103z" />
<glyph unicode="&#xf6ca;" horiz-adv-x="474" d="M281 737h-94l-127 94v39h105l53 -45l19 -30l21 29l56 46h100v-40z" />
<glyph unicode="&#xf6cb;" horiz-adv-x="485" d="M60 798q0 26 18 42t58 16q39 0 57 -16t18 -42t-18 -41.5t-57 -15.5q-40 0 -58 15.5t-18 41.5zM274 798q0 26 18 42t57 16q40 0 58 -16t18 -42t-18 -41.5t-58 -15.5q-39 0 -57 15.5t-18 41.5z" />
<glyph horiz-adv-x="184" d="M342 714l73 -66l-576 -662l-73 69z" />
<glyph horiz-adv-x="188" d="M353 700q-2 -29 -12 -60.5t-23.5 -60t-28.5 -51t-27 -32.5l-58 31q17 36 26 81.5t9 91.5h114z" />
<glyph horiz-adv-x="262" d="M0 0z" />
<hkern u1="B" u2="&#x164;" k="30" />
<hkern u1="B" u2="T" k="30" />
<hkern u1="D" u2="J" k="22" />
<hkern u1="O" u2="J" k="22" />
<hkern u1="Q" u2="J" k="22" />
<hkern u1="T" u2="&#x17e;" k="37" />
<hkern u1="T" u2="&#x161;" k="26" />
<hkern u1="T" u2="&#x10d;" k="65" />
<hkern u1="T" u2="&#xfd;" k="108" />
<hkern u1="T" u2="&#xf4;" k="68" />
<hkern u1="T" u2="&#xf3;" k="108" />
<hkern u1="T" u2="&#xed;" k="39" />
<hkern u1="T" u2="&#xe9;" k="108" />
<hkern u1="T" u2="&#xe4;" k="43" />
<hkern u1="T" u2="&#xe1;" k="82" />
<hkern u1="V" u2="&#x17e;" k="33" />
<hkern u1="V" u2="&#x161;" k="17" />
<hkern u1="V" u2="&#x155;" k="55" />
<hkern u1="V" u2="&#x10d;" k="41" />
<hkern u1="V" u2="&#xfa;" k="48" />
<hkern u1="V" u2="&#xe4;" k="25" />
<hkern u1="V" u2="&#xe1;" k="61" />
<hkern u1="W" u2="&#x161;" k="24" />
<hkern u1="W" u2="&#x10d;" k="40" />
<hkern u1="W" u2="&#xe1;" k="47" />
<hkern u1="Y" u2="&#x17e;" k="49" />
<hkern u1="Y" u2="&#x161;" k="23" />
<hkern u1="Y" u2="&#x155;" k="68" />
<hkern u1="Y" u2="&#x10d;" k="53" />
<hkern u1="Y" u2="&#xfa;" k="68" />
<hkern u1="Y" u2="&#xf4;" k="89" />
<hkern u1="Y" u2="&#xe4;" k="42" />
<hkern u1="Y" u2="&#xe1;" k="87" />
<hkern u1="a" u2="&#x201d;" k="41" />
<hkern u1="a" u2="&#x201c;" k="41" />
<hkern u1="a" u2="&#x2019;" k="41" />
<hkern u1="a" u2="&#x2018;" k="41" />
<hkern u1="a" u2="&#x164;" k="120" />
<hkern u1="a" u2="T" k="120" />
<hkern u1="a" u2="&#x27;" k="41" />
<hkern u1="a" u2="&#x22;" k="41" />
<hkern u1="b" u2="f" k="12" />
<hkern u1="f" u2="&#x7d;" k="-36" />
<hkern u1="f" u2="]" k="-36" />
<hkern u1="k" u2="&#x10f;" k="12" />
<hkern u1="k" u2="&#x10d;" k="12" />
<hkern u1="k" u2="&#xf4;" k="12" />
<hkern u1="k" u2="&#xf3;" k="12" />
<hkern u1="k" u2="&#xe9;" k="12" />
<hkern u1="k" u2="q" k="12" />
<hkern u1="k" u2="o" k="12" />
<hkern u1="k" u2="g" k="12" />
<hkern u1="k" u2="e" k="12" />
<hkern u1="k" u2="c" k="12" />
<hkern u1="n" u2="&#x164;" k="114" />
<hkern u1="n" u2="T" k="114" />
<hkern u1="o" u2="f" k="12" />
<hkern u1="p" u2="f" k="12" />
<hkern u1="r" u2="&#x2026;" k="30" />
<hkern u1="&#xd3;" u2="J" k="22" />
<hkern u1="&#xd4;" u2="J" k="22" />
<hkern u1="&#xdd;" u2="&#x17e;" k="49" />
<hkern u1="&#xdd;" u2="&#x161;" k="23" />
<hkern u1="&#xdd;" u2="&#x155;" k="68" />
<hkern u1="&#xdd;" u2="&#x10d;" k="53" />
<hkern u1="&#xdd;" u2="&#xfa;" k="68" />
<hkern u1="&#xdd;" u2="&#xf4;" k="89" />
<hkern u1="&#xdd;" u2="&#xe4;" k="42" />
<hkern u1="&#xdd;" u2="&#xe1;" k="87" />
<hkern u1="&#xf3;" u2="f" k="12" />
<hkern u1="&#xf4;" u2="f" k="12" />
<hkern u1="&#x10f;" u2="&#xfd;" k="-75" />
<hkern u1="&#x10f;" u2="&#xfa;" k="-30" />
<hkern u1="&#x10f;" u2="&#xed;" k="-48" />
<hkern u1="&#x10f;" u2="&#xe4;" k="-70" />
<hkern u1="&#x10f;" u2="i" k="-90" />
<hkern u1="&#x13e;" u2="&#xfd;" k="-54" />
<hkern u1="&#x13e;" u2="&#xe4;" k="-36" />
<hkern u1="&#x13e;" u2="i" k="-54" />
<hkern u1="&#x155;" u2="&#x2026;" k="30" />
<hkern u1="&#x155;" u2="&#x2e;" k="30" />
<hkern u1="&#x155;" u2="&#x2c;" k="30" />
<hkern u1="&#x164;" u2="&#x17e;" k="37" />
<hkern u1="&#x164;" u2="&#x161;" k="26" />
<hkern u1="&#x164;" u2="&#x10d;" k="65" />
<hkern u1="&#x164;" u2="&#xfd;" k="108" />
<hkern u1="&#x164;" u2="&#xf4;" k="68" />
<hkern u1="&#x164;" u2="&#xf3;" k="108" />
<hkern u1="&#x164;" u2="&#xed;" k="39" />
<hkern u1="&#x164;" u2="&#xe9;" k="108" />
<hkern u1="&#x164;" u2="&#xe4;" k="43" />
<hkern u1="&#x164;" u2="&#xe1;" k="82" />
<hkern u1="&#x2026;" u2="&#x20;" k="40" />
<hkern g1="C,Ccaron" 	g2="space" 	k="40" />
<hkern g1="C,Ccaron" 	g2="hyphen,endash,emdash" 	k="69" />
<hkern g1="C,Ccaron" 	g2="A,Aacute,Adieresis" 	k="44" />
<hkern g1="C,Ccaron" 	g2="C,G,O,Q,Oacute,Ocircumflex,Ccaron" 	k="33" />
<hkern g1="C,Ccaron" 	g2="T,Tcaron" 	k="44" />
<hkern g1="C,Ccaron" 	g2="V" 	k="66" />
<hkern g1="C,Ccaron" 	g2="W" 	k="26" />
<hkern g1="C,Ccaron" 	g2="X" 	k="51" />
<hkern g1="C,Ccaron" 	g2="Y,Yacute" 	k="55" />
<hkern g1="C,Ccaron" 	g2="Z,Zcaron" 	k="49" />
<hkern g1="C,Ccaron" 	g2="c,e,g,o,q,eacute,oacute,ocircumflex,ccaron,dcaron" 	k="36" />
<hkern g1="C,Ccaron" 	g2="t,tcaron" 	k="36" />
<hkern g1="C,Ccaron" 	g2="v,y,yacute" 	k="53" />
<hkern g1="C,Ccaron" 	g2="w" 	k="40" />
<hkern g1="C,Ccaron" 	g2="x" 	k="44" />
<hkern g1="C,Ccaron" 	g2="z,zcaron" 	k="17" />
<hkern g1="C,Ccaron" 	g2="a,m,n,p,r,s,u" 	k="11" />
<hkern g1="L,Lacute,Lcaron" 	g2="space" 	k="51" />
<hkern g1="L,Lacute,Lcaron" 	g2="asterisk" 	k="164" />
<hkern g1="L,Lacute,Lcaron" 	g2="hyphen,endash,emdash" 	k="69" />
<hkern g1="L,Lacute,Lcaron" 	g2="comma,period,ellipsis" 	k="-10" />
<hkern g1="L,Lacute,Lcaron" 	g2="A,Aacute,Adieresis" 	k="122" />
<hkern g1="L,Lacute,Lcaron" 	g2="C,G,O,Q,Oacute,Ocircumflex,Ccaron" 	k="93" />
<hkern g1="L,Lacute,Lcaron" 	g2="T,Tcaron" 	k="131" />
<hkern g1="L,Lacute,Lcaron" 	g2="V" 	k="119" />
<hkern g1="L,Lacute,Lcaron" 	g2="W" 	k="87" />
<hkern g1="L,Lacute,Lcaron" 	g2="X" 	k="142" />
<hkern g1="L,Lacute,Lcaron" 	g2="Y,Yacute" 	k="128" />
<hkern g1="L,Lacute,Lcaron" 	g2="Z,Zcaron" 	k="88" />
<hkern g1="L,Lacute,Lcaron" 	g2="c,e,g,o,q,eacute,oacute,ocircumflex,ccaron,dcaron" 	k="35" />
<hkern g1="L,Lacute,Lcaron" 	g2="t,tcaron" 	k="35" />
<hkern g1="L,Lacute,Lcaron" 	g2="v,y,yacute" 	k="86" />
<hkern g1="L,Lacute,Lcaron" 	g2="w" 	k="62" />
<hkern g1="L,Lacute,Lcaron" 	g2="x" 	k="69" />
<hkern g1="L,Lacute,Lcaron" 	g2="z,zcaron" 	k="40" />
<hkern g1="L,Lacute,Lcaron" 	g2="quotedbl,quotesingle,quoteleft,quoteright,quotedblleft,quotedblright" 	k="142" />
<hkern g1="L,Lacute,Lcaron" 	g2="quotesinglbase,quotedblbase" 	k="-7" />
<hkern g1="L,Lacute,Lcaron" 	g2="registered,trademark" 	k="181" />
<hkern g1="L,Lacute,Lcaron" 	g2="aacute,adieresis,iacute,uacute,ncaron,racute" 	k="-7" />
<hkern g1="D,O,Q,Oacute,Ocircumflex" 	g2="space" 	k="13" />
<hkern g1="D,O,Q,Oacute,Ocircumflex" 	g2="parenright,bracketright,braceright" 	k="17" />
<hkern g1="D,O,Q,Oacute,Ocircumflex" 	g2="asterisk" 	k="10" />
<hkern g1="D,O,Q,Oacute,Ocircumflex" 	g2="comma,period,ellipsis" 	k="30" />
<hkern g1="D,O,Q,Oacute,Ocircumflex" 	g2="A,Aacute,Adieresis" 	k="28" />
<hkern g1="D,O,Q,Oacute,Ocircumflex" 	g2="T,Tcaron" 	k="39" />
<hkern g1="D,O,Q,Oacute,Ocircumflex" 	g2="V" 	k="37" />
<hkern g1="D,O,Q,Oacute,Ocircumflex" 	g2="W" 	k="28" />
<hkern g1="D,O,Q,Oacute,Ocircumflex" 	g2="X" 	k="55" />
<hkern g1="D,O,Q,Oacute,Ocircumflex" 	g2="Y,Yacute" 	k="48" />
<hkern g1="D,O,Q,Oacute,Ocircumflex" 	g2="Z,Zcaron" 	k="24" />
<hkern g1="D,O,Q,Oacute,Ocircumflex" 	g2="v,y,yacute" 	k="8" />
<hkern g1="D,O,Q,Oacute,Ocircumflex" 	g2="x" 	k="30" />
<hkern g1="D,O,Q,Oacute,Ocircumflex" 	g2="z,zcaron" 	k="17" />
<hkern g1="D,O,Q,Oacute,Ocircumflex" 	g2="quotedbl,quotesingle,quoteleft,quoteright,quotedblleft,quotedblright" 	k="40" />
<hkern g1="D,O,Q,Oacute,Ocircumflex" 	g2="quotesinglbase,quotedblbase" 	k="40" />
<hkern g1="P" 	g2="space" 	k="40" />
<hkern g1="P" 	g2="hyphen,endash,emdash" 	k="10" />
<hkern g1="P" 	g2="comma,period,ellipsis" 	k="130" />
<hkern g1="P" 	g2="A,Aacute,Adieresis" 	k="77" />
<hkern g1="P" 	g2="C,G,O,Q,Oacute,Ocircumflex,Ccaron" 	k="11" />
<hkern g1="P" 	g2="T,Tcaron" 	k="8" />
<hkern g1="P" 	g2="V" 	k="10" />
<hkern g1="P" 	g2="W" 	k="7" />
<hkern g1="P" 	g2="X" 	k="53" />
<hkern g1="P" 	g2="Y,Yacute" 	k="27" />
<hkern g1="P" 	g2="Z,Zcaron" 	k="20" />
<hkern g1="P" 	g2="c,e,g,o,q,eacute,oacute,ocircumflex,ccaron,dcaron" 	k="36" />
<hkern g1="P" 	g2="x" 	k="36" />
<hkern g1="P" 	g2="z,zcaron" 	k="13" />
<hkern g1="P" 	g2="quotesinglbase,quotedblbase" 	k="126" />
<hkern g1="P" 	g2="a,m,n,p,r,s,u" 	k="29" />
<hkern g1="P" 	g2="aacute,adieresis,iacute,uacute,ncaron,racute" 	k="10" />
<hkern g1="R,Racute" 	g2="hyphen,endash,emdash" 	k="40" />
<hkern g1="R,Racute" 	g2="A,Aacute,Adieresis" 	k="37" />
<hkern g1="R,Racute" 	g2="C,G,O,Q,Oacute,Ocircumflex,Ccaron" 	k="33" />
<hkern g1="R,Racute" 	g2="T,Tcaron" 	k="49" />
<hkern g1="R,Racute" 	g2="V" 	k="48" />
<hkern g1="R,Racute" 	g2="W" 	k="40" />
<hkern g1="R,Racute" 	g2="X" 	k="56" />
<hkern g1="R,Racute" 	g2="Y,Yacute" 	k="60" />
<hkern g1="R,Racute" 	g2="Z,Zcaron" 	k="24" />
<hkern g1="R,Racute" 	g2="c,e,g,o,q,eacute,oacute,ocircumflex,ccaron,dcaron" 	k="48" />
<hkern g1="R,Racute" 	g2="t,tcaron" 	k="24" />
<hkern g1="R,Racute" 	g2="v,y,yacute" 	k="22" />
<hkern g1="R,Racute" 	g2="w" 	k="23" />
<hkern g1="R,Racute" 	g2="x" 	k="28" />
<hkern g1="R,Racute" 	g2="z,zcaron" 	k="13" />
<hkern g1="R,Racute" 	g2="quotedbl,quotesingle,quoteleft,quoteright,quotedblleft,quotedblright" 	k="20" />
<hkern g1="T,Tcaron" 	g2="space" 	k="40" />
<hkern g1="T,Tcaron" 	g2="parenright,bracketright,braceright" 	k="-13" />
<hkern g1="T,Tcaron" 	g2="asterisk" 	k="-16" />
<hkern g1="T,Tcaron" 	g2="hyphen,endash,emdash" 	k="128" />
<hkern g1="T,Tcaron" 	g2="comma,period,ellipsis" 	k="111" />
<hkern g1="T,Tcaron" 	g2="A,Aacute,Adieresis" 	k="78" />
<hkern g1="T,Tcaron" 	g2="C,G,O,Q,Oacute,Ocircumflex,Ccaron" 	k="39" />
<hkern g1="T,Tcaron" 	g2="T,Tcaron" 	k="-20" />
<hkern g1="T,Tcaron" 	g2="V" 	k="33" />
<hkern g1="T,Tcaron" 	g2="W" 	k="30" />
<hkern g1="T,Tcaron" 	g2="X" 	k="47" />
<hkern g1="T,Tcaron" 	g2="Y,Yacute" 	k="70" />
<hkern g1="T,Tcaron" 	g2="Z,Zcaron" 	k="49" />
<hkern g1="T,Tcaron" 	g2="c,e,g,o,q,eacute,oacute,ocircumflex,ccaron,dcaron" 	k="128" />
<hkern g1="T,Tcaron" 	g2="t,tcaron" 	k="49" />
<hkern g1="T,Tcaron" 	g2="v,y,yacute" 	k="128" />
<hkern g1="T,Tcaron" 	g2="w" 	k="128" />
<hkern g1="T,Tcaron" 	g2="x" 	k="128" />
<hkern g1="T,Tcaron" 	g2="z,zcaron" 	k="128" />
<hkern g1="T,Tcaron" 	g2="quotedbl,quotesingle,quoteleft,quoteright,quotedblleft,quotedblright" 	k="-20" />
<hkern g1="T,Tcaron" 	g2="quotesinglbase,quotedblbase" 	k="115" />
<hkern g1="T,Tcaron" 	g2="registered,trademark" 	k="-16" />
<hkern g1="T,Tcaron" 	g2="a,m,n,p,r,s,u" 	k="105" />
<hkern g1="T,Tcaron" 	g2="aacute,adieresis,iacute,uacute,ncaron,racute" 	k="66" />
<hkern g1="V" 	g2="space" 	k="30" />
<hkern g1="V" 	g2="asterisk" 	k="-38" />
<hkern g1="V" 	g2="hyphen,endash,emdash" 	k="54" />
<hkern g1="V" 	g2="comma,period,ellipsis" 	k="111" />
<hkern g1="V" 	g2="A,Aacute,Adieresis" 	k="68" />
<hkern g1="V" 	g2="C,G,O,Q,Oacute,Ocircumflex,Ccaron" 	k="37" />
<hkern g1="V" 	g2="T,Tcaron" 	k="33" />
<hkern g1="V" 	g2="V" 	k="35" />
<hkern g1="V" 	g2="W" 	k="30" />
<hkern g1="V" 	g2="X" 	k="35" />
<hkern g1="V" 	g2="Y,Yacute" 	k="41" />
<hkern g1="V" 	g2="Z,Zcaron" 	k="35" />
<hkern g1="V" 	g2="c,e,g,o,q,eacute,oacute,ocircumflex,ccaron,dcaron" 	k="74" />
<hkern g1="V" 	g2="t,tcaron" 	k="20" />
<hkern g1="V" 	g2="v,y,yacute" 	k="11" />
<hkern g1="V" 	g2="w" 	k="18" />
<hkern g1="V" 	g2="x" 	k="48" />
<hkern g1="V" 	g2="z,zcaron" 	k="46" />
<hkern g1="V" 	g2="quotedbl,quotesingle,quoteleft,quoteright,quotedblleft,quotedblright" 	k="-40" />
<hkern g1="V" 	g2="quotesinglbase,quotedblbase" 	k="107" />
<hkern g1="V" 	g2="registered,trademark" 	k="-13" />
<hkern g1="V" 	g2="a,m,n,p,r,s,u" 	k="57" />
<hkern g1="V" 	g2="aacute,adieresis,iacute,uacute,ncaron,racute" 	k="38" />
<hkern g1="W" 	g2="space" 	k="27" />
<hkern g1="W" 	g2="asterisk" 	k="-35" />
<hkern g1="W" 	g2="hyphen,endash,emdash" 	k="31" />
<hkern g1="W" 	g2="comma,period,ellipsis" 	k="85" />
<hkern g1="W" 	g2="A,Aacute,Adieresis" 	k="44" />
<hkern g1="W" 	g2="C,G,O,Q,Oacute,Ocircumflex,Ccaron" 	k="28" />
<hkern g1="W" 	g2="T,Tcaron" 	k="30" />
<hkern g1="W" 	g2="V" 	k="30" />
<hkern g1="W" 	g2="W" 	k="33" />
<hkern g1="W" 	g2="X" 	k="30" />
<hkern g1="W" 	g2="Y,Yacute" 	k="41" />
<hkern g1="W" 	g2="Z,Zcaron" 	k="33" />
<hkern g1="W" 	g2="c,e,g,o,q,eacute,oacute,ocircumflex,ccaron,dcaron" 	k="53" />
<hkern g1="W" 	g2="t,tcaron" 	k="13" />
<hkern g1="W" 	g2="v,y,yacute" 	k="8" />
<hkern g1="W" 	g2="w" 	k="18" />
<hkern g1="W" 	g2="x" 	k="40" />
<hkern g1="W" 	g2="z,zcaron" 	k="43" />
<hkern g1="W" 	g2="quotedbl,quotesingle,quoteleft,quoteright,quotedblleft,quotedblright" 	k="-40" />
<hkern g1="W" 	g2="quotesinglbase,quotedblbase" 	k="82" />
<hkern g1="W" 	g2="registered,trademark" 	k="-16" />
<hkern g1="W" 	g2="a,m,n,p,r,s,u" 	k="48" />
<hkern g1="W" 	g2="aacute,adieresis,iacute,uacute,ncaron,racute" 	k="30" />
<hkern g1="K,X" 	g2="space" 	k="30" />
<hkern g1="K,X" 	g2="hyphen,endash,emdash" 	k="80" />
<hkern g1="K,X" 	g2="A,Aacute,Adieresis" 	k="30" />
<hkern g1="K,X" 	g2="C,G,O,Q,Oacute,Ocircumflex,Ccaron" 	k="55" />
<hkern g1="K,X" 	g2="T,Tcaron" 	k="47" />
<hkern g1="K,X" 	g2="V" 	k="35" />
<hkern g1="K,X" 	g2="W" 	k="30" />
<hkern g1="K,X" 	g2="X" 	k="36" />
<hkern g1="K,X" 	g2="Y,Yacute" 	k="41" />
<hkern g1="K,X" 	g2="Z,Zcaron" 	k="13" />
<hkern g1="K,X" 	g2="c,e,g,o,q,eacute,oacute,ocircumflex,ccaron,dcaron" 	k="48" />
<hkern g1="K,X" 	g2="t,tcaron" 	k="46" />
<hkern g1="K,X" 	g2="v,y,yacute" 	k="54" />
<hkern g1="K,X" 	g2="w" 	k="54" />
<hkern g1="K,X" 	g2="x" 	k="49" />
<hkern g1="K,X" 	g2="z,zcaron" 	k="16" />
<hkern g1="K,X" 	g2="quotesinglbase,quotedblbase" 	k="-13" />
<hkern g1="K,X" 	g2="a,m,n,p,r,s,u" 	k="20" />
<hkern g1="Y,Yacute" 	g2="space" 	k="27" />
<hkern g1="Y,Yacute" 	g2="asterisk" 	k="-24" />
<hkern g1="Y,Yacute" 	g2="hyphen,endash,emdash" 	k="68" />
<hkern g1="Y,Yacute" 	g2="comma,period,ellipsis" 	k="118" />
<hkern g1="Y,Yacute" 	g2="A,Aacute,Adieresis" 	k="88" />
<hkern g1="Y,Yacute" 	g2="C,G,O,Q,Oacute,Ocircumflex,Ccaron" 	k="48" />
<hkern g1="Y,Yacute" 	g2="T,Tcaron" 	k="70" />
<hkern g1="Y,Yacute" 	g2="V" 	k="41" />
<hkern g1="Y,Yacute" 	g2="W" 	k="30" />
<hkern g1="Y,Yacute" 	g2="X" 	k="41" />
<hkern g1="Y,Yacute" 	g2="Y,Yacute" 	k="41" />
<hkern g1="Y,Yacute" 	g2="Z,Zcaron" 	k="58" />
<hkern g1="Y,Yacute" 	g2="c,e,g,o,q,eacute,oacute,ocircumflex,ccaron,dcaron" 	k="106" />
<hkern g1="Y,Yacute" 	g2="t,tcaron" 	k="51" />
<hkern g1="Y,Yacute" 	g2="v,y,yacute" 	k="48" />
<hkern g1="Y,Yacute" 	g2="w" 	k="40" />
<hkern g1="Y,Yacute" 	g2="x" 	k="60" />
<hkern g1="Y,Yacute" 	g2="z,zcaron" 	k="70" />
<hkern g1="Y,Yacute" 	g2="quotedbl,quotesingle,quoteleft,quoteright,quotedblleft,quotedblright" 	k="-36" />
<hkern g1="Y,Yacute" 	g2="quotesinglbase,quotedblbase" 	k="115" />
<hkern g1="Y,Yacute" 	g2="registered,trademark" 	k="-16" />
<hkern g1="Y,Yacute" 	g2="a,m,n,p,r,s,u" 	k="72" />
<hkern g1="Y,Yacute" 	g2="aacute,adieresis,iacute,uacute,ncaron,racute" 	k="55" />
<hkern g1="Z,Zcaron" 	g2="space" 	k="22" />
<hkern g1="Z,Zcaron" 	g2="asterisk" 	k="-20" />
<hkern g1="Z,Zcaron" 	g2="hyphen,endash,emdash" 	k="55" />
<hkern g1="Z,Zcaron" 	g2="A,Aacute,Adieresis" 	k="25" />
<hkern g1="Z,Zcaron" 	g2="C,G,O,Q,Oacute,Ocircumflex,Ccaron" 	k="24" />
<hkern g1="Z,Zcaron" 	g2="T,Tcaron" 	k="24" />
<hkern g1="Z,Zcaron" 	g2="V" 	k="35" />
<hkern g1="Z,Zcaron" 	g2="W" 	k="30" />
<hkern g1="Z,Zcaron" 	g2="X" 	k="27" />
<hkern g1="Z,Zcaron" 	g2="Y,Yacute" 	k="58" />
<hkern g1="Z,Zcaron" 	g2="Z,Zcaron" 	k="11" />
<hkern g1="Z,Zcaron" 	g2="c,e,g,o,q,eacute,oacute,ocircumflex,ccaron,dcaron" 	k="38" />
<hkern g1="Z,Zcaron" 	g2="t,tcaron" 	k="8" />
<hkern g1="Z,Zcaron" 	g2="v,y,yacute" 	k="10" />
<hkern g1="Z,Zcaron" 	g2="w" 	k="10" />
<hkern g1="Z,Zcaron" 	g2="x" 	k="7" />
<hkern g1="Z,Zcaron" 	g2="z,zcaron" 	k="13" />
<hkern g1="Z,Zcaron" 	g2="quotedbl,quotesingle,quoteleft,quoteright,quotedblleft,quotedblright" 	k="-20" />
<hkern g1="Z,Zcaron" 	g2="quotesinglbase,quotedblbase" 	k="-20" />
<hkern g1="Z,Zcaron" 	g2="a,m,n,p,r,s,u" 	k="11" />
<hkern g1="c,ccaron" 	g2="space" 	k="24" />
<hkern g1="c,ccaron" 	g2="parenright,bracketright,braceright" 	k="10" />
<hkern g1="c,ccaron" 	g2="hyphen,endash,emdash" 	k="38" />
<hkern g1="c,ccaron" 	g2="c,e,g,o,q,eacute,oacute,ocircumflex,ccaron,dcaron" 	k="17" />
<hkern g1="c,ccaron" 	g2="v,y,yacute" 	k="17" />
<hkern g1="c,ccaron" 	g2="w" 	k="17" />
<hkern g1="c,ccaron" 	g2="x" 	k="8" />
<hkern g1="c,ccaron" 	g2="z,zcaron" 	k="8" />
<hkern g1="c,ccaron" 	g2="quotedbl,quotesingle,quoteleft,quoteright,quotedblleft,quotedblright" 	k="22" />
<hkern g1="c,ccaron" 	g2="quotesinglbase,quotedblbase" 	k="-10" />
<hkern g1="e,eacute" 	g2="parenright,bracketright,braceright" 	k="13" />
<hkern g1="e,eacute" 	g2="asterisk" 	k="22" />
<hkern g1="e,eacute" 	g2="c,e,g,o,q,eacute,oacute,ocircumflex,ccaron,dcaron" 	k="5" />
<hkern g1="e,eacute" 	g2="v,y,yacute" 	k="14" />
<hkern g1="e,eacute" 	g2="w" 	k="5" />
<hkern g1="e,eacute" 	g2="x" 	k="21" />
<hkern g1="e,eacute" 	g2="z,zcaron" 	k="5" />
<hkern g1="e,eacute" 	g2="quotedbl,quotesingle,quoteleft,quoteright,quotedblleft,quotedblright" 	k="50" />
<hkern g1="e,eacute" 	g2="registered,trademark" 	k="22" />
<hkern g1="f" 	g2="parenright,bracketright,braceright" 	k="-60" />
<hkern g1="f" 	g2="asterisk" 	k="-33" />
<hkern g1="f" 	g2="comma,period,ellipsis" 	k="20" />
<hkern g1="f" 	g2="c,e,g,o,q,eacute,oacute,ocircumflex,ccaron,dcaron" 	k="5" />
<hkern g1="f" 	g2="t,tcaron" 	k="8" />
<hkern g1="f" 	g2="v,y,yacute" 	k="13" />
<hkern g1="f" 	g2="w" 	k="10" />
<hkern g1="f" 	g2="quotedbl,quotesingle,quoteleft,quoteright,quotedblleft,quotedblright" 	k="-33" />
<hkern g1="f" 	g2="quotesinglbase,quotedblbase" 	k="20" />
<hkern g1="f" 	g2="registered,trademark" 	k="-41" />
<hkern g1="b,o,p,oacute,ocircumflex" 	g2="parenright,bracketright,braceright" 	k="17" />
<hkern g1="b,o,p,oacute,ocircumflex" 	g2="asterisk" 	k="20" />
<hkern g1="b,o,p,oacute,ocircumflex" 	g2="comma,period,ellipsis" 	k="10" />
<hkern g1="b,o,p,oacute,ocircumflex" 	g2="v,y,yacute" 	k="12" />
<hkern g1="b,o,p,oacute,ocircumflex" 	g2="w" 	k="9" />
<hkern g1="b,o,p,oacute,ocircumflex" 	g2="x" 	k="24" />
<hkern g1="b,o,p,oacute,ocircumflex" 	g2="z,zcaron" 	k="8" />
<hkern g1="b,o,p,oacute,ocircumflex" 	g2="quotedbl,quotesingle,quoteleft,quoteright,quotedblleft,quotedblright" 	k="74" />
<hkern g1="b,o,p,oacute,ocircumflex" 	g2="quotesinglbase,quotedblbase" 	k="8" />
<hkern g1="b,o,p,oacute,ocircumflex" 	g2="registered,trademark" 	k="17" />
<hkern g1="t,tcaron" 	g2="parenright,bracketright,braceright" 	k="10" />
<hkern g1="t,tcaron" 	g2="hyphen,endash,emdash" 	k="16" />
<hkern g1="t,tcaron" 	g2="comma,period,ellipsis" 	k="-10" />
<hkern g1="t,tcaron" 	g2="c,e,g,o,q,eacute,oacute,ocircumflex,ccaron,dcaron" 	k="5" />
<hkern g1="t,tcaron" 	g2="t,tcaron" 	k="7" />
<hkern g1="t,tcaron" 	g2="v,y,yacute" 	k="23" />
<hkern g1="t,tcaron" 	g2="w" 	k="17" />
<hkern g1="t,tcaron" 	g2="x" 	k="8" />
<hkern g1="t,tcaron" 	g2="quotedbl,quotesingle,quoteleft,quoteright,quotedblleft,quotedblright" 	k="10" />
<hkern g1="t,tcaron" 	g2="quotesinglbase,quotedblbase" 	k="-10" />
<hkern g1="v,y,yacute" 	g2="space" 	k="36" />
<hkern g1="v,y,yacute" 	g2="asterisk" 	k="-22" />
<hkern g1="v,y,yacute" 	g2="comma,period,ellipsis" 	k="72" />
<hkern g1="v,y,yacute" 	g2="c,e,g,o,q,eacute,oacute,ocircumflex,ccaron,dcaron" 	k="7" />
<hkern g1="v,y,yacute" 	g2="t,tcaron" 	k="17" />
<hkern g1="v,y,yacute" 	g2="v,y,yacute" 	k="-41" />
<hkern g1="v,y,yacute" 	g2="w" 	k="-33" />
<hkern g1="v,y,yacute" 	g2="x" 	k="-8" />
<hkern g1="v,y,yacute" 	g2="quotesinglbase,quotedblbase" 	k="48" />
<hkern g1="w" 	g2="space" 	k="24" />
<hkern g1="w" 	g2="comma,period,ellipsis" 	k="55" />
<hkern g1="w" 	g2="c,e,g,o,q,eacute,oacute,ocircumflex,ccaron,dcaron" 	k="9" />
<hkern g1="w" 	g2="t,tcaron" 	k="10" />
<hkern g1="w" 	g2="v,y,yacute" 	k="-33" />
<hkern g1="w" 	g2="w" 	k="-22" />
<hkern g1="w" 	g2="z,zcaron" 	k="8" />
<hkern g1="w" 	g2="quotesinglbase,quotedblbase" 	k="53" />
<hkern g1="k,x" 	g2="space" 	k="30" />
<hkern g1="k,x" 	g2="hyphen,endash,emdash" 	k="38" />
<hkern g1="k,x" 	g2="c,e,g,o,q,eacute,oacute,ocircumflex,ccaron,dcaron" 	k="24" />
<hkern g1="k,x" 	g2="v,y,yacute" 	k="-14" />
<hkern g1="k,x" 	g2="x" 	k="8" />
<hkern g1="z,zcaron" 	g2="space" 	k="30" />
<hkern g1="z,zcaron" 	g2="hyphen,endash,emdash" 	k="40" />
<hkern g1="z,zcaron" 	g2="c,e,g,o,q,eacute,oacute,ocircumflex,ccaron,dcaron" 	k="8" />
<hkern g1="z,zcaron" 	g2="t,tcaron" 	k="13" />
<hkern g1="z,zcaron" 	g2="quotedbl,quotesingle,quoteleft,quoteright,quotedblleft,quotedblright" 	k="13" />
<hkern g1="space" 	g2="asterisk" 	k="35" />
<hkern g1="space" 	g2="hyphen,endash,emdash" 	k="44" />
<hkern g1="space" 	g2="comma,period,ellipsis" 	k="70" />
<hkern g1="space" 	g2="A,Aacute,Adieresis" 	k="40" />
<hkern g1="space" 	g2="C,G,O,Q,Oacute,Ocircumflex,Ccaron" 	k="13" />
<hkern g1="space" 	g2="T,Tcaron" 	k="36" />
<hkern g1="space" 	g2="V" 	k="30" />
<hkern g1="space" 	g2="W" 	k="25" />
<hkern g1="space" 	g2="X" 	k="30" />
<hkern g1="space" 	g2="Y,Yacute" 	k="30" />
<hkern g1="space" 	g2="Z,Zcaron" 	k="11" />
<hkern g1="space" 	g2="v,y,yacute" 	k="20" />
<hkern g1="space" 	g2="w" 	k="13" />
<hkern g1="space" 	g2="x" 	k="17" />
<hkern g1="space" 	g2="quotedbl,quotesingle,quoteleft,quoteright,quotedblleft,quotedblright" 	k="84" />
<hkern g1="space" 	g2="quotesinglbase,quotedblbase" 	k="84" />
<hkern g1="comma,period,ellipsis" 	g2="space" 	k="69" />
<hkern g1="comma,period,ellipsis" 	g2="asterisk" 	k="132" />
<hkern g1="comma,period,ellipsis" 	g2="hyphen,endash,emdash" 	k="117" />
<hkern g1="comma,period,ellipsis" 	g2="comma,period,ellipsis" 	k="-13" />
<hkern g1="comma,period,ellipsis" 	g2="A,Aacute,Adieresis" 	k="-55" />
<hkern g1="comma,period,ellipsis" 	g2="T,Tcaron" 	k="55" />
<hkern g1="comma,period,ellipsis" 	g2="V" 	k="62" />
<hkern g1="comma,period,ellipsis" 	g2="W" 	k="40" />
<hkern g1="comma,period,ellipsis" 	g2="X" 	k="-20" />
<hkern g1="comma,period,ellipsis" 	g2="Y,Yacute" 	k="70" />
<hkern g1="comma,period,ellipsis" 	g2="Z,Zcaron" 	k="-40" />
<hkern g1="comma,period,ellipsis" 	g2="t,tcaron" 	k="10" />
<hkern g1="comma,period,ellipsis" 	g2="v,y,yacute" 	k="22" />
<hkern g1="comma,period,ellipsis" 	g2="w" 	k="13" />
<hkern g1="comma,period,ellipsis" 	g2="z,zcaron" 	k="-20" />
<hkern g1="comma,period,ellipsis" 	g2="quotedbl,quotesingle,quoteleft,quoteright,quotedblleft,quotedblright" 	k="140" />
<hkern g1="comma,period,ellipsis" 	g2="quotesinglbase,quotedblbase" 	k="-40" />
<hkern g1="comma,period,ellipsis" 	g2="registered,trademark" 	k="88" />
<hkern g1="comma,period,ellipsis" 	g2="a,m,n,p,r,s,u" 	k="-20" />
<hkern g1="comma,period,ellipsis" 	g2="aacute,adieresis,iacute,uacute,ncaron,racute" 	k="-20" />
<hkern g1="hyphen,endash,emdash" 	g2="space" 	k="80" />
<hkern g1="hyphen,endash,emdash" 	g2="parenright,bracketright,braceright" 	k="35" />
<hkern g1="hyphen,endash,emdash" 	g2="asterisk" 	k="41" />
<hkern g1="hyphen,endash,emdash" 	g2="hyphen,endash,emdash" 	k="59" />
<hkern g1="hyphen,endash,emdash" 	g2="comma,period,ellipsis" 	k="117" />
<hkern g1="hyphen,endash,emdash" 	g2="A,Aacute,Adieresis" 	k="22" />
<hkern g1="hyphen,endash,emdash" 	g2="T,Tcaron" 	k="70" />
<hkern g1="hyphen,endash,emdash" 	g2="V" 	k="30" />
<hkern g1="hyphen,endash,emdash" 	g2="W" 	k="20" />
<hkern g1="hyphen,endash,emdash" 	g2="X" 	k="44" />
<hkern g1="hyphen,endash,emdash" 	g2="Y,Yacute" 	k="41" />
<hkern g1="hyphen,endash,emdash" 	g2="Z,Zcaron" 	k="10" />
<hkern g1="hyphen,endash,emdash" 	g2="x" 	k="17" />
<hkern g1="hyphen,endash,emdash" 	g2="quotedbl,quotesingle,quoteleft,quoteright,quotedblleft,quotedblright" 	k="186" />
<hkern g1="hyphen,endash,emdash" 	g2="quotesinglbase,quotedblbase" 	k="119" />
<hkern g1="quotedbl,quotesingle,quoteleft,quoteright,quotedblleft,quotedblright" 	g2="space" 	k="91" />
<hkern g1="quotedbl,quotesingle,quoteleft,quoteright,quotedblleft,quotedblright" 	g2="hyphen,endash,emdash" 	k="201" />
<hkern g1="quotedbl,quotesingle,quoteleft,quoteright,quotedblleft,quotedblright" 	g2="comma,period,ellipsis" 	k="131" />
<hkern g1="quotedbl,quotesingle,quoteleft,quoteright,quotedblleft,quotedblright" 	g2="A,Aacute,Adieresis" 	k="128" />
<hkern g1="quotedbl,quotesingle,quoteleft,quoteright,quotedblleft,quotedblright" 	g2="C,G,O,Q,Oacute,Ocircumflex,Ccaron" 	k="40" />
<hkern g1="quotedbl,quotesingle,quoteleft,quoteright,quotedblleft,quotedblright" 	g2="T,Tcaron" 	k="-20" />
<hkern g1="quotedbl,quotesingle,quoteleft,quoteright,quotedblleft,quotedblright" 	g2="V" 	k="-40" />
<hkern g1="quotedbl,quotesingle,quoteleft,quoteright,quotedblleft,quotedblright" 	g2="W" 	k="-40" />
<hkern g1="quotedbl,quotesingle,quoteleft,quoteright,quotedblleft,quotedblright" 	g2="Y,Yacute" 	k="-36" />
<hkern g1="quotedbl,quotesingle,quoteleft,quoteright,quotedblleft,quotedblright" 	g2="Z,Zcaron" 	k="-20" />
<hkern g1="quotedbl,quotesingle,quoteleft,quoteright,quotedblleft,quotedblright" 	g2="c,e,g,o,q,eacute,oacute,ocircumflex,ccaron,dcaron" 	k="104" />
<hkern g1="quotedbl,quotesingle,quoteleft,quoteright,quotedblleft,quotedblright" 	g2="t,tcaron" 	k="10" />
<hkern g1="quotedbl,quotesingle,quoteleft,quoteright,quotedblleft,quotedblright" 	g2="z,zcaron" 	k="13" />
<hkern g1="quotedbl,quotesingle,quoteleft,quoteright,quotedblleft,quotedblright" 	g2="a,m,n,p,r,s,u" 	k="73" />
<hkern g1="quotesinglbase,quotedblbase" 	g2="space" 	k="96" />
<hkern g1="quotesinglbase,quotedblbase" 	g2="asterisk" 	k="105" />
<hkern g1="quotesinglbase,quotedblbase" 	g2="hyphen,endash,emdash" 	k="161" />
<hkern g1="quotesinglbase,quotedblbase" 	g2="comma,period,ellipsis" 	k="-8" />
<hkern g1="quotesinglbase,quotedblbase" 	g2="A,Aacute,Adieresis" 	k="-13" />
<hkern g1="quotesinglbase,quotedblbase" 	g2="C,G,O,Q,Oacute,Ocircumflex,Ccaron" 	k="60" />
<hkern g1="quotesinglbase,quotedblbase" 	g2="T,Tcaron" 	k="124" />
<hkern g1="quotesinglbase,quotedblbase" 	g2="V" 	k="111" />
<hkern g1="quotesinglbase,quotedblbase" 	g2="W" 	k="87" />
<hkern g1="quotesinglbase,quotedblbase" 	g2="X" 	k="-13" />
<hkern g1="quotesinglbase,quotedblbase" 	g2="Y,Yacute" 	k="124" />
<hkern g1="quotesinglbase,quotedblbase" 	g2="Z,Zcaron" 	k="-20" />
<hkern g1="quotesinglbase,quotedblbase" 	g2="c,e,g,o,q,eacute,oacute,ocircumflex,ccaron,dcaron" 	k="23" />
<hkern g1="quotesinglbase,quotedblbase" 	g2="t,tcaron" 	k="30" />
<hkern g1="quotesinglbase,quotedblbase" 	g2="v,y,yacute" 	k="72" />
<hkern g1="quotesinglbase,quotedblbase" 	g2="w" 	k="55" />
<hkern g1="quotesinglbase,quotedblbase" 	g2="registered,trademark" 	k="79" />
<hkern g1="parenleft,bracketleft,braceleft" 	g2="hyphen,endash,emdash" 	k="35" />
<hkern g1="parenleft,bracketleft,braceleft" 	g2="comma,period,ellipsis" 	k="30" />
<hkern g1="parenleft,bracketleft,braceleft" 	g2="A,Aacute,Adieresis" 	k="17" />
<hkern g1="parenleft,bracketleft,braceleft" 	g2="C,G,O,Q,Oacute,Ocircumflex,Ccaron" 	k="17" />
<hkern g1="parenleft,bracketleft,braceleft" 	g2="c,e,g,o,q,eacute,oacute,ocircumflex,ccaron,dcaron" 	k="17" />
<hkern g1="parenleft,bracketleft,braceleft" 	g2="t,tcaron" 	k="10" />
<hkern g1="asterisk" 	g2="space" 	k="35" />
<hkern g1="asterisk" 	g2="hyphen,endash,emdash" 	k="191" />
<hkern g1="asterisk" 	g2="comma,period,ellipsis" 	k="250" />
<hkern g1="asterisk" 	g2="A,Aacute,Adieresis" 	k="55" />
<hkern g1="asterisk" 	g2="C,G,O,Q,Oacute,Ocircumflex,Ccaron" 	k="10" />
<hkern g1="asterisk" 	g2="T,Tcaron" 	k="-16" />
<hkern g1="asterisk" 	g2="V" 	k="-10" />
<hkern g1="asterisk" 	g2="W" 	k="-13" />
<hkern g1="asterisk" 	g2="Y,Yacute" 	k="-10" />
<hkern g1="asterisk" 	g2="Z,Zcaron" 	k="-20" />
<hkern g1="asterisk" 	g2="c,e,g,o,q,eacute,oacute,ocircumflex,ccaron,dcaron" 	k="20" />
<hkern g1="asterisk" 	g2="v,y,yacute" 	k="-22" />
<hkern g1="asterisk" 	g2="quotesinglbase,quotedblbase" 	k="99" />
<hkern g1="seven" 	g2="space" 	k="54" />
<hkern g1="seven" 	g2="hyphen,endash,emdash" 	k="64" />
<hkern g1="seven" 	g2="comma,period,ellipsis" 	k="119" />
<hkern g1="seven" 	g2="A,Aacute,Adieresis" 	k="66" />
<hkern g1="seven" 	g2="C,G,O,Q,Oacute,Ocircumflex,Ccaron" 	k="30" />
<hkern g1="seven" 	g2="X" 	k="31" />
<hkern g1="seven" 	g2="Y,Yacute" 	k="12" />
<hkern g1="seven" 	g2="c,e,g,o,q,eacute,oacute,ocircumflex,ccaron,dcaron" 	k="55" />
<hkern g1="seven" 	g2="t,tcaron" 	k="33" />
<hkern g1="seven" 	g2="v,y,yacute" 	k="40" />
<hkern g1="seven" 	g2="w" 	k="40" />
<hkern g1="seven" 	g2="x" 	k="54" />
<hkern g1="seven" 	g2="z,zcaron" 	k="55" />
<hkern g1="seven" 	g2="quotesinglbase,quotedblbase" 	k="115" />
<hkern g1="seven" 	g2="a,m,n,p,r,s,u" 	k="55" />
<hkern g1="seven" 	g2="aacute,adieresis,iacute,uacute,ncaron,racute" 	k="20" />
<hkern g1="r,racute" 	g2="comma,period,ellipsis" 	k="60" />
<hkern g1="r,racute" 	g2="t,tcaron" 	k="-30" />
</font>
</defs></svg> 